multi-cycle-processor/output.vcd
$date
	Tue Aug 20 21:48:24 2024
$end
$version
	Icarus Verilog
$end
$timescale
	1s
$end
$scope module testbench $end
$scope module tb $end
$var wire 1 ! clk $end
$var wire 1 " reset $end
$var wire 32 # writedata [31:0] $end
$var wire 32 $ readdata [31:0] $end
$var wire 1 % memwrite $end
$var wire 32 & addr [31:0] $end
$scope module mc $end
$var wire 1 ! clk $end
$var wire 1 " reset $end
$var wire 1 ' zero $end
$var wire 32 ( writedata [31:0] $end
$var wire 1 ) regwrite $end
$var wire 1 * regdst $end
$var wire 32 + readdata [31:0] $end
$var wire 2 , pcsrc [1:0] $end
$var wire 1 - pcen $end
$var wire 6 . op [5:0] $end
$var wire 1 % memwrite $end
$var wire 1 / memtoreg $end
$var wire 1 0 irwrite $end
$var wire 1 1 iord $end
$var wire 6 2 funct [5:0] $end
$var wire 2 3 alusrcb [1:0] $end
$var wire 1 4 alusrca $end
$var wire 3 5 alucontrol [2:0] $end
$var wire 32 6 addr [31:0] $end
$scope module c $end
$var wire 1 ! clk $end
$var wire 1 - pcen $end
$var wire 1 " reset $end
$var wire 1 ' zero $end
$var wire 1 ) regwrite $end
$var wire 1 * regdst $end
$var wire 1 7 pcwrite $end
$var wire 2 8 pcsrc [1:0] $end
$var wire 6 9 op [5:0] $end
$var wire 1 % memwrite $end
$var wire 1 / memtoreg $end
$var wire 1 0 irwrite $end
$var wire 1 1 iord $end
$var wire 6 : funct [5:0] $end
$var wire 1 ; branch $end
$var wire 2 < alusrcb [1:0] $end
$var wire 1 4 alusrca $end
$var wire 2 = aluop [1:0] $end
$var wire 3 > alucontrol [2:0] $end
$scope module ad $end
$var wire 6 ? funct [5:0] $end
$var wire 2 @ aluop [1:0] $end
$var reg 3 A alucontrol [2:0] $end
$upscope $end
$scope module md $end
$var wire 1 ! clk $end
$var wire 1 " reset $end
$var wire 1 ) regwrite $end
$var wire 1 * regdst $end
$var wire 1 7 pcwrite $end
$var wire 2 B pcsrc [1:0] $end
$var wire 6 C op [5:0] $end
$var wire 1 % memwrite $end
$var wire 1 / memtoreg $end
$var wire 1 0 irwrite $end
$var wire 1 1 iord $end
$var wire 1 ; branch $end
$var wire 2 D alusrcb [1:0] $end
$var wire 1 4 alusrca $end
$var wire 2 E aluop [1:0] $end
$var parameter 6 F ADDI $end
$var parameter 5 G ADDIEX $end
$var parameter 5 H ADDIWB $end
$var parameter 5 I ALUWB $end
$var parameter 6 J BEQ $end
$var parameter 5 K BRANCH $end
$var parameter 5 L DECODE $end
$var parameter 5 M EXECUTE $end
$var parameter 5 N FETCH $end
$var parameter 6 O J $end
$var parameter 5 P JUMP $end
$var parameter 6 Q LW $end
$var parameter 5 R MEMADR $end
$var parameter 5 S MEMRD $end
$var parameter 5 T MEMWB $end
$var parameter 5 U MEMWR $end
$var parameter 6 V R $end
$var parameter 6 W SW $end
$var reg 17 X controls [16:0] $end
$var reg 5 Y ns [4:0] $end
$var reg 5 Z s [4:0] $end
$upscope $end
$upscope $end
$scope module dp $end
$var wire 3 [ alucontrol [2:0] $end
$var wire 1 4 alusrca $end
$var wire 2 \ alusrcb [1:0] $end
$var wire 1 ! clk $end
$var wire 1 1 iord $end
$var wire 1 0 irwrite $end
$var wire 1 / memtoreg $end
$var wire 1 - pcen $end
$var wire 2 ] pcsrc [1:0] $end
$var wire 1 * regdst $end
$var wire 1 ) regwrite $end
$var wire 1 " reset $end
$var wire 1 ' zero $end
$var wire 5 ^ writereg [4:0] $end
$var wire 32 _ writedata [31:0] $end
$var wire 32 ` wd3 [31:0] $end
$var wire 32 a srcb [31:0] $end
$var wire 32 b srca [31:0] $end
$var wire 32 c signimmsh [31:0] $end
$var wire 32 d signimm [31:0] $end
$var wire 32 e readdata [31:0] $end
$var wire 32 f rd2 [31:0] $end
$var wire 32 g rd1 [31:0] $end
$var wire 32 h pcnext [31:0] $end
$var wire 32 i pc [31:0] $end
$var wire 6 j op [5:0] $end
$var wire 32 k instr [31:0] $end
$var wire 6 l funct [5:0] $end
$var wire 32 m data [31:0] $end
$var wire 32 n aluresult [31:0] $end
$var wire 32 o aluout [31:0] $end
$var wire 32 p addr [31:0] $end
$var wire 32 q a [31:0] $end
$scope module addrmux $end
$var wire 1 1 s $end
$var wire 32 r op [31:0] $end
$var wire 32 s b [31:0] $end
$var wire 32 t a [31:0] $end
$var parameter 32 u WIDTH $end
$upscope $end
$scope module alu $end
$var wire 3 v aluc [2:0] $end
$var wire 1 ' zero $end
$var wire 32 w b [31:0] $end
$var wire 32 x a [31:0] $end
$var reg 32 y op [31:0] $end
$upscope $end
$scope module alureg $end
$var wire 1 ! clk $end
$var wire 32 z d [31:0] $end
$var wire 1 " reset $end
$var parameter 32 { WIDTH $end
$var reg 32 | q [31:0] $end
$upscope $end
$scope module areg $end
$var wire 1 ! clk $end
$var wire 1 " reset $end
$var wire 32 } d [31:0] $end
$var parameter 32 ~ WIDTH $end
$var reg 32 !" q [31:0] $end
$upscope $end
$scope module breg $end
$var wire 1 ! clk $end
$var wire 1 " reset $end
$var wire 32 "" d [31:0] $end
$var parameter 32 #" WIDTH $end
$var reg 32 $" q [31:0] $end
$upscope $end
$scope module datareg $end
$var wire 1 ! clk $end
$var wire 1 " reset $end
$var wire 32 %" d [31:0] $end
$var parameter 32 &" WIDTH $end
$var reg 32 '" q [31:0] $end
$upscope $end
$scope module immsh $end
$var wire 32 (" b [31:0] $end
$var wire 32 )" a [31:0] $end
$upscope $end
$scope module instrreg $end
$var wire 1 ! clk $end
$var wire 1 0 en $end
$var wire 1 " reset $end
$var wire 32 *" d [31:0] $end
$var parameter 32 +" WIDTH $end
$var reg 32 ," q [31:0] $end
$upscope $end
$scope module pcmux $end
$var wire 32 -" a [31:0] $end
$var wire 32 ." b [31:0] $end
$var wire 32 /" c [31:0] $end
$var wire 2 0" s [1:0] $end
$var wire 32 1" op [31:0] $end
$var parameter 32 2" WIDTH $end
$upscope $end
$scope module pcreg $end
$var wire 1 ! clk $end
$var wire 32 3" d [31:0] $end
$var wire 1 - en $end
$var wire 1 " reset $end
$var parameter 32 4" WIDTH $end
$var reg 32 5" q [31:0] $end
$upscope $end
$scope module regdstmux $end
$var wire 5 6" a [4:0] $end
$var wire 5 7" b [4:0] $end
$var wire 1 * s $end
$var wire 5 8" op [4:0] $end
$var parameter 32 9" WIDTH $end
$upscope $end
$scope module rf $end
$var wire 1 ! clk $end
$var wire 5 :" ra1 [4:0] $end
$var wire 5 ;" ra2 [4:0] $end
$var wire 5 <" wa3 [4:0] $end
$var wire 1 ) we3 $end
$var wire 32 =" wd3 [31:0] $end
$var wire 32 >" rd2 [31:0] $end
$var wire 32 ?" rd1 [31:0] $end
$upscope $end
$scope module se $end
$var wire 16 @" a [15:0] $end
$var wire 32 A" b [31:0] $end
$upscope $end
$scope module srcamux $end
$var wire 32 B" a [31:0] $end
$var wire 32 C" b [31:0] $end
$var wire 1 4 s $end
$var wire 32 D" op [31:0] $end
$var parameter 32 E" WIDTH $end
$upscope $end
$scope module srcbmux $end
$var wire 32 F" a [31:0] $end
$var wire 32 G" b [31:0] $end
$var wire 32 H" c [31:0] $end
$var wire 32 I" d [31:0] $end
$var wire 2 J" s [1:0] $end
$var parameter 32 K" WIDTH $end
$var reg 32 L" op [31:0] $end
$upscope $end
$scope module wdmux $end
$var wire 32 M" a [31:0] $end
$var wire 32 N" b [31:0] $end
$var wire 1 / s $end
$var wire 32 O" op [31:0] $end
$var parameter 32 P" WIDTH $end
$upscope $end
$upscope $end
$upscope $end
$scope module mem $end
$var wire 32 Q" a [31:0] $end
$var wire 1 ! clk $end
$var wire 32 R" rd [31:0] $end
$var wire 32 S" wd [31:0] $end
$var wire 1 % we $end
$upscope $end
$upscope $end
$upscope $end
$enddefinitions $end
$comment Show the parameter values. $end
$dumpall
b100000 P"
b100000 K"
b100000 E"
b101 9"
b100000 4"
b100000 2"
b100000 +"
b100000 &"
b100000 #"
b100000 ~
b100000 {
b100000 u
b101011 W
b0 V
b101 U
b100 T
b11 S
b10 R
b100011 Q
b1011 P
b10 O
b0 N
b110 M
b1 L
b1000 K
b100 J
b111 I
b1010 H
b1001 G
b1000 F
$end
#0
$dumpvars
b0 S"
b100000000000100000000000000101 R"
b0 Q"
b0 O"
b0 N"
b0 M"
b100 L"
b1 J"
b0 I"
b0 H"
b100 G"
b0 F"
b0 D"
b0 C"
b0 B"
b0 A"
b0 @"
b0 ?"
b0 >"
b0 ="
b0 <"
b0 ;"
b0 :"
b0 8"
b0 7"
b0 6"
b0 5"
bx 3"
bx 1"
b0 0"
b0 /"
b0 ."
b100 -"
b0 ,"
b100000000000100000000000000101 *"
b0 )"
b0 ("
b0 '"
b100000000000100000000000000101 %"
b0 $"
b0 ""
b0 !"
b0 }
b0 |
b100 z
b100 y
b0 x
b100 w
b10 v
b0 t
b0 s
b0 r
b0 q
b0 p
b0 o
b100 n
b0 m
b0 l
b0 k
b0 j
b0 i
bx h
b0 g
b0 f
b100000000000100000000000000101 e
b0 d
b0 c
b0 b
b100 a
b0 `
b0 _
b0 ^
b0 ]
b1 \
b10 [
b0 Z
b1 Y
b101000000010000 X
b0 E
b1 D
b0 C
b0 B
b10 A
b0 @
b0 ?
b10 >
b0 =
b1 <
0;
b0 :
b0 9
b0 8
17
b0 6
b10 5
04
b1 3
b0 2
01
10
0/
b0 .
1-
b0 ,
b100000000000100000000000000101 +
0*
0)
b0 (
0'
b0 &
0%
b100000000000100000000000000101 $
b0 #
1"
1!
$end
#1
b100 h
b100 1"
b100 3"
#5
0!
#10
1!
#12
0"
#15
0!
#20
b10100 a
b10100 w
b10100 L"
0-
b11 3
b11 <
b11 D
b11 \
b11 J"
00
07
b11000 n
b11000 y
b11000 z
b11000 -"
b110000 X
b1001 Y
b100000000000110000000000001100 $
b100000000000110000000000001100 +
b100000000000110000000000001100 e
b100000000000110000000000001100 %"
b100000000000110000000000001100 *"
b100000000000110000000000001100 R"
b10100 c
b10100 ("
b10100 I"
bx f
bx ""
bx >"
b10 ^
b10 8"
b10 <"
b100 b
b100 x
b100 D"
b100 &
b100 6
b100 p
b100 r
b100 Q"
b10000000000000010100 /"
b101 d
b101 )"
b101 A"
b101 H"
b101 @"
b10 ;"
b10 6"
b101 2
b101 :
b101 ?
b101 l
b1000 .
b1000 9
b1000 C
b1000 j
b100 `
b100 ="
b100 O"
b1 Z
b100 i
b100 t
b100 5"
b100 B"
b100000000000100000000000000101 k
b100000000000100000000000000101 ,"
b100000000000100000000000000101 m
b100000000000100000000000000101 '"
b100000000000100000000000000101 N"
b100 o
b100 s
b100 |
b100 ."
b100 M"
1!
#21
b11000 h
b11000 1"
b11000 3"
#25
0!
#30
b101 n
b101 y
b101 z
b101 -"
b101 a
b101 w
b101 L"
b0 b
b0 x
b0 D"
b10 3
b10 <
b10 D
b10 \
b10 J"
14
b10000100000 X
b1010 Y
b11000 `
b11000 ="
b11000 O"
b11000 o
b11000 s
b11000 |
b11000 ."
b11000 M"
bx #
bx (
bx _
bx $"
bx F"
bx S"
b100000000000110000000000001100 m
b100000000000110000000000001100 '"
b100000000000110000000000001100 N"
b1001 Z
1!
#31
b101 h
b101 1"
b101 3"
#35
0!
#40
x'
bx n
bx y
bx z
bx -"
bx a
bx w
bx L"
b100 b
b100 x
b100 D"
b0 3
b0 <
b0 D
b0 \
b0 J"
04
1)
b100000000000 X
b0 Y
b101 `
b101 ="
b101 O"
b1010 Z
b101 o
b101 s
b101 |
b101 ."
b101 M"
1!
#41
bx h
bx 1"
bx 3"
#45
0!
#50
0'
b1000 n
b1000 y
b1000 z
b1000 -"
b100 a
b100 w
b100 L"
1-
b1 3
b1 <
b1 D
b1 \
b1 J"
0)
10
17
b101000000010000 X
b1 Y
bx `
bx ="
bx O"
b101 f
b101 ""
b101 >"
bx o
bx s
bx |
bx ."
bx M"
b0 Z
1!
#51
b1000 h
b1000 1"
b1000 3"
#55
0!
#60
b110000 a
b110000 w
b110000 L"
0-
b11 3
b11 <
b11 D
b11 \
b11 J"
00
07
b111000 n
b111000 y
b111000 z
b111000 -"
b110000 X
b1001 Y
b100000011001111111111111110111 $
b100000011001111111111111110111 +
b100000011001111111111111110111 e
b100000011001111111111111110111 %"
b100000011001111111111111110111 *"
b100000011001111111111111110111 R"
b110000 c
b110000 ("
b110000 I"
bx f
bx ""
bx >"
b11 ^
b11 8"
b11 <"
b1000 b
b1000 x
b1000 D"
b1000 &
b1000 6
b1000 p
b1000 r
b1000 Q"
b11000000000000110000 /"
b1100 d
b1100 )"
b1100 A"
b1100 H"
b1100 @"
b11 ;"
b11 6"
b1100 2
b1100 :
b1100 ?
b1100 l
b1000 `
b1000 ="
b1000 O"
b1 Z
b1000 i
b1000 t
b1000 5"
b1000 B"
b100000000000110000000000001100 k
b100000000000110000000000001100 ,"
b101 #
b101 (
b101 _
b101 $"
b101 F"
b101 S"
b1000 o
b1000 s
b1000 |
b1000 ."
b1000 M"
1!
#61
b111000 h
b111000 1"
b111000 3"
#65
0!
#70
b1100 n
b1100 y
b1100 z
b1100 -"
b1100 a
b1100 w
b1100 L"
b0 b
b0 x
b0 D"
b10 3
b10 <
b10 D
b10 \
b10 J"
14
b10000100000 X
b1010 Y
b111000 `
b111000 ="
b111000 O"
b111000 o
b111000 s
b111000 |
b111000 ."
b111000 M"
bx #
bx (
bx _
bx $"
bx F"
bx S"
b100000011001111111111111110111 m
b100000011001111111111111110111 '"
b100000011001111111111111110111 N"
b1001 Z
1!
#71
b1100 h
b1100 1"
b1100 3"
#75
0!
#80
x'
bx n
bx y
bx z
bx -"
bx a
bx w
bx L"
b1000 b
b1000 x
b1000 D"
b0 3
b0 <
b0 D
b0 \
b0 J"
04
1)
b100000000000 X
b0 Y
b1100 `
b1100 ="
b1100 O"
b1010 Z
b1100 o
b1100 s
b1100 |
b1100 ."
b1100 M"
1!
#81
bx h
bx 1"
bx 3"
#85
0!
#90
0'
b1100 n
b1100 y
b1100 z
b1100 -"
b100 a
b100 w
b100 L"
1-
b1 3
b1 <
b1 D
b1 \
b1 J"
0)
10
17
b101000000010000 X
b1 Y
bx `
bx ="
bx O"
b1100 f
b1100 ""
b1100 >"
bx o
bx s
bx |
bx ."
bx M"
b0 Z
1!
#91
b1100 h
b1100 1"
b1100 3"
#95
0!
#100
b11111111111111111111111111011100 a
b11111111111111111111111111011100 w
b11111111111111111111111111011100 L"
0-
b11 3
b11 <
b11 D
b11 \
b11 J"
00
07
b11111111111111111111111111101000 n
b11111111111111111111111111101000 y
b11111111111111111111111111101000 z
b11111111111111111111111111101000 -"
b110000 X
b1001 Y
b111000100010000000100101 $
b111000100010000000100101 +
b111000100010000000100101 e
b111000100010000000100101 %"
b111000100010000000100101 *"
b111000100010000000100101 R"
b11111111111111111111111111011100 c
b11111111111111111111111111011100 ("
b11111111111111111111111111011100 I"
bx f
bx ""
bx >"
b1100 g
b1100 }
b1100 ?"
b111 ^
b111 8"
b111 <"
b1100 b
b1100 x
b1100 D"
b1100 &
b1100 6
b1100 p
b1100 r
b1100 Q"
b1100111111111111111011100 /"
b11111111111111111111111111110111 d
b11111111111111111111111111110111 )"
b11111111111111111111111111110111 A"
b11111111111111111111111111110111 H"
b1111111111110111 @"
b111 ;"
b11 :"
b11111 7"
b111 6"
b110111 2
b110111 :
b110111 ?
b110111 l
b1100 `
b1100 ="
b1100 O"
b1 Z
b1100 i
b1100 t
b1100 5"
b1100 B"
b100000011001111111111111110111 k
b100000011001111111111111110111 ,"
b1100 #
b1100 (
b1100 _
b1100 $"
b1100 F"
b1100 S"
b1100 o
b1100 s
b1100 |
b1100 ."
b1100 M"
1!
#101
b11111111111111111111111111101000 h
b11111111111111111111111111101000 1"
b11111111111111111111111111101000 3"
#105
0!
#110
b11 n
b11 y
b11 z
b11 -"
b11111111111111111111111111110111 a
b11111111111111111111111111110111 w
b11111111111111111111111111110111 L"
b10 3
b10 <
b10 D
b10 \
b10 J"
14
b10000100000 X
b1010 Y
b11111111111111111111111111101000 `
b11111111111111111111111111101000 ="
b11111111111111111111111111101000 O"
b11111111111111111111111111101000 o
b11111111111111111111111111101000 s
b11111111111111111111111111101000 |
b11111111111111111111111111101000 ."
b11111111111111111111111111101000 M"
bx #
bx (
bx _
bx $"
bx F"
bx S"
b1100 q
b1100 !"
b1100 C"
b111000100010000000100101 m
b111000100010000000100101 '"
b111000100010000000100101 N"
b1001 Z
1!
#111
b11 h
b11 1"
b11 3"
#115
0!
#120
x'
bx n
bx y
bx z
bx -"
bx a
bx w
bx L"
b0 3
b0 <
b0 D
b0 \
b0 J"
04
1)
b100000000000 X
b0 Y
b11 `
b11 ="
b11 O"
b1010 Z
b11 o
b11 s
b11 |
b11 ."
b11 M"
1!
#121
bx h
bx 1"
bx 3"
#125
0!
#130
0'
b10000 n
b10000 y
b10000 z
b10000 -"
b100 a
b100 w
b100 L"
1-
b1 3
b1 <
b1 D
b1 \
b1 J"
0)
10
17
b101000000010000 X
b1 Y
bx `
bx ="
bx O"
b11 f
b11 ""
b11 >"
bx o
bx s
bx |
bx ."
bx M"
b0 Z
1!
#131
b10000 h
b10000 1"
b10000 3"
#135
0!
#140
b1000000010010100 a
b1000000010010100 w
b1000000010010100 L"
0-
b11 3
b11 <
b11 D
b11 \
b11 J"
00
07
b1000000010100100 n
b1000000010100100 y
b1000000010100100 z
b1000000010100100 -"
b110000 X
b110 Y
b11001000010100000100100 $
b11001000010100000100100 +
b11001000010100000100100 e
b11001000010100000100100 %"
b11001000010100000100100 *"
b11001000010100000100100 R"
b1000000010010100 c
b1000000010010100 ("
b1000000010010100 I"
b101 f
b101 ""
b101 >"
b11 g
b11 }
b11 ?"
b10 ^
b10 8"
b10 <"
b10000 b
b10000 x
b10000 D"
b10000 &
b10000 6
b10000 p
b10000 r
b10000 Q"
b11100010001000000010010100 /"
b10000000100101 d
b10000000100101 )"
b10000000100101 A"
b10000000100101 H"
b10000000100101 @"
b10 ;"
b111 :"
b100 7"
b10 6"
b100101 2
b100101 :
b100101 ?
b100101 l
b0 .
b0 9
b0 C
b0 j
b10000 `
b10000 ="
b10000 O"
b1 Z
b10000 i
b10000 t
b10000 5"
b10000 B"
b111000100010000000100101 k
b111000100010000000100101 ,"
b11 #
b11 (
b11 _
b11 $"
b11 F"
b11 S"
b10000 o
b10000 s
b10000 |
b10000 ."
b10000 M"
1!
#141
b1000000010100100 h
b1000000010100100 1"
b1000000010100100 3"
#145
0!
#150
b111 n
b111 y
b111 z
b111 -"
b1 5
b1 >
b1 A
b1 [
b1 v
b101 a
b101 w
b101 L"
b11 b
b11 x
b11 D"
b10 =
b10 @
b10 E
b0 3
b0 <
b0 D
b0 \
b0 J"
14
b10000000010 X
b111 Y
b1000000010100100 `
b1000000010100100 ="
b1000000010100100 O"
b1000000010100100 o
b1000000010100100 s
b1000000010100100 |
b1000000010100100 ."
b1000000010100100 M"
b101 #
b101 (
b101 _
b101 $"
b101 F"
b101 S"
b11 q
b11 !"
b11 C"
b11001000010100000100100 m
b11001000010100000100100 '"
b11001000010100000100100 N"
b110 Z
1!
#151
b111 h
b111 1"
b111 3"
#155
0!
#160
b10101 n
b10101 y
b10101 z
b10101 -"
b10 5
b10 >
b10 A
b10 [
b10 v
b100 ^
b100 8"
b100 <"
b10000 b
b10000 x
b10000 D"
b0 =
b0 @
b0 E
1*
04
1)
b100001000000 X
b0 Y
b111 `
b111 ="
b111 O"
b111 Z
b111 o
b111 s
b111 |
b111 ."
b111 M"
1!
#161
b10101 h
b10101 1"
b10101 3"
#165
0!
#170
b10100 n
b10100 y
b10100 z
b10100 -"
b100 a
b100 w
b100 L"
b10 ^
b10 8"
b10 <"
1-
b1 3
b1 <
b1 D
b1 \
b1 J"
0*
0)
10
17
b101000000010000 X
b1 Y
b10101 `
b10101 ="
b10101 O"
b10101 o
b10101 s
b10101 |
b10101 ."
b10101 M"
b0 Z
1!
#171
b10100 h
b10100 1"
b10100 3"
#175
0!
#180
b1010000010010000 a
b1010000010010000 w
b1010000010010000 L"
0-
b11 3
b11 <
b11 D
b11 \
b11 J"
00
07
b1010000010100100 n
b1010000010100100 y
b1010000010100100 z
b1010000010100100 -"
b110000 X
b110 Y
b101001000010100000100000 $
b101001000010100000100000 +
b101001000010100000100000 e
b101001000010100000100000 %"
b101001000010100000100000 *"
b101001000010100000100000 R"
b1010000010010000 c
b1010000010010000 ("
b1010000010010000 I"
b111 f
b111 ""
b111 >"
b1100 g
b1100 }
b1100 ?"
b100 ^
b100 8"
b100 <"
b10100 b
b10100 x
b10100 D"
b10100 &
b10100 6
b10100 p
b10100 r
b10100 Q"
b1100100001010000010010000 /"
b10100000100100 d
b10100000100100 )"
b10100000100100 A"
b10100000100100 H"
b10100000100100 @"
b100 ;"
b11 :"
b101 7"
b100 6"
b100100 2
b100100 :
b100100 ?
b100100 l
b10100 `
b10100 ="
b10100 O"
b1 Z
b10100 i
b10100 t
b10100 5"
b10100 B"
b11001000010100000100100 k
b11001000010100000100100 ,"
b10100 o
b10100 s
b10100 |
b10100 ."
b10100 M"
1!
#181
b1010000010100100 h
b1010000010100100 1"
b1010000010100100 3"
#185
0!
#190
b100 n
b100 y
b100 z
b100 -"
b0 5
b0 >
b0 A
b0 [
b0 v
b111 a
b111 w
b111 L"
b1100 b
b1100 x
b1100 D"
b10 =
b10 @
b10 E
b0 3
b0 <
b0 D
b0 \
b0 J"
14
b10000000010 X
b111 Y
b1010000010100100 `
b1010000010100100 ="
b1010000010100100 O"
b1010000010100100 o
b1010000010100100 s
b1010000010100100 |
b1010000010100100 ."
b1010000010100100 M"
b111 #
b111 (
b111 _
b111 $"
b111 F"
b111 S"
b1100 q
b1100 !"
b1100 C"
b101001000010100000100000 m
b101001000010100000100000 '"
b101001000010100000100000 N"
b110 Z
1!
#191
b100 h
b100 1"
b100 3"
#195
0!
#200
b11011 n
b11011 y
b11011 z
b11011 -"
b10 5
b10 >
b10 A
b10 [
b10 v
b101 ^
b101 8"
b101 <"
b10100 b
b10100 x
b10100 D"
b0 =
b0 @
b0 E
1*
04
1)
b100001000000 X
b0 Y
b100 `
b100 ="
b100 O"
b111 Z
b100 o
b100 s
b100 |
b100 ."
b100 M"
1!
#201
b11011 h
b11011 1"
b11011 3"
#205
0!
#210
b11000 n
b11000 y
b11000 z
b11000 -"
b100 a
b100 w
b100 L"
b100 ^
b100 8"
b100 <"
1-
b1 3
b1 <
b1 D
b1 \
b1 J"
0*
0)
10
17
b101000000010000 X
b1 Y
b11011 `
b11011 ="
b11011 O"
b11011 o
b11011 s
b11011 |
b11011 ."
b11011 M"
b0 Z
1!
#211
b11000 h
b11000 1"
b11000 3"
#215
0!
#220
b1010000010000000 a
b1010000010000000 w
b1010000010000000 L"
0-
b11 3
b11 <
b11 D
b11 \
b11 J"
00
07
b1010000010011000 n
b1010000010011000 y
b1010000010011000 z
b1010000010011000 -"
b110000 X
b110 Y
b10000101001110000000000001010 $
b10000101001110000000000001010 +
b10000101001110000000000001010 e
b10000101001110000000000001010 %"
b10000101001110000000000001010 *"
b10000101001110000000000001010 R"
b1010000010000000 c
b1010000010000000 ("
b1010000010000000 I"
b100 g
b100 }
b100 ?"
b11000 b
b11000 x
b11000 D"
b11000 &
b11000 6
b11000 p
b11000 r
b11000 Q"
b10100100001010000010000000 /"
b10100000100000 d
b10100000100000 )"
b10100000100000 A"
b10100000100000 H"
b10100000100000 @"
b101 :"
b100000 2
b100000 :
b100000 ?
b100000 l
b11000 `
b11000 ="
b11000 O"
b1 Z
b11000 i
b11000 t
b11000 5"
b11000 B"
b101001000010100000100000 k
b101001000010100000100000 ,"
b11000 o
b11000 s
b11000 |
b11000 ."
b11000 M"
1!
#221
b1010000010011000 h
b1010000010011000 1"
b1010000010011000 3"
#225
0!
#230
b1011 n
b1011 y
b1011 z
b1011 -"
b111 a
b111 w
b111 L"
b100 b
b100 x
b100 D"
b10 =
b10 @
b10 E
b0 3
b0 <
b0 D
b0 \
b0 J"
14
b10000000010 X
b111 Y
b1010000010011000 `
b1010000010011000 ="
b1010000010011000 O"
b1010000010011000 o
b1010000010011000 s
b1010000010011000 |
b1010000010011000 ."
b1010000010011000 M"
b100 q
b100 !"
b100 C"
b10000101001110000000000001010 m
b10000101001110000000000001010 '"
b10000101001110000000000001010 N"
b110 Z
1!
#231
b1011 h
b1011 1"
b1011 3"
#235
0!
#240
b11111 n
b11111 y
b11111 z
b11111 -"
b101 ^
b101 8"
b101 <"
b11000 b
b11000 x
b11000 D"
b0 =
b0 @
b0 E
1*
04
1)
b100001000000 X
b0 Y
b1011 `
b1011 ="
b1011 O"
b111 Z
b1011 o
b1011 s
b1011 |
b1011 ."
b1011 M"
1!
#241
b11111 h
b11111 1"
b11111 3"
#245
0!
#250
b11100 n
b11100 y
b11100 z
b11100 -"
b100 a
b100 w
b100 L"
b100 ^
b100 8"
b100 <"
1-
b1 3
b1 <
b1 D
b1 \
b1 J"
0*
0)
10
17
b101000000010000 X
b1 Y
b11111 `
b11111 ="
b11111 O"
b1011 g
b1011 }
b1011 ?"
b11111 o
b11111 s
b11111 |
b11111 ."
b11111 M"
b0 Z
1!
#251
b11100 h
b11100 1"
b11100 3"
#255
0!
#260
b101000 a
b101000 w
b101000 L"
0-
b11 3
b11 <
b11 D
b11 \
b11 J"
00
07
b1000100 n
b1000100 y
b1000100 z
b1000100 -"
b110000 X
b1000 Y
b11001000010000000101010 $
b11001000010000000101010 +
b11001000010000000101010 e
b11001000010000000101010 %"
b11001000010000000101010 *"
b11001000010000000101010 R"
b101000 c
b101000 ("
b101000 I"
b11 f
b11 ""
b11 >"
b111 ^
b111 8"
b111 <"
b11100 b
b11100 x
b11100 D"
b11100 &
b11100 6
b11100 p
b11100 r
b11100 Q"
b10100111000000000000101000 /"
b1010 d
b1010 )"
b1010 A"
b1010 H"
b1010 @"
b111 ;"
b0 7"
b111 6"
b1010 2
b1010 :
b1010 ?
b1010 l
b100 .
b100 9
b100 C
b100 j
b11100 `
b11100 ="
b11100 O"
b1 Z
b11100 i
b11100 t
b11100 5"
b11100 B"
b10000101001110000000000001010 k
b10000101001110000000000001010 ,"
b1011 q
b1011 !"
b1011 C"
b11100 o
b11100 s
b11100 |
b11100 ."
b11100 M"
1!
#261
b1000100 h
b1000100 1"
b1000100 3"
#265
0!
#270
b1110 n
b1110 y
b1110 z
b1110 -"
b11 a
b11 w
b11 L"
b1011 b
b1011 x
b1011 D"
b1 =
b1 @
b1 E
b1 ,
b1 8
b1 B
b1 ]
b1 0"
b0 3
b0 <
b0 D
b0 \
b0 J"
1;
14
b11000000101 X
b0 Y
b1000100 `
b1000100 ="
b1000100 O"
b1000100 o
b1000100 s
b1000100 |
b1000100 ."
b1000100 M"
b11 #
b11 (
b11 _
b11 $"
b11 F"
b11 S"
b11001000010000000101010 m
b11001000010000000101010 '"
b11001000010000000101010 N"
b1000 Z
1!
#275
0!
#280
b100000 n
b100000 y
b100000 z
b100000 -"
b100 a
b100 w
b100 L"
b11100 b
b11100 x
b11100 D"
1-
b0 =
b0 @
b0 E
b0 ,
b0 8
b0 B
b0 ]
b0 0"
b1 3
b1 <
b1 D
b1 \
b1 J"
0;
04
10
17
b101000000010000 X
b1 Y
b1110 `
b1110 ="
b1110 O"
b0 Z
b1110 o
b1110 s
b1110 |
b1110 ."
b1110 M"
1!
#281
b100000 h
b100000 1"
b100000 3"
#285
0!
#290
b1000000010101000 a
b1000000010101000 w
b1000000010101000 L"
0-
b11 3
b11 <
b11 D
b11 \
b11 J"
00
07
b1000000011001000 n
b1000000011001000 y
b1000000011001000 z
b1000000011001000 -"
b110000 X
b110 Y
b1000000010101000 c
b1000000010101000 ("
b1000000010101000 I"
b111 f
b111 ""
b111 >"
b1100 g
b1100 }
b1100 ?"
b100 ^
b100 8"
b100 <"
b10000100000000000000000000001 $
b10000100000000000000000000001 +
b10000100000000000000000000001 e
b10000100000000000000000000001 %"
b10000100000000000000000000001 *"
b10000100000000000000000000001 R"
b100000 `
b100000 ="
b100000 O"
b1100100001000000010101000 /"
b10000000101010 d
b10000000101010 )"
b10000000101010 A"
b10000000101010 H"
b10000000101010 @"
b100 ;"
b11 :"
b100 7"
b100 6"
b101010 2
b101010 :
b101010 ?
b101010 l
b0 .
b0 9
b0 C
b0 j
b100000 b
b100000 x
b100000 D"
b100000 &
b100000 6
b100000 p
b100000 r
b100000 Q"
b100000 o
b100000 s
b100000 |
b100000 ."
b100000 M"
b11001000010000000101010 k
b11001000010000000101010 ,"
b100000 i
b100000 t
b100000 5"
b100000 B"
b1 Z
1!
#291
b1000000011001000 h
b1000000011001000 1"
b1000000011001000 3"
#295
0!
#300
1'
b0 n
b0 y
b0 z
b0 -"
b111 5
b111 >
b111 A
b111 [
b111 v
b111 a
b111 w
b111 L"
b1100 b
b1100 x
b1100 D"
b10 =
b10 @
b10 E
b0 3
b0 <
b0 D
b0 \
b0 J"
14
b10000000010 X
b111 Y
b1000000011001000 `
b1000000011001000 ="
b1000000011001000 O"
b110 Z
b10000100000000000000000000001 m
b10000100000000000000000000001 '"
b10000100000000000000000000001 N"
b1100 q
b1100 !"
b1100 C"
b111 #
b111 (
b111 _
b111 $"
b111 F"
b111 S"
b1000000011001000 o
b1000000011001000 s
b1000000011001000 |
b1000000011001000 ."
b1000000011001000 M"
1!
#301
b0 h
b0 1"
b0 3"
#305
0!
#310
0'
b100111 n
b100111 y
b100111 z
b100111 -"
b10 5
b10 >
b10 A
b10 [
b10 v
b100000 b
b100000 x
b100000 D"
b0 =
b0 @
b0 E
1*
04
1)
b100001000000 X
b0 Y
b0 `
b0 ="
b0 O"
b0 o
b0 s
b0 |
b0 ."
b0 M"
b111 Z
1!
#311
b100111 h
b100111 1"
b100111 3"
#315
0!
