ASSG1/output.vcd
$date
	Sat Oct  5 11:46:17 2024
$end
$version
	Icarus Verilog
$end
$timescale
	1s
$end
$scope module testbench $end
$scope module tb $end
$var wire 1 ! clk $end
$var wire 1 " reset $end
$var wire 16 # wd [15:0] $end
$var wire 16 $ readdata [15:0] $end
$var wire 1 % memwrite $end
$var wire 16 & instruction [15:0] $end
$var wire 16 ' addr [15:0] $end
$scope module dmem $end
$var wire 16 ( op [15:0] $end
$var wire 1 % we $end
$var wire 16 ) wd [15:0] $end
$var wire 16 * a [15:0] $end
$upscope $end
$scope module imem $end
$var wire 16 + addr [15:0] $end
$var reg 16 , instruction [15:0] $end
$upscope $end
$scope module mc $end
$var wire 1 ! clk $end
$var wire 16 - instruction [15:0] $end
$var wire 16 . readdata [15:0] $end
$var wire 1 " reset $end
$var wire 1 / zero $end
$var wire 16 0 writedata [15:0] $end
$var wire 1 1 regwrite $end
$var wire 1 2 regdst $end
$var wire 2 3 pcsrc [1:0] $end
$var wire 1 4 pcen $end
$var wire 4 5 op [3:0] $end
$var wire 1 % memwrite $end
$var wire 1 6 memtoreg $end
$var wire 1 7 irwrite $end
$var wire 1 8 iord $end
$var wire 2 9 cz [1:0] $end
$var wire 1 : carry $end
$var wire 2 ; alusrcb [1:0] $end
$var wire 1 < alusrca $end
$var wire 3 = alucontrol [2:0] $end
$var wire 16 > addr [15:0] $end
$scope module c $end
$var wire 1 ! clk $end
$var wire 1 4 pcen $end
$var wire 1 " reset $end
$var wire 1 / zero $end
$var wire 1 1 regwrite $end
$var wire 1 2 regdst $end
$var wire 1 ? pcwrite $end
$var wire 2 @ pcsrc [1:0] $end
$var wire 4 A op [3:0] $end
$var wire 1 % memwrite $end
$var wire 1 6 memtoreg $end
$var wire 1 7 irwrite $end
$var wire 1 8 iord $end
$var wire 1 : carry $end
$var wire 1 B branch $end
$var wire 2 C alusrcb [1:0] $end
$var wire 1 < alusrca $end
$var wire 2 D aluop [1:0] $end
$var wire 3 E alucontrol [2:0] $end
$scope module ad $end
$var wire 4 F op [3:0] $end
$var wire 2 G aluop [1:0] $end
$var reg 3 H alucontrol [2:0] $end
$upscope $end
$scope module md $end
$var wire 1 ! clk $end
$var wire 1 " reset $end
$var wire 1 1 regwrite $end
$var wire 1 2 regdst $end
$var wire 1 ? pcwrite $end
$var wire 2 I pcsrc [1:0] $end
$var wire 4 J op [3:0] $end
$var wire 1 % memwrite $end
$var wire 1 6 memtoreg $end
$var wire 1 7 irwrite $end
$var wire 1 8 iord $end
$var wire 1 B branch $end
$var wire 2 K alusrcb [1:0] $end
$var wire 1 < alusrca $end
$var wire 2 L aluop [1:0] $end
$var parameter 4 M ADD $end
$var parameter 4 N ADDI $end
$var parameter 5 O ADDIEX $end
$var parameter 5 P ADDIWB $end
$var parameter 5 Q ALUWB $end
$var parameter 4 R BEQ $end
$var parameter 5 S BRANCH $end
$var parameter 5 T DECODE $end
$var parameter 5 U EXECUTE $end
$var parameter 5 V FETCH $end
$var parameter 4 W JAL $end
$var parameter 4 X LW $end
$var parameter 5 Y MEMADR $end
$var parameter 5 Z MEMRD $end
$var parameter 5 [ MEMWB $end
$var parameter 5 \ MEMWR $end
$var parameter 4 ] NAND $end
$var parameter 4 ^ SW $end
$var reg 15 _ control [14:0] $end
$var reg 32 ` ns [31:0] $end
$var reg 32 a s [31:0] $end
$upscope $end
$upscope $end
$scope module dp $end
$var wire 3 b alucontrol [2:0] $end
$var wire 1 < alusrca $end
$var wire 2 c alusrcb [1:0] $end
$var wire 1 ! clk $end
$var wire 16 d instruction [15:0] $end
$var wire 1 8 iord $end
$var wire 1 7 irwrite $end
$var wire 1 6 memtoreg $end
$var wire 1 4 pcen $end
$var wire 2 e pcsrc [1:0] $end
$var wire 16 f rd1 [15:0] $end
$var wire 16 g rd2 [15:0] $end
$var wire 16 h readdata [15:0] $end
$var wire 1 2 regdst $end
$var wire 1 i regen $end
$var wire 1 1 regwrite $end
$var wire 1 " reset $end
$var wire 1 / zero $end
$var wire 3 j writereg [2:0] $end
$var wire 16 k writedata [15:0] $end
$var wire 16 l wd [15:0] $end
$var wire 16 m srcb [15:0] $end
$var wire 16 n srca [15:0] $end
$var wire 16 o signimmsh [15:0] $end
$var wire 16 p signimm [15:0] $end
$var wire 3 q returnreg [2:0] $end
$var wire 16 r pcnext [15:0] $end
$var wire 16 s pc [15:0] $end
$var wire 4 t op [3:0] $end
$var wire 16 u instr [15:0] $end
$var wire 16 v data [15:0] $end
$var wire 1 : carry $end
$var wire 16 w aluresult [15:0] $end
$var wire 16 x aluout [15:0] $end
$var wire 16 y addr [15:0] $end
$var wire 16 z a [15:0] $end
$scope module addrmux $end
$var wire 1 8 s $end
$var wire 16 { op [15:0] $end
$var wire 16 | b [15:0] $end
$var wire 16 } a [15:0] $end
$var parameter 32 ~ WIDTH $end
$upscope $end
$scope module alu $end
$var wire 3 !" alucontrol [2:0] $end
$var wire 1 : carry $end
$var wire 1 / zero $end
$var wire 16 "" b [15:0] $end
$var wire 16 #" a [15:0] $end
$var reg 1 $" c $end
$var reg 16 %" op [15:0] $end
$upscope $end
$scope module alureg $end
$var wire 1 ! clk $end
$var wire 16 &" d [15:0] $end
$var wire 1 " reset $end
$var parameter 32 '" WIDTH $end
$var reg 16 (" q [15:0] $end
$upscope $end
$scope module areg $end
$var wire 1 ! clk $end
$var wire 16 )" d [15:0] $end
$var wire 1 " reset $end
$var parameter 32 *" WIDTH $end
$var reg 16 +" q [15:0] $end
$upscope $end
$scope module breg $end
$var wire 1 ! clk $end
$var wire 16 ," d [15:0] $end
$var wire 1 " reset $end
$var parameter 32 -" WIDTH $end
$var reg 16 ." q [15:0] $end
$upscope $end
$scope module datareg $end
$var wire 1 ! clk $end
$var wire 16 /" d [15:0] $end
$var wire 1 " reset $end
$var parameter 32 0" WIDTH $end
$var reg 16 1" q [15:0] $end
$upscope $end
$scope module immsh $end
$var wire 16 2" b [15:0] $end
$var wire 16 3" a [15:0] $end
$upscope $end
$scope module instrreg $end
$var wire 1 ! clk $end
$var wire 16 4" d [15:0] $end
$var wire 1 7 en $end
$var wire 1 " reset $end
$var parameter 32 5" WIDTH $end
$var reg 16 6" q [15:0] $end
$upscope $end
$scope module pcmux $end
$var wire 16 7" a [15:0] $end
$var wire 16 8" b [15:0] $end
$var wire 16 9" c [15:0] $end
$var wire 2 :" s [1:0] $end
$var wire 16 ;" op [15:0] $end
$var parameter 32 <" WIDTH $end
$upscope $end
$scope module pcreg $end
$var wire 1 ! clk $end
$var wire 16 =" d [15:0] $end
$var wire 1 4 en $end
$var wire 1 " reset $end
$var parameter 32 >" WIDTH $end
$var reg 16 ?" q [15:0] $end
$upscope $end
$scope module regdstmux $end
$var wire 3 @" a [2:0] $end
$var wire 3 A" b [2:0] $end
$var wire 1 2 s $end
$var wire 3 B" op [2:0] $end
$var parameter 32 C" WIDTH $end
$upscope $end
$scope module rf $end
$var wire 1 ! clk $end
$var wire 3 D" ra1 [2:0] $end
$var wire 3 E" ra2 [2:0] $end
$var wire 16 F" rd1 [15:0] $end
$var wire 16 G" rd2 [15:0] $end
$var wire 3 H" wa [2:0] $end
$var wire 1 i we $end
$var wire 16 I" wd [15:0] $end
$upscope $end
$scope module rv $end
$var wire 1 ! clk $end
$var wire 3 J" ra1 [2:0] $end
$var wire 3 K" ra2 [2:0] $end
$var wire 16 L" rd1 [15:0] $end
$var wire 16 M" rd2 [15:0] $end
$var wire 3 N" wa [2:0] $end
$var wire 16 O" wd [15:0] $end
$var wire 1 P" we $end
$upscope $end
$scope module se $end
$var wire 6 Q" a [5:0] $end
$var wire 16 R" b [15:0] $end
$upscope $end
$scope module srcamux $end
$var wire 16 S" a [15:0] $end
$var wire 16 T" b [15:0] $end
$var wire 1 < s $end
$var wire 16 U" op [15:0] $end
$var parameter 32 V" WIDTH $end
$upscope $end
$scope module srcbmux $end
$var wire 16 W" a [15:0] $end
$var wire 16 X" b [15:0] $end
$var wire 16 Y" c [15:0] $end
$var wire 16 Z" d [15:0] $end
$var wire 2 [" s [1:0] $end
$var parameter 32 \" WIDTH $end
$var reg 16 ]" op [15:0] $end
$upscope $end
$scope module wdmux $end
$var wire 16 ^" a [15:0] $end
$var wire 16 _" b [15:0] $end
$var wire 1 6 s $end
$var wire 16 `" op [15:0] $end
$var parameter 32 a" WIDTH $end
$upscope $end
$upscope $end
$upscope $end
$upscope $end
$upscope $end
$enddefinitions $end
$comment Show the parameter values. $end
$dumpall
b10000 a"
b10000 \"
b10000 V"
b11 C"
b10000 >"
b10000 <"
b10000 5"
b10000 0"
b10000 -"
b10000 *"
b10000 '"
b10000 ~
b1001 ^
b10 ]
b101 \
b100 [
b11 Z
b10 Y
b1010 X
b1101 W
b0 V
b110 U
b1 T
b1000 S
b1011 R
b111 Q
b1010 P
b1001 O
b1111 N
b0 M
$end
#0
$dumpvars
b0 `"
b0 _"
b0 ^"
b10 ]"
b1 ["
b0 Z"
b0 Y"
b10 X"
b0 W"
b0 U"
b0 T"
b0 S"
b0 R"
b0 Q"
1P"
b10 O"
bx N"
bx M"
bx L"
bx K"
bx J"
b0 I"
b0 H"
bx G"
bx F"
b0 E"
b0 D"
b0 B"
b0 A"
b0 @"
b0 ?"
bx ="
bx ;"
b0 :"
bx 9"
b0 8"
b10 7"
b0 6"
b1111000000010000 4"
b0 3"
b0 2"
b0 1"
b0 /"
b0 ."
bx ,"
b0 +"
bx )"
b0 ("
b10 &"
b10 %"
0$"
b0 #"
b10 ""
b10 !"
b0 }
b0 |
b0 {
b0 z
b0 y
b0 x
b10 w
b0 v
b0 u
b0 t
b0 s
bx r
bx q
b0 p
b0 o
b0 n
b10 m
b0 l
b0 k
b0 j
0i
b0 h
bx g
bx f
b0 e
b1111000000010000 d
b1 c
b10 b
b0 a
b1 `
b101000000010000 _
b0 L
b1 K
b0 J
b0 I
b10 H
b0 G
b0 F
b10 E
b0 D
b1 C
0B
b0 A
b0 @
1?
b0 >
b10 =
0<
b1 ;
0:
b0 9
08
17
06
b0 5
14
b0 3
02
01
b0 0
0/
b0 .
b1111000000010000 -
b1111000000010000 ,
b0 +
b0 *
b0 )
b0 (
b0 '
b1111000000010000 &
0%
b0 $
b0 #
1"
1!
$end
#1
b10 r
b10 ;"
b10 ="
#5
0!
#10
1!
#12
0"
#15
0!
#20
b100000 m
b100000 ""
b100000 ]"
04
0?
07
b11 ;
b11 C
b11 K
b11 c
b11 ["
b100010 w
b100010 %"
b100010 &"
b100010 7"
b110000 _
b1001 `
b1111000000100000 &
b1111000000100000 ,
b1111000000100000 -
b1111000000100000 d
b1111000000100000 4"
b100000 o
b100000 2"
b100000 Z"
b0 9
0/
b10 n
b10 #"
b10 U"
b10 '
b10 *
b10 +
b10 >
b10 y
b10 {
b10000 p
b10000 3"
b10000 R"
b10000 Y"
b10000 Q"
b10 A"
b1111 5
b1111 A
b1111 F
b1111 J
b1111 t
b10 l
b10 I"
b10 `"
b1 a
b100 O"
b10 s
b10 }
b10 ?"
b10 S"
b1111000000010000 u
b1111000000010000 6"
bx z
bx +"
bx T"
bx #
bx )
bx 0
bx k
bx ."
bx W"
b10 x
b10 |
b10 ("
b10 8"
b10 ^"
1!
#21
b100010 r
b100010 ;"
b100010 ="
#25
0!
#30
x:
x$"
bx w
bx %"
bx &"
bx 7"
b10000 m
b10000 ""
b10000 ]"
bx 9
x/
bx n
bx #"
bx U"
1<
b10 ;
b10 C
b10 K
b10 c
b10 ["
b10000100000 _
b1010 `
b100010 l
b100010 I"
b100010 `"
b100010 x
b100010 |
b100010 ("
b100010 8"
b100010 ^"
b1001 a
1!
#31
bx r
bx ;"
bx ="
#35
0!
#40
x:
x$"
bx w
bx %"
bx &"
bx 7"
bx m
bx ""
bx ]"
xi
bx 9
x/
b10 n
b10 #"
b10 U"
11
0<
b0 ;
b0 C
b0 K
b0 c
b0 ["
b100000000000 _
b0 `
bx l
bx I"
bx `"
b1010 a
bx x
bx |
bx ("
bx 8"
bx ^"
1!
#45
0!
#50
0:
0$"
b100 w
b100 %"
b100 &"
b100 7"
b1 9
1/
b10 m
b10 ""
b10 ]"
14
0i
1?
17
01
b1 ;
b1 C
b1 K
b1 c
b1 ["
b101000000010000 _
b1 `
b0 a
1!
#51
b100 r
b100 ;"
b100 ="
#55
0!
#60
b1111111111000000 m
b1111111111000000 ""
b1111111111000000 ]"
04
0?
07
b11 ;
b11 C
b11 K
b11 c
b11 ["
b1111111111000100 w
b1111111111000100 %"
b1111111111000100 &"
b1111111111000100 7"
b110000 _
b1001 `
b1111000000110000 &
b1111000000110000 ,
b1111000000110000 -
b1111000000110000 d
b1111000000110000 4"
b1111111111000000 o
b1111111111000000 2"
b1111111111000000 Z"
b0 9
0/
b100 n
b100 #"
b100 U"
b100 '
b100 *
b100 +
b100 >
b100 y
b100 {
b1111111111100000 p
b1111111111100000 3"
b1111111111100000 R"
b1111111111100000 Y"
b100000 Q"
b100 A"
b100 l
b100 I"
b100 `"
b1 a
b110 O"
b100 s
b100 }
b100 ?"
b100 S"
b1111000000100000 u
b1111000000100000 6"
b100 x
b100 |
b100 ("
b100 8"
b100 ^"
1!
#61
b1111111111000100 r
b1111111111000100 ;"
b1111111111000100 ="
#65
0!
#70
x:
x$"
bx w
bx %"
bx &"
bx 7"
b1111111111100000 m
b1111111111100000 ""
b1111111111100000 ]"
bx 9
x/
bx n
bx #"
bx U"
1<
b10 ;
b10 C
b10 K
b10 c
b10 ["
b10000100000 _
b1010 `
b1111111111000100 l
b1111111111000100 I"
b1111111111000100 `"
b1111111111000100 x
b1111111111000100 |
b1111111111000100 ("
b1111111111000100 8"
b1111111111000100 ^"
b1001 a
1!
#71
bx r
bx ;"
bx ="
#75
0!
#80
x:
x$"
bx w
bx %"
bx &"
bx 7"
bx m
bx ""
bx ]"
xi
bx 9
x/
b100 n
b100 #"
b100 U"
11
0<
b0 ;
b0 C
b0 K
b0 c
b0 ["
b100000000000 _
b0 `
bx l
bx I"
bx `"
b1010 a
bx x
bx |
bx ("
bx 8"
bx ^"
1!
#85
0!
#90
0:
0$"
b110 w
b110 %"
b110 &"
b110 7"
b0 9
0/
b10 m
b10 ""
b10 ]"
14
0i
1?
17
01
b1 ;
b1 C
b1 K
b1 c
b1 ["
b101000000010000 _
b1 `
b0 a
1!
#91
b110 r
b110 ;"
b110 ="
#95
0!
#100
b1111111111100000 m
b1111111111100000 ""
b1111111111100000 ]"
04
0?
07
b11 ;
b11 C
b11 K
b11 c
b11 ["
b1111111111100110 w
b1111111111100110 %"
b1111111111100110 &"
b1111111111100110 7"
b110000 _
b1001 `
b1111000001000000 &
b1111000001000000 ,
b1111000001000000 -
b1111000001000000 d
b1111000001000000 4"
b1111111111100000 o
b1111111111100000 2"
b1111111111100000 Z"
b110 n
b110 #"
b110 U"
b110 '
b110 *
b110 +
b110 >
b110 y
b110 {
b1111111111110000 p
b1111111111110000 3"
b1111111111110000 R"
b1111111111110000 Y"
b110000 Q"
b110 A"
b110 l
b110 I"
b110 `"
b1 a
b1000 O"
b110 s
b110 }
b110 ?"
b110 S"
b1111000000110000 u
b1111000000110000 6"
b110 x
b110 |
b110 ("
b110 8"
b110 ^"
1!
#101
b1111111111100110 r
b1111111111100110 ;"
b1111111111100110 ="
#105
0!
#110
x:
x$"
bx w
bx %"
bx &"
bx 7"
b1111111111110000 m
b1111111111110000 ""
b1111111111110000 ]"
bx 9
x/
bx n
bx #"
bx U"
1<
b10 ;
b10 C
b10 K
b10 c
b10 ["
b10000100000 _
b1010 `
b1111111111100110 l
b1111111111100110 I"
b1111111111100110 `"
b1111111111100110 x
b1111111111100110 |
b1111111111100110 ("
b1111111111100110 8"
b1111111111100110 ^"
b1001 a
1!
#111
bx r
bx ;"
bx ="
#115
0!
#120
x:
x$"
bx w
bx %"
bx &"
bx 7"
bx m
bx ""
bx ]"
xi
bx 9
x/
b110 n
b110 #"
b110 U"
11
0<
b0 ;
b0 C
b0 K
b0 c
b0 ["
b100000000000 _
b0 `
bx l
bx I"
bx `"
b1010 a
bx x
bx |
bx ("
bx 8"
bx ^"
1!
#125
0!
#130
0:
0$"
b1000 w
b1000 %"
b1000 &"
b1000 7"
b0 9
0/
b10 m
b10 ""
b10 ]"
14
0i
1?
17
01
b1 ;
b1 C
b1 K
b1 c
b1 ["
b101000000010000 _
b1 `
b0 a
1!
#131
b1000 r
b1000 ;"
b1000 ="
#135
0!
#140
b0 m
b0 ""
b0 ]"
04
0?
07
b11 ;
b11 C
b11 K
b11 c
b11 ["
b1000 w
b1000 %"
b1000 &"
b1000 7"
b110000 _
b1001 `
b1111000001010000 &
b1111000001010000 ,
b1111000001010000 -
b1111000001010000 d
b1111000001010000 4"
b0 o
b0 2"
b0 Z"
b1 j
b1 B"
b1 H"
b1000 n
b1000 #"
b1000 U"
b1000 '
b1000 *
b1000 +
b1000 >
b1000 y
b1000 {
b0 p
b0 3"
b0 R"
b0 Y"
b0 Q"
b1 E"
b0 A"
b1 @"
b1000 l
b1000 I"
b1000 `"
b1 a
b1010 O"
b1000 s
b1000 }
b1000 ?"
b1000 S"
b1111000001000000 u
b1111000001000000 6"
b1000 x
b1000 |
b1000 ("
b1000 8"
b1000 ^"
1!
#145
0!
#150
x:
x$"
bx w
bx %"
bx &"
bx 7"
bx 9
x/
bx n
bx #"
bx U"
1<
b10 ;
b10 C
b10 K
b10 c
b10 ["
b10000100000 _
b1010 `
b1001 a
1!
#151
bx r
bx ;"
bx ="
#155
0!
#160
x:
x$"
bx w
bx %"
bx &"
bx 7"
bx m
bx ""
bx ]"
xi
bx 9
x/
b1000 n
b1000 #"
b1000 U"
11
0<
b0 ;
b0 C
b0 K
b0 c
b0 ["
b100000000000 _
b0 `
bx l
bx I"
bx `"
b1010 a
bx x
bx |
bx ("
bx 8"
bx ^"
1!
#165
0!
#170
0:
0$"
b1010 w
b1010 %"
b1010 &"
b1010 7"
b0 9
0/
b10 m
b10 ""
b10 ]"
14
0i
1?
17
01
b1 ;
b1 C
b1 K
b1 c
b1 ["
b101000000010000 _
b1 `
b0 a
1!
#171
b1010 r
b1010 ;"
b1010 ="
#175
0!
#180
b100000 m
b100000 ""
b100000 ]"
04
0?
07
b11 ;
b11 C
b11 K
b11 c
b11 ["
b101010 w
b101010 %"
b101010 &"
b101010 7"
b110000 _
b1001 `
b101000101010 &
b101000101010 ,
b101000101010 -
b101000101010 d
b101000101010 4"
b100000 o
b100000 2"
b100000 Z"
b1010 n
b1010 #"
b1010 U"
b1010 '
b1010 *
b1010 +
b1010 >
b1010 y
b1010 {
b10000 p
b10000 3"
b10000 R"
b10000 Y"
b10000 Q"
b10 A"
b1010 l
b1010 I"
b1010 `"
b1 a
b1100 O"
b1010 s
b1010 }
b1010 ?"
b1010 S"
b1111000001010000 u
b1111000001010000 6"
b1010 x
b1010 |
b1010 ("
b1010 8"
b1010 ^"
1!
#181
b101010 r
b101010 ;"
b101010 ="
#185
0!
#190
x:
x$"
bx w
bx %"
bx &"
bx 7"
b10000 m
b10000 ""
b10000 ]"
bx 9
x/
bx n
bx #"
bx U"
1<
b10 ;
b10 C
b10 K
b10 c
b10 ["
b10000100000 _
b1010 `
b101010 l
b101010 I"
b101010 `"
b101010 x
b101010 |
b101010 ("
b101010 8"
b101010 ^"
b1001 a
1!
#191
bx r
bx ;"
bx ="
#195
0!
#200
x:
x$"
bx w
bx %"
bx &"
bx 7"
bx m
bx ""
bx ]"
xi
bx 9
x/
b1010 n
b1010 #"
b1010 U"
11
0<
b0 ;
b0 C
b0 K
b0 c
b0 ["
b100000000000 _
b0 `
bx l
bx I"
bx `"
b1010 a
bx x
bx |
bx ("
bx 8"
bx ^"
1!
#205
0!
#210
0:
0$"
b1100 w
b1100 %"
b1100 &"
b1100 7"
b0 9
0/
b10 m
b10 ""
b10 ]"
14
0i
1?
17
01
b1 ;
b1 C
b1 K
b1 c
b1 ["
b101000000010000 _
b1 `
b0 a
1!
#211
b1100 r
b1100 ;"
b1100 ="
#215
0!
#220
b1111111111010100 m
b1111111111010100 ""
b1111111111010100 ]"
04
0?
07
b11 ;
b11 C
b11 K
b11 c
b11 ["
b1111111111100000 w
b1111111111100000 %"
b1111111111100000 &"
b1111111111100000 7"
b110000 _
b110 `
b101001001101 &
b101001001101 ,
b101001001101 -
b101001001101 d
b101001001101 4"
b1111111111010100 o
b1111111111010100 2"
b1111111111010100 Z"
b0 j
b0 B"
b0 H"
b1100 n
b1100 #"
b1100 U"
b1100 '
b1100 *
b1100 +
b1100 >
b1100 y
b1100 {
b1111111111101010 p
b1111111111101010 3"
b1111111111101010 R"
b1111111111101010 Y"
b101010 Q"
b0 E"
b101 D"
b101 A"
b0 @"
b0 5
b0 A
b0 F
b0 J
b0 t
b1100 l
b1100 I"
b1100 `"
b1 a
b1110 O"
b1100 s
b1100 }
b1100 ?"
b1100 S"
b101000101010 u
b101000101010 6"
b1100 x
b1100 |
b1100 ("
b1100 8"
b1100 ^"
1!
#221
b1111111111100000 r
b1111111111100000 ;"
b1111111111100000 ="
#225
0!
#230
x:
x$"
bx w
bx %"
bx &"
bx 7"
bx m
bx ""
bx ]"
bx 9
x/
bx n
bx #"
bx U"
1<
b0 ;
b0 C
b0 K
b0 c
b0 ["
b10 D
b10 G
b10 L
b10000000010 _
b111 `
b1111111111100000 l
b1111111111100000 I"
b1111111111100000 `"
b1111111111100000 x
b1111111111100000 |
b1111111111100000 ("
b1111111111100000 8"
b1111111111100000 ^"
b110 a
1!
#231
bx r
bx ;"
bx ="
#235
0!
#240
xi
b1100 n
b1100 #"
b1100 U"
b101 j
b101 B"
b101 H"
11
0<
12
b0 D
b0 G
b0 L
b100001000000 _
b0 `
bx l
bx I"
bx `"
b111 a
bx x
bx |
bx ("
bx 8"
bx ^"
1!
#245
0!
#250
0:
0$"
b1110 w
b1110 %"
b1110 &"
b1110 7"
b0 9
0/
b10 m
b10 ""
b10 ]"
14
0i
b0 j
b0 B"
b0 H"
1?
17
01
02
b1 ;
b1 C
b1 K
b1 c
b1 ["
b101000000010000 _
b1 `
b0 a
1!
#251
b1110 r
b1110 ;"
b1110 ="
#255
0!
#260
b11010 m
b11010 ""
b11010 ]"
04
0?
07
b11 ;
b11 C
b11 K
b11 c
b11 ["
b101000 w
b101000 %"
b101000 &"
b101000 7"
b110000 _
b110 `
b10101101111100 &
b10101101111100 ,
b10101101111100 -
b10101101111100 d
b10101101111100 4"
b11010 o
b11010 2"
b11010 Z"
b1 j
b1 B"
b1 H"
b1110 n
b1110 #"
b1110 U"
b1110 '
b1110 *
b1110 +
b1110 >
b1110 y
b1110 {
b1101 p
b1101 3"
b1101 R"
b1101 Y"
b1101 Q"
b1 E"
b1 A"
b1 @"
b1110 l
b1110 I"
b1110 `"
b1 a
b10000 O"
b1110 s
b1110 }
b1110 ?"
b1110 S"
b101001001101 u
b101001001101 6"
b1110 x
b1110 |
b1110 ("
b1110 8"
b1110 ^"
1!
#261
b101000 r
b101000 ;"
b101000 ="
#265
0!
#270
x:
x$"
bx w
bx %"
bx &"
bx 7"
bx m
bx ""
bx ]"
bx 9
x/
bx n
bx #"
bx U"
1<
b0 ;
b0 C
b0 K
b0 c
b0 ["
b10 D
b10 G
b10 L
b10000000010 _
b111 `
b101000 l
b101000 I"
b101000 `"
b101000 x
b101000 |
b101000 ("
b101000 8"
b101000 ^"
b110 a
1!
#271
bx r
bx ;"
bx ="
#275
0!
#280
xi
b1110 n
b1110 #"
b1110 U"
11
0<
12
b0 D
b0 G
b0 L
b100001000000 _
b0 `
bx l
bx I"
bx `"
b111 a
bx x
bx |
bx ("
bx 8"
bx ^"
1!
#285
0!
#290
0:
0$"
b10000 w
b10000 %"
b10000 &"
b10000 7"
b0 9
0/
b10 m
b10 ""
b10 ]"
14
0i
1?
17
01
02
b1 ;
b1 C
b1 K
b1 c
b1 ["
b101000000010000 _
b1 `
b0 a
1!
#291
b10000 r
b10000 ;"
b10000 ="
#295
0!
#300
b10 9
1:
1$"
b1111111111111000 m
b1111111111111000 ""
b1111111111111000 ]"
04
0?
07
b11 ;
b11 C
b11 K
b11 c
b11 ["
b1000 w
b1000 %"
b1000 &"
b1000 7"
b110000 _
b110 `
b10010011010100 &
b10010011010100 ,
b10010011010100 -
b10010011010100 d
b10010011010100 4"
b1111111111111000 o
b1111111111111000 2"
b1111111111111000 Z"
b101 j
b101 B"
b101 H"
b10000 n
b10000 #"
b10000 U"
b10000 '
b10000 *
b10000 +
b10000 >
b10000 y
b10000 {
b1111111111111100 p
b1111111111111100 3"
b1111111111111100 R"
b1111111111111100 Y"
b111100 Q"
b101 E"
b111 A"
b101 @"
b10 5
b10 A
b10 F
b10 J
b10 t
b10000 l
b10000 I"
b10000 `"
b1 a
b10010 O"
b10000 s
b10000 }
b10000 ?"
b10000 S"
b10101101111100 u
b10101101111100 6"
b10000 x
b10000 |
b10000 ("
b10000 8"
b10000 ^"
1!
#301
b1000 r
b1000 ;"
b1000 ="
#305
0!
#310
x:
x$"
bx w
bx %"
bx &"
bx 7"
bx m
bx ""
bx ]"
b110 =
b110 E
b110 H
b110 b
b110 !"
bx 9
x/
bx n
bx #"
bx U"
1<
b0 ;
b0 C
b0 K
b0 c
b0 ["
b10 D
b10 G
b10 L
b10000000010 _
b111 `
b1000 l
b1000 I"
b1000 `"
b1000 x
b1000 |
b1000 ("
b1000 8"
b1000 ^"
b110 a
1!
#311
bx r
bx ;"
bx ="
#315
0!
#320
bx w
bx %"
bx &"
bx 7"
b10 =
b10 E
b10 H
b10 b
b10 !"
xi
b10000 n
b10000 #"
b10000 U"
b111 j
b111 B"
b111 H"
11
0<
12
b0 D
b0 G
b0 L
b100001000000 _
b0 `
bx l
bx I"
bx `"
b111 a
bx x
bx |
bx ("
bx 8"
bx ^"
1!
#325
0!
#330
0:
0$"
b10010 w
b10010 %"
b10010 &"
b10010 7"
b0 9
0/
b10 m
b10 ""
b10 ]"
14
0i
b101 j
b101 B"
b101 H"
1?
17
01
02
b1 ;
b1 C
b1 K
b1 c
b1 ["
b101000000010000 _
b1 `
b0 a
1!
#331
b10010 r
b10010 ;"
b10010 ="
#335
0!
#340
b101000 m
b101000 ""
b101000 ]"
04
0?
07
b11 ;
b11 C
b11 K
b11 c
b11 ["
b111010 w
b111010 %"
b111010 &"
b111010 7"
b110000 _
b110 `
b1010001010100000 &
b1010001010100000 ,
b1010001010100000 -
b1010001010100000 d
b1010001010100000 4"
b101000 o
b101000 2"
b101000 Z"
b11 j
b11 B"
b11 H"
b10010 n
b10010 #"
b10010 U"
b10010 '
b10010 *
b10010 +
b10010 >
b10010 y
b10010 {
b10100 p
b10100 3"
b10100 R"
b10100 Y"
b10100 Q"
b11 E"
b10 D"
b10 A"
b11 @"
b10010 l
b10010 I"
b10010 `"
b1 a
b10100 O"
b10010 s
b10010 }
b10010 ?"
b10010 S"
b10010011010100 u
b10010011010100 6"
b10010 x
b10010 |
b10010 ("
b10010 8"
b10010 ^"
1!
#341
b111010 r
b111010 ;"
b111010 ="
#345
0!
#350
x:
x$"
bx w
bx %"
bx &"
bx 7"
bx m
bx ""
bx ]"
b110 =
b110 E
b110 H
b110 b
b110 !"
bx 9
x/
bx n
bx #"
bx U"
1<
b0 ;
b0 C
b0 K
b0 c
b0 ["
b10 D
b10 G
b10 L
b10000000010 _
b111 `
b111010 l
b111010 I"
b111010 `"
b111010 x
b111010 |
b111010 ("
b111010 8"
b111010 ^"
b110 a
1!
#351
bx r
bx ;"
bx ="
#355
0!
#360
bx w
bx %"
bx &"
bx 7"
b10 =
b10 E
b10 H
b10 b
b10 !"
xi
b10010 n
b10010 #"
b10010 U"
b10 j
b10 B"
b10 H"
11
0<
12
b0 D
b0 G
b0 L
b100001000000 _
b0 `
bx l
bx I"
bx `"
b111 a
bx x
bx |
bx ("
bx 8"
bx ^"
1!
#365
0!
#370
0:
0$"
b10100 w
b10100 %"
b10100 &"
b10100 7"
b0 9
0/
b10 m
b10 ""
b10 ]"
14
0i
b11 j
b11 B"
b11 H"
1?
17
01
02
b1 ;
b1 C
b1 K
b1 c
b1 ["
b101000000010000 _
b1 `
b0 a
1!
#371
b10100 r
b10100 ;"
b10100 ="
#375
0!
#380
b1111111111000000 m
b1111111111000000 ""
b1111111111000000 ]"
04
0?
07
b11 ;
b11 C
b11 K
b11 c
b11 ["
b1111111111010100 w
b1111111111010100 %"
b1111111111010100 &"
b1111111111010100 7"
b110000 _
b10 `
bx &
bx ,
bx -
bx d
bx 4"
b1111111111000000 o
b1111111111000000 2"
b1111111111000000 Z"
b10 j
b10 B"
b10 H"
b10100 n
b10100 #"
b10100 U"
b10100 '
b10100 *
b10100 +
b10100 >
b10100 y
b10100 {
b1111111111100000 p
b1111111111100000 3"
b1111111111100000 R"
b1111111111100000 Y"
b100000 Q"
b10 E"
b1 D"
b100 A"
b10 @"
b1010 5
b1010 A
b1010 F
b1010 J
b1010 t
b10100 l
b10100 I"
b10100 `"
b1 a
b10110 O"
b10100 s
b10100 }
b10100 ?"
b10100 S"
b1010001010100000 u
b1010001010100000 6"
b10100 x
b10100 |
b10100 ("
b10100 8"
b10100 ^"
1!
#381
b1111111111010100 r
b1111111111010100 ;"
b1111111111010100 ="
#385
0!
#390
x:
x$"
bx w
bx %"
bx &"
bx 7"
b1111111111100000 m
b1111111111100000 ""
b1111111111100000 ]"
bx 9
x/
bx n
bx #"
bx U"
1<
b10 ;
b10 C
b10 K
b10 c
b10 ["
b10000100000 _
b11 `
b1111111111010100 l
b1111111111010100 I"
b1111111111010100 `"
b1111111111010100 x
b1111111111010100 |
b1111111111010100 ("
b1111111111010100 8"
b1111111111010100 ^"
b10 a
1!
#391
bx r
bx ;"
bx ="
#395
0!
