ASSG1/output.vcd
$date
	Sun Oct  6 12:25:36 2024
$end
$version
	Icarus Verilog
$end
$timescale
	1s
$end
$scope module testbench $end
$scope module tb $end
$var wire 1 ! clk $end
$var wire 1 " reset $end
$var wire 16 # wd [15:0] $end
$var wire 16 $ readdata [15:0] $end
$var wire 1 % memwrite $end
$var wire 16 & instruction [15:0] $end
$var wire 16 ' addr [15:0] $end
$scope module dmem $end
$var wire 16 ( op [15:0] $end
$var wire 1 % we $end
$var wire 16 ) wd [15:0] $end
$var wire 16 * a [15:0] $end
$var integer 32 + i [31:0] $end
$upscope $end
$scope module imem $end
$var wire 16 , addr [15:0] $end
$var reg 16 - instruction [15:0] $end
$upscope $end
$scope module mc $end
$var wire 1 ! clk $end
$var wire 16 . instruction [15:0] $end
$var wire 16 / readdata [15:0] $end
$var wire 1 " reset $end
$var wire 1 0 zero $end
$var wire 16 1 writedata [15:0] $end
$var wire 1 2 regwrite $end
$var wire 1 3 regdst $end
$var wire 2 4 pcsrc [1:0] $end
$var wire 1 5 pcen $end
$var wire 4 6 op [3:0] $end
$var wire 1 % memwrite $end
$var wire 1 7 memtoreg $end
$var wire 1 8 irwrite $end
$var wire 1 9 iord $end
$var wire 2 : cz [1:0] $end
$var wire 1 ; carry $end
$var wire 2 < alusrcb [1:0] $end
$var wire 1 = alusrca $end
$var wire 3 > alucontrol [2:0] $end
$var wire 16 ? addr [15:0] $end
$scope module c $end
$var wire 1 ! clk $end
$var wire 1 5 pcen $end
$var wire 1 " reset $end
$var wire 1 0 zero $end
$var wire 1 2 regwrite $end
$var wire 1 3 regdst $end
$var wire 1 @ pcwrite $end
$var wire 2 A pcsrc [1:0] $end
$var wire 4 B op [3:0] $end
$var wire 1 % memwrite $end
$var wire 1 7 memtoreg $end
$var wire 1 8 irwrite $end
$var wire 1 9 iord $end
$var wire 1 ; carry $end
$var wire 1 C branch $end
$var wire 2 D alusrcb [1:0] $end
$var wire 1 = alusrca $end
$var wire 2 E aluop [1:0] $end
$var wire 3 F alucontrol [2:0] $end
$scope module ad $end
$var wire 4 G op [3:0] $end
$var wire 2 H aluop [1:0] $end
$var reg 3 I alucontrol [2:0] $end
$upscope $end
$scope module md $end
$var wire 1 ! clk $end
$var wire 1 " reset $end
$var wire 1 2 regwrite $end
$var wire 1 3 regdst $end
$var wire 1 @ pcwrite $end
$var wire 2 J pcsrc [1:0] $end
$var wire 4 K op [3:0] $end
$var wire 1 % memwrite $end
$var wire 1 7 memtoreg $end
$var wire 1 8 irwrite $end
$var wire 1 9 iord $end
$var wire 1 C branch $end
$var wire 2 L alusrcb [1:0] $end
$var wire 1 = alusrca $end
$var wire 2 M aluop [1:0] $end
$var parameter 4 N ADD $end
$var parameter 4 O ADDI $end
$var parameter 5 P ADDIEX $end
$var parameter 5 Q ADDIWB $end
$var parameter 5 R ALUWB $end
$var parameter 4 S BEQ $end
$var parameter 5 T BRANCH $end
$var parameter 5 U DECODE $end
$var parameter 5 V EXECUTE $end
$var parameter 5 W FETCH $end
$var parameter 4 X JAL $end
$var parameter 5 Y JRW $end
$var parameter 5 Z JUMP $end
$var parameter 4 [ LW $end
$var parameter 5 \ MEMADR $end
$var parameter 5 ] MEMRD $end
$var parameter 5 ^ MEMWB $end
$var parameter 5 _ MEMWR $end
$var parameter 4 ` NAND $end
$var parameter 4 a SW $end
$var reg 15 b control [14:0] $end
$var reg 32 c ns [31:0] $end
$var reg 32 d s [31:0] $end
$upscope $end
$upscope $end
$scope module dp $end
$var wire 3 e alucontrol [2:0] $end
$var wire 1 = alusrca $end
$var wire 2 f alusrcb [1:0] $end
$var wire 1 ! clk $end
$var wire 16 g instruction [15:0] $end
$var wire 1 9 iord $end
$var wire 1 8 irwrite $end
$var wire 1 7 memtoreg $end
$var wire 1 5 pcen $end
$var wire 2 h pcsrc [1:0] $end
$var wire 16 i readdata [15:0] $end
$var wire 1 3 regdst $end
$var wire 1 j regen $end
$var wire 1 2 regwrite $end
$var wire 1 " reset $end
$var wire 1 0 zero $end
$var wire 3 k writereg [2:0] $end
$var wire 16 l writedata [15:0] $end
$var wire 16 m wd1 [15:0] $end
$var wire 16 n wd [15:0] $end
$var wire 16 o srcb [15:0] $end
$var wire 16 p srca [15:0] $end
$var wire 16 q signimmsh [15:0] $end
$var wire 16 r signimm [15:0] $end
$var wire 1 s ret $end
$var wire 16 t rd2 [15:0] $end
$var wire 16 u rd1 [15:0] $end
$var wire 16 v pcnext [15:0] $end
$var wire 16 w pc [15:0] $end
$var wire 4 x op [3:0] $end
$var wire 16 y instr [15:0] $end
$var wire 16 z data [15:0] $end
$var wire 1 ; carry $end
$var wire 16 { aluresult [15:0] $end
$var wire 16 | aluout [15:0] $end
$var wire 16 } addr [15:0] $end
$var wire 16 ~ a [15:0] $end
$scope module addrmux $end
$var wire 1 9 s $end
$var wire 16 !" op [15:0] $end
$var wire 16 "" b [15:0] $end
$var wire 16 #" a [15:0] $end
$var parameter 32 $" WIDTH $end
$upscope $end
$scope module alu $end
$var wire 3 %" alucontrol [2:0] $end
$var wire 1 ; carry $end
$var wire 1 0 zero $end
$var wire 16 &" b [15:0] $end
$var wire 16 '" a [15:0] $end
$var reg 1 (" c $end
$var reg 16 )" op [15:0] $end
$upscope $end
$scope module alureg $end
$var wire 1 ! clk $end
$var wire 16 *" d [15:0] $end
$var wire 1 " reset $end
$var parameter 32 +" WIDTH $end
$var reg 16 ," q [15:0] $end
$upscope $end
$scope module areg $end
$var wire 1 ! clk $end
$var wire 1 " reset $end
$var wire 16 -" d [15:0] $end
$var parameter 32 ." WIDTH $end
$var reg 16 /" q [15:0] $end
$upscope $end
$scope module breg $end
$var wire 1 ! clk $end
$var wire 1 " reset $end
$var wire 16 0" d [15:0] $end
$var parameter 32 1" WIDTH $end
$var reg 16 2" q [15:0] $end
$upscope $end
$scope module datareg $end
$var wire 1 ! clk $end
$var wire 16 3" d [15:0] $end
$var wire 1 " reset $end
$var parameter 32 4" WIDTH $end
$var reg 16 5" q [15:0] $end
$upscope $end
$scope module immsh $end
$var wire 16 6" b [15:0] $end
$var wire 16 7" a [15:0] $end
$upscope $end
$scope module instrreg $end
$var wire 1 ! clk $end
$var wire 16 8" d [15:0] $end
$var wire 1 8 en $end
$var wire 1 " reset $end
$var parameter 32 9" WIDTH $end
$var reg 16 :" q [15:0] $end
$upscope $end
$scope module pcmux $end
$var wire 16 ;" a [15:0] $end
$var wire 16 <" b [15:0] $end
$var wire 16 =" c [15:0] $end
$var wire 2 >" s [1:0] $end
$var wire 16 ?" op [15:0] $end
$var parameter 32 @" WIDTH $end
$upscope $end
$scope module pcreg $end
$var wire 1 ! clk $end
$var wire 16 A" d [15:0] $end
$var wire 1 5 en $end
$var wire 1 " reset $end
$var parameter 32 B" WIDTH $end
$var reg 16 C" q [15:0] $end
$upscope $end
$scope module regdstmux $end
$var wire 3 D" a [2:0] $end
$var wire 3 E" b [2:0] $end
$var wire 1 3 s $end
$var wire 3 F" op [2:0] $end
$var parameter 32 G" WIDTH $end
$upscope $end
$scope module rf $end
$var wire 1 ! clk $end
$var wire 16 H" pc [15:0] $end
$var wire 3 I" ra1 [2:0] $end
$var wire 3 J" ra2 [2:0] $end
$var wire 1 s ret $end
$var wire 3 K" wa [2:0] $end
$var wire 16 L" wd [15:0] $end
$var wire 1 j we $end
$var wire 16 M" rd2 [15:0] $end
$var wire 16 N" rd1 [15:0] $end
$upscope $end
$scope module se $end
$var wire 6 O" a [5:0] $end
$var wire 16 P" b [15:0] $end
$upscope $end
$scope module srcamux $end
$var wire 16 Q" a [15:0] $end
$var wire 16 R" b [15:0] $end
$var wire 1 = s $end
$var wire 16 S" op [15:0] $end
$var parameter 32 T" WIDTH $end
$upscope $end
$scope module srcbmux $end
$var wire 16 U" a [15:0] $end
$var wire 16 V" b [15:0] $end
$var wire 16 W" c [15:0] $end
$var wire 16 X" d [15:0] $end
$var wire 2 Y" s [1:0] $end
$var parameter 32 Z" WIDTH $end
$var reg 16 [" op [15:0] $end
$upscope $end
$scope module wdmux $end
$var wire 16 \" a [15:0] $end
$var wire 16 ]" b [15:0] $end
$var wire 1 7 s $end
$var wire 16 ^" op [15:0] $end
$var parameter 32 _" WIDTH $end
$upscope $end
$upscope $end
$upscope $end
$upscope $end
$upscope $end
$enddefinitions $end
$comment Show the parameter values. $end
$dumpall
b10000 _"
b10000 Z"
b10000 T"
b11 G"
b10000 B"
b10000 @"
b10000 9"
b10000 4"
b10000 1"
b10000 ."
b10000 +"
b10000 $"
b1001 a
b10 `
b101 _
b100 ^
b11 ]
b10 \
b1010 [
b1011 Z
b1100 Y
b1101 X
b0 W
b110 V
b1 U
b1000 T
b1011 S
b111 R
b1010 Q
b1001 P
b1111 O
b0 N
$end
#0
$dumpvars
b0 ^"
b0 ]"
b0 \"
b10 ["
b1 Y"
b0 X"
b0 W"
b10 V"
b0 U"
b0 S"
b0 R"
b0 Q"
b0 P"
b0 O"
b0 N"
b0 M"
b0 L"
b0 K"
b0 J"
b0 I"
bx H"
b0 F"
b0 E"
b0 D"
b0 C"
bx A"
bx ?"
b0 >"
b0 ="
b0 <"
b10 ;"
b0 :"
b1111001001001010 8"
b0 7"
b0 6"
b0 5"
b0 3"
b0 2"
b0 0"
b0 /"
b0 -"
b0 ,"
b10 *"
b10 )"
0("
b0 '"
b10 &"
b10 %"
b0 #"
b0 ""
b0 !"
b0 ~
b0 }
b0 |
b10 {
b0 z
b0 y
b0 x
b0 w
bx v
b0 u
b0 t
0s
b0 r
b0 q
b0 p
b10 o
b0 n
b0 m
b0 l
b0 k
0j
b0 i
b0 h
b1111001001001010 g
b1 f
b10 e
b0 d
b1 c
b101000000010000 b
b0 M
b1 L
b0 K
b0 J
b10 I
b0 H
b0 G
b10 F
b0 E
b1 D
0C
b0 B
b0 A
1@
b0 ?
b10 >
0=
b1 <
0;
b0 :
09
18
07
b0 6
15
b0 4
03
02
b0 1
00
b0 /
b1111001001001010 .
b1111001001001010 -
b0 ,
b1000000 +
b0 *
b0 )
b0 (
b0 '
b1111001001001010 &
0%
b0 $
b0 #
1"
1!
$end
#1
b10 v
b10 ?"
b10 A"
b10 H"
#5
0!
#10
1!
#12
0"
#15
0!
#20
b10100 o
b10100 &"
b10100 ["
05
0@
08
b11 <
b11 D
b11 L
b11 f
b11 Y"
b10110 {
b10110 )"
b10110 *"
b10110 ;"
b110000 b
b1001 c
b1111010010010100 &
b1111010010010100 -
b1111010010010100 .
b1111010010010100 g
b1111010010010100 8"
b10100 q
b10100 6"
b10100 X"
b1 k
b1 F"
b1 K"
b10 n
b10 L"
b0 :
00
b10 p
b10 '"
b10 S"
b10 '
b10 *
b10 ,
b10 ?
b10 }
b10 !"
b10010100 ="
b1010 r
b1010 7"
b1010 P"
b1010 W"
b1010 O"
b1 J"
b1 I"
b1 E"
b1 D"
b1111 6
b1111 B
b1111 G
b1111 K
b1111 x
b10 m
b10 ^"
b1 d
b10 w
b10 #"
b10 C"
b10 Q"
b1111001001001010 y
b1111001001001010 :"
b10 |
b10 ""
b10 ,"
b10 <"
b10 \"
1!
#21
b10110 v
b10110 ?"
b10110 A"
b10110 H"
#25
0!
#30
b1010 {
b1010 )"
b1010 *"
b1010 ;"
b1010 o
b1010 &"
b1010 ["
b0 p
b0 '"
b0 S"
1=
b10 <
b10 D
b10 L
b10 f
b10 Y"
b10000100000 b
b1010 c
b10110 n
b10110 L"
b10110 m
b10110 ^"
b10110 |
b10110 ""
b10110 ,"
b10110 <"
b10110 \"
b1001 d
1!
#31
b1010 v
b1010 ?"
b1010 A"
b1010 H"
#35
0!
#40
b10 {
b10 )"
b10 *"
b10 ;"
b0 o
b0 &"
b0 ["
1j
b10 p
b10 '"
b10 S"
12
0=
b0 <
b0 D
b0 L
b0 f
b0 Y"
b100000000000 b
b0 c
b1010 n
b1010 L"
b1010 m
b1010 ^"
b1010 d
b1010 |
b1010 ""
b1010 ,"
b1010 <"
b1010 \"
1!
#41
b10 v
b10 ?"
b10 A"
b10 H"
#45
0!
#50
b100 {
b100 )"
b100 *"
b100 ;"
b1 :
10
b10 o
b10 &"
b10 ["
15
0j
1@
18
02
b1 <
b1 D
b1 L
b1 f
b1 Y"
b101000000010000 b
b1 c
b10 n
b10 L"
b10 m
b10 ^"
b1010 u
b1010 -"
b1010 N"
b1010 t
b1010 0"
b1010 M"
b10 |
b10 ""
b10 ,"
b10 <"
b10 \"
b0 d
1!
#51
b100 v
b100 ?"
b100 A"
b100 H"
#55
0!
#60
b101000 o
b101000 &"
b101000 ["
05
0@
08
b11 <
b11 D
b11 L
b11 f
b11 Y"
b101100 {
b101100 )"
b101100 *"
b101100 ;"
b110000 b
b1001 c
b1111011011011110 &
b1111011011011110 -
b1111011011011110 .
b1111011011011110 g
b1111011011011110 8"
b101000 q
b101000 6"
b101000 X"
b0 t
b0 0"
b0 M"
b0 u
b0 -"
b0 N"
b10 k
b10 F"
b10 K"
b100 n
b100 L"
b0 :
00
b100 p
b100 '"
b100 S"
b100 '
b100 *
b100 ,
b100 ?
b100 }
b100 !"
b100101000 ="
b10100 r
b10100 7"
b10100 P"
b10100 W"
b10100 O"
b10 J"
b10 I"
b10 E"
b10 D"
b100 m
b100 ^"
b1 d
b100 w
b100 #"
b100 C"
b100 Q"
b1111010010010100 y
b1111010010010100 :"
b1010 ~
b1010 /"
b1010 R"
b1010 #
b1010 )
b1010 1
b1010 l
b1010 2"
b1010 U"
b100 |
b100 ""
b100 ,"
b100 <"
b100 \"
1!
#61
b101100 v
b101100 ?"
b101100 A"
b101100 H"
#65
0!
#70
b10100 {
b10100 )"
b10100 *"
b10100 ;"
b10100 o
b10100 &"
b10100 ["
b0 p
b0 '"
b0 S"
1=
b10 <
b10 D
b10 L
b10 f
b10 Y"
b10000100000 b
b1010 c
b101100 n
b101100 L"
b101100 m
b101100 ^"
b101100 |
b101100 ""
b101100 ,"
b101100 <"
b101100 \"
b0 #
b0 )
b0 1
b0 l
b0 2"
b0 U"
b0 ~
b0 /"
b0 R"
b1001 d
1!
#71
b10100 v
b10100 ?"
b10100 A"
b10100 H"
#75
0!
#80
b100 {
b100 )"
b100 *"
b100 ;"
b0 o
b0 &"
b0 ["
1j
b100 p
b100 '"
b100 S"
12
0=
b0 <
b0 D
b0 L
b0 f
b0 Y"
b100000000000 b
b0 c
b10100 n
b10100 L"
b10100 m
b10100 ^"
b1010 d
b10100 |
b10100 ""
b10100 ,"
b10100 <"
b10100 \"
1!
#81
b100 v
b100 ?"
b100 A"
b100 H"
#85
0!
#90
b110 {
b110 )"
b110 *"
b110 ;"
b10 o
b10 &"
b10 ["
15
0j
1@
18
02
b1 <
b1 D
b1 L
b1 f
b1 Y"
b101000000010000 b
b1 c
b100 n
b100 L"
b100 m
b100 ^"
b10100 u
b10100 -"
b10100 N"
b10100 t
b10100 0"
b10100 M"
b100 |
b100 ""
b100 ,"
b100 <"
b100 \"
b0 d
1!
#91
b110 v
b110 ?"
b110 A"
b110 H"
#95
0!
#100
b111100 o
b111100 &"
b111100 ["
05
0@
08
b11 <
b11 D
b11 L
b11 f
b11 Y"
b1000010 {
b1000010 )"
b1000010 *"
b1000010 ;"
b110000 b
b1001 c
b1111100100101000 &
b1111100100101000 -
b1111100100101000 .
b1111100100101000 g
b1111100100101000 8"
b111100 q
b111100 6"
b111100 X"
b0 t
b0 0"
b0 M"
b0 u
b0 -"
b0 N"
b11 k
b11 F"
b11 K"
b110 n
b110 L"
b110 p
b110 '"
b110 S"
b110 '
b110 *
b110 ,
b110 ?
b110 }
b110 !"
b110111100 ="
b11110 r
b11110 7"
b11110 P"
b11110 W"
b11110 O"
b11 J"
b11 I"
b11 E"
b11 D"
b110 m
b110 ^"
b1 d
b110 w
b110 #"
b110 C"
b110 Q"
b1111011011011110 y
b1111011011011110 :"
b10100 ~
b10100 /"
b10100 R"
b10100 #
b10100 )
b10100 1
b10100 l
b10100 2"
b10100 U"
b110 |
b110 ""
b110 ,"
b110 <"
b110 \"
1!
#101
b1000010 v
b1000010 ?"
b1000010 A"
b1000010 H"
#105
0!
#110
b11110 {
b11110 )"
b11110 *"
b11110 ;"
b11110 o
b11110 &"
b11110 ["
b0 p
b0 '"
b0 S"
1=
b10 <
b10 D
b10 L
b10 f
b10 Y"
b10000100000 b
b1010 c
b1000010 n
b1000010 L"
b1000010 m
b1000010 ^"
b1000010 |
b1000010 ""
b1000010 ,"
b1000010 <"
b1000010 \"
b0 #
b0 )
b0 1
b0 l
b0 2"
b0 U"
b0 ~
b0 /"
b0 R"
b1001 d
1!
#111
b11110 v
b11110 ?"
b11110 A"
b11110 H"
#115
0!
#120
b110 {
b110 )"
b110 *"
b110 ;"
b0 o
b0 &"
b0 ["
1j
b110 p
b110 '"
b110 S"
12
0=
b0 <
b0 D
b0 L
b0 f
b0 Y"
b100000000000 b
b0 c
b11110 n
b11110 L"
b11110 m
b11110 ^"
b1010 d
b11110 |
b11110 ""
b11110 ,"
b11110 <"
b11110 \"
1!
#121
b110 v
b110 ?"
b110 A"
b110 H"
#125
0!
#130
b1000 {
b1000 )"
b1000 *"
b1000 ;"
b10 o
b10 &"
b10 ["
15
0j
1@
18
02
b1 <
b1 D
b1 L
b1 f
b1 Y"
b101000000010000 b
b1 c
b110 n
b110 L"
b110 m
b110 ^"
b11110 u
b11110 -"
b11110 N"
b11110 t
b11110 0"
b11110 M"
b110 |
b110 ""
b110 ,"
b110 <"
b110 \"
b0 d
1!
#131
b1000 v
b1000 ?"
b1000 A"
b1000 H"
#135
0!
#140
b1111111111010000 o
b1111111111010000 &"
b1111111111010000 ["
05
0@
08
b11 <
b11 D
b11 L
b11 f
b11 Y"
b1111111111011000 {
b1111111111011000 )"
b1111111111011000 *"
b1111111111011000 ;"
b110000 b
b1001 c
b1111101101110010 &
b1111101101110010 -
b1111101101110010 .
b1111101101110010 g
b1111101101110010 8"
b1111111111010000 q
b1111111111010000 6"
b1111111111010000 X"
b0 t
b0 0"
b0 M"
b0 u
b0 -"
b0 N"
b100 k
b100 F"
b100 K"
b1000 n
b1000 L"
b1000 p
b1000 '"
b1000 S"
b1000 '
b1000 *
b1000 ,
b1000 ?
b1000 }
b1000 !"
b1001010000 ="
b1111111111101000 r
b1111111111101000 7"
b1111111111101000 P"
b1111111111101000 W"
b101000 O"
b100 J"
b100 I"
b101 E"
b100 D"
b1000 m
b1000 ^"
b1 d
b1000 w
b1000 #"
b1000 C"
b1000 Q"
b1111100100101000 y
b1111100100101000 :"
b11110 ~
b11110 /"
b11110 R"
b11110 #
b11110 )
b11110 1
b11110 l
b11110 2"
b11110 U"
b1000 |
b1000 ""
b1000 ,"
b1000 <"
b1000 \"
1!
#141
b1111111111011000 v
b1111111111011000 ?"
b1111111111011000 A"
b1111111111011000 H"
#145
0!
#150
b1111111111101000 {
b1111111111101000 )"
b1111111111101000 *"
b1111111111101000 ;"
b1111111111101000 o
b1111111111101000 &"
b1111111111101000 ["
b0 p
b0 '"
b0 S"
1=
b10 <
b10 D
b10 L
b10 f
b10 Y"
b10000100000 b
b1010 c
b1111111111011000 n
b1111111111011000 L"
b1111111111011000 m
b1111111111011000 ^"
b1111111111011000 |
b1111111111011000 ""
b1111111111011000 ,"
b1111111111011000 <"
b1111111111011000 \"
b0 #
b0 )
b0 1
b0 l
b0 2"
b0 U"
b0 ~
b0 /"
b0 R"
b1001 d
1!
#151
b1111111111101000 v
b1111111111101000 ?"
b1111111111101000 A"
b1111111111101000 H"
#155
0!
#160
b1000 {
b1000 )"
b1000 *"
b1000 ;"
b0 o
b0 &"
b0 ["
1j
b1000 p
b1000 '"
b1000 S"
12
0=
b0 <
b0 D
b0 L
b0 f
b0 Y"
b100000000000 b
b0 c
b1111111111101000 n
b1111111111101000 L"
b1111111111101000 m
b1111111111101000 ^"
b1010 d
b1111111111101000 |
b1111111111101000 ""
b1111111111101000 ,"
b1111111111101000 <"
b1111111111101000 \"
1!
#161
b1000 v
b1000 ?"
b1000 A"
b1000 H"
#165
0!
#170
b1010 {
b1010 )"
b1010 *"
b1010 ;"
b10 o
b10 &"
b10 ["
15
0j
1@
18
02
b1 <
b1 D
b1 L
b1 f
b1 Y"
b101000000010000 b
b1 c
b1000 n
b1000 L"
b1000 m
b1000 ^"
b1111111111101000 u
b1111111111101000 -"
b1111111111101000 N"
b1111111111101000 t
b1111111111101000 0"
b1111111111101000 M"
b1000 |
b1000 ""
b1000 ,"
b1000 <"
b1000 \"
b0 d
1!
#171
b1010 v
b1010 ?"
b1010 A"
b1010 H"
#175
0!
#180
b1111111111100100 o
b1111111111100100 &"
b1111111111100100 ["
05
0@
08
b11 <
b11 D
b11 L
b11 f
b11 Y"
b1111111111101110 {
b1111111111101110 )"
b1111111111101110 *"
b1111111111101110 ;"
b110000 b
b1001 c
b1011010000 &
b1011010000 -
b1011010000 .
b1011010000 g
b1011010000 8"
b1111111111100100 q
b1111111111100100 6"
b1111111111100100 X"
b0 t
b0 0"
b0 M"
b0 u
b0 -"
b0 N"
b101 k
b101 F"
b101 K"
b1010 n
b1010 L"
b1010 p
b1010 '"
b1010 S"
b1010 '
b1010 *
b1010 ,
b1010 ?
b1010 }
b1010 !"
b1011100100 ="
b1111111111110010 r
b1111111111110010 7"
b1111111111110010 P"
b1111111111110010 W"
b110010 O"
b101 J"
b101 I"
b110 E"
b101 D"
b1010 m
b1010 ^"
b1 d
b1010 w
b1010 #"
b1010 C"
b1010 Q"
b1111101101110010 y
b1111101101110010 :"
b1111111111101000 ~
b1111111111101000 /"
b1111111111101000 R"
b1111111111101000 #
b1111111111101000 )
b1111111111101000 1
b1111111111101000 l
b1111111111101000 2"
b1111111111101000 U"
b1010 |
b1010 ""
b1010 ,"
b1010 <"
b1010 \"
1!
#181
b1111111111101110 v
b1111111111101110 ?"
b1111111111101110 A"
b1111111111101110 H"
#185
0!
#190
b1111111111110010 {
b1111111111110010 )"
b1111111111110010 *"
b1111111111110010 ;"
b1111111111110010 o
b1111111111110010 &"
b1111111111110010 ["
b0 p
b0 '"
b0 S"
1=
b10 <
b10 D
b10 L
b10 f
b10 Y"
b10000100000 b
b1010 c
b1111111111101110 n
b1111111111101110 L"
b1111111111101110 m
b1111111111101110 ^"
b1111111111101110 |
b1111111111101110 ""
b1111111111101110 ,"
b1111111111101110 <"
b1111111111101110 \"
b0 #
b0 )
b0 1
b0 l
b0 2"
b0 U"
b0 ~
b0 /"
b0 R"
b1001 d
1!
#191
b1111111111110010 v
b1111111111110010 ?"
b1111111111110010 A"
b1111111111110010 H"
#195
0!
#200
b1010 {
b1010 )"
b1010 *"
b1010 ;"
b0 o
b0 &"
b0 ["
1j
b1010 p
b1010 '"
b1010 S"
12
0=
b0 <
b0 D
b0 L
b0 f
b0 Y"
b100000000000 b
b0 c
b1111111111110010 n
b1111111111110010 L"
b1111111111110010 m
b1111111111110010 ^"
b1010 d
b1111111111110010 |
b1111111111110010 ""
b1111111111110010 ,"
b1111111111110010 <"
b1111111111110010 \"
1!
#201
b1010 v
b1010 ?"
b1010 A"
b1010 H"
#205
0!
#210
b1100 {
b1100 )"
b1100 *"
b1100 ;"
b10 o
b10 &"
b10 ["
15
0j
1@
18
02
b1 <
b1 D
b1 L
b1 f
b1 Y"
b101000000010000 b
b1 c
b1010 n
b1010 L"
b1010 m
b1010 ^"
b1111111111110010 u
b1111111111110010 -"
b1111111111110010 N"
b1111111111110010 t
b1111111111110010 0"
b1111111111110010 M"
b1010 |
b1010 ""
b1010 ,"
b1010 <"
b1010 \"
b0 d
1!
#211
b1100 v
b1100 ?"
b1100 A"
b1100 H"
#215
0!
#220
b100000 o
b100000 &"
b100000 ["
05
0@
08
b11 <
b11 D
b11 L
b11 f
b11 Y"
b101100 {
b101100 )"
b101100 *"
b101100 ;"
b110000 b
b110 c
b1100010010 &
b1100010010 -
b1100010010 .
b1100010010 g
b1100010010 8"
b100000 q
b100000 6"
b100000 X"
b11110 t
b11110 0"
b11110 M"
b1010 u
b1010 -"
b1010 N"
b11 k
b11 F"
b11 K"
b1100 n
b1100 L"
b1100 p
b1100 '"
b1100 S"
b1100 '
b1100 *
b1100 ,
b1100 ?
b1100 }
b1100 !"
b110100000 ="
b10000 r
b10000 7"
b10000 P"
b10000 W"
b10000 O"
b11 J"
b1 I"
b10 E"
b11 D"
b0 6
b0 B
b0 G
b0 K
b0 x
b1100 m
b1100 ^"
b1 d
b1100 w
b1100 #"
b1100 C"
b1100 Q"
b1011010000 y
b1011010000 :"
b1111111111110010 ~
b1111111111110010 /"
b1111111111110010 R"
b1111111111110010 #
b1111111111110010 )
b1111111111110010 1
b1111111111110010 l
b1111111111110010 2"
b1111111111110010 U"
b1100 |
b1100 ""
b1100 ,"
b1100 <"
b1100 \"
1!
#221
b101100 v
b101100 ?"
b101100 A"
b101100 H"
#225
0!
#230
b101000 {
b101000 )"
b101000 *"
b101000 ;"
b11110 o
b11110 &"
b11110 ["
b1010 p
b1010 '"
b1010 S"
1=
b0 <
b0 D
b0 L
b0 f
b0 Y"
b10 E
b10 H
b10 M
b10000000010 b
b111 c
b101100 n
b101100 L"
b101100 m
b101100 ^"
b101100 |
b101100 ""
b101100 ,"
b101100 <"
b101100 \"
b11110 #
b11110 )
b11110 1
b11110 l
b11110 2"
b11110 U"
b1010 ~
b1010 /"
b1010 R"
b110 d
1!
#231
b101000 v
b101000 ?"
b101000 A"
b101000 H"
#235
0!
#240
b101010 {
b101010 )"
b101010 *"
b101010 ;"
1j
b1100 p
b1100 '"
b1100 S"
b10 k
b10 F"
b10 K"
12
0=
13
b0 E
b0 H
b0 M
b100001000000 b
b0 c
b101000 n
b101000 L"
b101000 m
b101000 ^"
b111 d
b101000 |
b101000 ""
b101000 ,"
b101000 <"
b101000 \"
1!
#241
b101010 v
b101010 ?"
b101010 A"
b101010 H"
#245
0!
#250
b1110 {
b1110 )"
b1110 *"
b1110 ;"
b10 o
b10 &"
b10 ["
15
0j
b11 k
b11 F"
b11 K"
1@
18
02
03
b1 <
b1 D
b1 L
b1 f
b1 Y"
b101000000010000 b
b1 c
b101010 n
b101010 L"
b101010 m
b101010 ^"
b101010 |
b101010 ""
b101010 ,"
b101010 <"
b101010 \"
b0 d
1!
#251
b1110 v
b1110 ?"
b1110 A"
b1110 H"
#255
0!
#260
b100100 o
b100100 &"
b100100 ["
05
0@
08
b11 <
b11 D
b11 L
b11 f
b11 Y"
b110010 {
b110010 )"
b110010 *"
b110010 ;"
b110000 b
b110 c
b10101110011000 &
b10101110011000 -
b10101110011000 .
b10101110011000 g
b10101110011000 8"
b100100 q
b100100 6"
b100100 X"
b1111111111101000 t
b1111111111101000 0"
b1111111111101000 M"
b100 k
b100 F"
b100 K"
b1110 n
b1110 L"
b1110 p
b1110 '"
b1110 S"
b1110 '
b1110 *
b1110 ,
b1110 ?
b1110 }
b1110 !"
b1000100100 ="
b10010 r
b10010 7"
b10010 P"
b10010 W"
b10010 O"
b100 J"
b100 D"
b1110 m
b1110 ^"
b1 d
b1110 w
b1110 #"
b1110 C"
b1110 Q"
b1100010010 y
b1100010010 :"
b1110 |
b1110 ""
b1110 ,"
b1110 <"
b1110 \"
1!
#261
b110010 v
b110010 ?"
b110010 A"
b110010 H"
#265
0!
#270
b1111111111110010 {
b1111111111110010 )"
b1111111111110010 *"
b1111111111110010 ;"
b1111111111101000 o
b1111111111101000 &"
b1111111111101000 ["
b1010 p
b1010 '"
b1010 S"
1=
b0 <
b0 D
b0 L
b0 f
b0 Y"
b10 E
b10 H
b10 M
b10000000010 b
b111 c
b110010 n
b110010 L"
b110010 m
b110010 ^"
b110010 |
b110010 ""
b110010 ,"
b110010 <"
b110010 \"
b1111111111101000 #
b1111111111101000 )
b1111111111101000 1
b1111111111101000 l
b1111111111101000 2"
b1111111111101000 U"
b110 d
1!
#271
b1111111111110010 v
b1111111111110010 ?"
b1111111111110010 A"
b1111111111110010 H"
#275
0!
#280
b1111111111110110 {
b1111111111110110 )"
b1111111111110110 *"
b1111111111110110 ;"
1j
b1110 p
b1110 '"
b1110 S"
b10 k
b10 F"
b10 K"
12
0=
13
b0 E
b0 H
b0 M
b100001000000 b
b0 c
b1111111111110010 n
b1111111111110010 L"
b1111111111110010 m
b1111111111110010 ^"
b111 d
b1111111111110010 |
b1111111111110010 ""
b1111111111110010 ,"
b1111111111110010 <"
b1111111111110010 \"
1!
#281
b1111111111110110 v
b1111111111110110 ?"
b1111111111110110 A"
b1111111111110110 H"
#285
0!
#290
b10000 {
b10000 )"
b10000 *"
b10000 ;"
b10 o
b10 &"
b10 ["
15
0j
b100 k
b100 F"
b100 K"
1@
18
02
03
b1 <
b1 D
b1 L
b1 f
b1 Y"
b101000000010000 b
b1 c
b1111111111110110 n
b1111111111110110 L"
b1111111111110110 m
b1111111111110110 ^"
b1111111111110110 |
b1111111111110110 ""
b1111111111110110 ,"
b1111111111110110 <"
b1111111111110110 \"
b0 d
1!
#291
b10000 v
b10000 ?"
b10000 A"
b10000 H"
#295
0!
