ASSG1/output.vcd
$date
	Sun Sep 29 21:04:42 2024
$end
$version
	Icarus Verilog
$end
$timescale
	1s
$end
$scope module testbench $end
$scope module tb $end
$var wire 1 ! clk $end
$var wire 1 " reset $end
$var wire 16 # wd [15:0] $end
$var wire 16 $ readdata [15:0] $end
$var wire 1 % memwrite $end
$var wire 16 & addr [15:0] $end
$scope module mc $end
$var wire 1 ! clk $end
$var wire 1 " reset $end
$var wire 1 ' zero $end
$var wire 16 ( writedata [15:0] $end
$var wire 1 ) regwrite $end
$var wire 1 * regdst $end
$var wire 16 + readdata [15:0] $end
$var wire 2 , pcsrc [1:0] $end
$var wire 1 - pcen $end
$var wire 4 . op [3:0] $end
$var wire 1 % memwrite $end
$var wire 1 / memtoreg $end
$var wire 1 0 irwrite $end
$var wire 1 1 iord $end
$var wire 2 2 cz [1:0] $end
$var wire 1 3 carry $end
$var wire 2 4 alusrcb [1:0] $end
$var wire 1 5 alusrca $end
$var wire 3 6 alucontrol [2:0] $end
$var wire 16 7 addr [15:0] $end
$scope module c $end
$var wire 1 ! clk $end
$var wire 1 - pcen $end
$var wire 1 " reset $end
$var wire 1 ' zero $end
$var wire 1 ) regwrite $end
$var wire 1 * regdst $end
$var wire 1 8 pcwrite $end
$var wire 2 9 pcsrc [1:0] $end
$var wire 4 : op [3:0] $end
$var wire 1 % memwrite $end
$var wire 1 / memtoreg $end
$var wire 1 0 irwrite $end
$var wire 1 1 iord $end
$var wire 1 3 carry $end
$var wire 1 ; branch $end
$var wire 2 < alusrcb [1:0] $end
$var wire 1 5 alusrca $end
$var wire 2 = aluop [1:0] $end
$var wire 3 > alucontrol [2:0] $end
$scope module ad $end
$var wire 4 ? op [3:0] $end
$var wire 2 @ aluop [1:0] $end
$var reg 3 A alucontrol [2:0] $end
$upscope $end
$scope module md $end
$var wire 1 ! clk $end
$var wire 1 " reset $end
$var wire 1 ) regwrite $end
$var wire 1 * regdst $end
$var wire 1 8 pcwrite $end
$var wire 2 B pcsrc [1:0] $end
$var wire 4 C op [3:0] $end
$var wire 1 % memwrite $end
$var wire 1 / memtoreg $end
$var wire 1 0 irwrite $end
$var wire 1 1 iord $end
$var wire 1 ; branch $end
$var wire 2 D alusrcb [1:0] $end
$var wire 1 5 alusrca $end
$var wire 2 E aluop [1:0] $end
$var parameter 4 F ADD $end
$var parameter 4 G ADDI $end
$var parameter 5 H ADDIEX $end
$var parameter 5 I ADDIWB $end
$var parameter 5 J ALUWB $end
$var parameter 4 K BEQ $end
$var parameter 5 L BRANCH $end
$var parameter 5 M DECODE $end
$var parameter 5 N EXECUTE $end
$var parameter 5 O FETCH $end
$var parameter 4 P JAL $end
$var parameter 4 Q LW $end
$var parameter 5 R MEMADR $end
$var parameter 5 S MEMRD $end
$var parameter 5 T MEMWB $end
$var parameter 5 U MEMWR $end
$var parameter 4 V NAND $end
$var parameter 4 W SW $end
$var reg 15 X control [14:0] $end
$var reg 32 Y ns [31:0] $end
$var reg 32 Z s [31:0] $end
$upscope $end
$upscope $end
$scope module dp $end
$var wire 3 [ alucontrol [2:0] $end
$var wire 1 5 alusrca $end
$var wire 2 \ alusrcb [1:0] $end
$var wire 1 ! clk $end
$var wire 1 1 iord $end
$var wire 1 0 irwrite $end
$var wire 1 / memtoreg $end
$var wire 1 - pcen $end
$var wire 2 ] pcsrc [1:0] $end
$var wire 16 ^ rd1 [15:0] $end
$var wire 16 _ rd2 [15:0] $end
$var wire 1 * regdst $end
$var wire 1 ` regen $end
$var wire 1 ) regwrite $end
$var wire 1 " reset $end
$var wire 1 ' zero $end
$var wire 3 a writereg [2:0] $end
$var wire 16 b writedata [15:0] $end
$var wire 16 c wd [15:0] $end
$var wire 16 d srcb [15:0] $end
$var wire 16 e srca [15:0] $end
$var wire 16 f signimmsh [15:0] $end
$var wire 16 g signimm [15:0] $end
$var wire 3 h returnreg [2:0] $end
$var wire 16 i readdata [15:0] $end
$var wire 16 j pcnext [15:0] $end
$var wire 16 k pc [15:0] $end
$var wire 4 l op [3:0] $end
$var wire 16 m instr [15:0] $end
$var wire 16 n data [15:0] $end
$var wire 1 3 carry $end
$var wire 16 o aluresult [15:0] $end
$var wire 16 p aluout [15:0] $end
$var wire 16 q addr [15:0] $end
$var wire 16 r a [15:0] $end
$scope module addrmux $end
$var wire 1 1 s $end
$var wire 16 s op [15:0] $end
$var wire 16 t b [15:0] $end
$var wire 16 u a [15:0] $end
$var parameter 32 v WIDTH $end
$upscope $end
$scope module alu $end
$var wire 3 w alucontrol [2:0] $end
$var wire 1 3 carry $end
$var wire 1 ' zero $end
$var wire 16 x b [15:0] $end
$var wire 16 y a [15:0] $end
$var reg 1 z c $end
$var reg 16 { op [15:0] $end
$upscope $end
$scope module alureg $end
$var wire 1 ! clk $end
$var wire 16 | d [15:0] $end
$var wire 1 " reset $end
$var parameter 32 } WIDTH $end
$var reg 16 ~ q [15:0] $end
$upscope $end
$scope module areg $end
$var wire 1 ! clk $end
$var wire 16 !" d [15:0] $end
$var wire 1 " reset $end
$var parameter 32 "" WIDTH $end
$var reg 16 #" q [15:0] $end
$upscope $end
$scope module breg $end
$var wire 1 ! clk $end
$var wire 16 $" d [15:0] $end
$var wire 1 " reset $end
$var parameter 32 %" WIDTH $end
$var reg 16 &" q [15:0] $end
$upscope $end
$scope module datareg $end
$var wire 1 ! clk $end
$var wire 1 " reset $end
$var wire 16 '" d [15:0] $end
$var parameter 32 (" WIDTH $end
$var reg 16 )" q [15:0] $end
$upscope $end
$scope module immsh $end
$var wire 16 *" b [15:0] $end
$var wire 16 +" a [15:0] $end
$upscope $end
$scope module instrreg $end
$var wire 1 ! clk $end
$var wire 1 0 en $end
$var wire 1 " reset $end
$var wire 16 ," d [15:0] $end
$var parameter 32 -" WIDTH $end
$var reg 16 ." q [15:0] $end
$upscope $end
$scope module pcmux $end
$var wire 16 /" a [15:0] $end
$var wire 16 0" b [15:0] $end
$var wire 16 1" c [15:0] $end
$var wire 2 2" s [1:0] $end
$var wire 16 3" op [15:0] $end
$var parameter 32 4" WIDTH $end
$upscope $end
$scope module pcreg $end
$var wire 1 ! clk $end
$var wire 16 5" d [15:0] $end
$var wire 1 - en $end
$var wire 1 " reset $end
$var parameter 32 6" WIDTH $end
$var reg 16 7" q [15:0] $end
$upscope $end
$scope module regdstmux $end
$var wire 3 8" a [2:0] $end
$var wire 3 9" b [2:0] $end
$var wire 1 * s $end
$var wire 3 :" op [2:0] $end
$var parameter 32 ;" WIDTH $end
$upscope $end
$scope module rf $end
$var wire 1 ! clk $end
$var wire 3 <" ra1 [2:0] $end
$var wire 3 =" ra2 [2:0] $end
$var wire 16 >" rd1 [15:0] $end
$var wire 16 ?" rd2 [15:0] $end
$var wire 3 @" wa [2:0] $end
$var wire 1 ` we $end
$var wire 16 A" wd [15:0] $end
$upscope $end
$scope module rv $end
$var wire 1 ! clk $end
$var wire 3 B" ra1 [2:0] $end
$var wire 3 C" ra2 [2:0] $end
$var wire 16 D" rd1 [15:0] $end
$var wire 16 E" rd2 [15:0] $end
$var wire 3 F" wa [2:0] $end
$var wire 16 G" wd [15:0] $end
$var wire 1 H" we $end
$upscope $end
$scope module se $end
$var wire 6 I" a [5:0] $end
$var wire 16 J" b [15:0] $end
$upscope $end
$scope module srcamux $end
$var wire 16 K" a [15:0] $end
$var wire 16 L" b [15:0] $end
$var wire 1 5 s $end
$var wire 16 M" op [15:0] $end
$var parameter 32 N" WIDTH $end
$upscope $end
$scope module srcbmux $end
$var wire 16 O" a [15:0] $end
$var wire 16 P" b [15:0] $end
$var wire 16 Q" c [15:0] $end
$var wire 16 R" d [15:0] $end
$var wire 2 S" s [1:0] $end
$var parameter 32 T" WIDTH $end
$var reg 16 U" op [15:0] $end
$upscope $end
$scope module wdmux $end
$var wire 16 V" a [15:0] $end
$var wire 16 W" b [15:0] $end
$var wire 1 / s $end
$var wire 16 X" op [15:0] $end
$var parameter 32 Y" WIDTH $end
$upscope $end
$upscope $end
$upscope $end
$scope module mem $end
$var wire 16 Z" a [15:0] $end
$var wire 1 ! clk $end
$var wire 16 [" rd [15:0] $end
$var wire 16 \" wd [15:0] $end
$var wire 1 % we $end
$upscope $end
$upscope $end
$upscope $end
$enddefinitions $end
$comment Show the parameter values. $end
$dumpall
b10000 Y"
b10000 T"
b10000 N"
b11 ;"
b10000 6"
b10000 4"
b10000 -"
b10000 ("
b10000 %"
b10000 ""
b10000 }
b10000 v
b1001 W
b10 V
b101 U
b100 T
b11 S
b10 R
b1010 Q
b1101 P
b0 O
b110 N
b1 M
b1000 L
b1011 K
b111 J
b1010 I
b1001 H
b1111 G
b0 F
$end
#0
$dumpvars
b0 \"
b1111000000010000 ["
b0 Z"
b0 X"
b0 W"
b0 V"
b10 U"
b1 S"
b0 R"
b0 Q"
b10 P"
b0 O"
b0 M"
b0 L"
b0 K"
b0 J"
b0 I"
1H"
b10 G"
bx F"
bx E"
bx D"
bx C"
bx B"
b0 A"
b0 @"
bx ?"
bx >"
b0 ="
b0 <"
b0 :"
b0 9"
b0 8"
b0 7"
bx 5"
bx 3"
b0 2"
bx 1"
b0 0"
b10 /"
b0 ."
b1111000000010000 ,"
b0 +"
b0 *"
b0 )"
b1111000000010000 '"
b0 &"
bx $"
b0 #"
bx !"
b0 ~
b10 |
b10 {
0z
b0 y
b10 x
b10 w
b0 u
b0 t
b0 s
b0 r
b0 q
b0 p
b10 o
b0 n
b0 m
b0 l
b0 k
bx j
b1111000000010000 i
bx h
b0 g
b0 f
b0 e
b10 d
b0 c
b0 b
b0 a
0`
bx _
bx ^
b0 ]
b1 \
b10 [
b0 Z
b1 Y
b101000000010000 X
b0 E
b1 D
b0 C
b0 B
b10 A
b0 @
b0 ?
b10 >
b0 =
b1 <
0;
b0 :
b0 9
18
b0 7
b10 6
05
b1 4
03
b0 2
01
10
0/
b0 .
1-
b0 ,
b1111000000010000 +
0*
0)
b0 (
0'
b0 &
0%
b1111000000010000 $
b0 #
1"
1!
$end
#1
b10 j
b10 3"
b10 5"
#5
0!
#10
1!
#12
0"
#15
0!
#20
b100000 d
b100000 x
b100000 U"
0-
08
00
b11 4
b11 <
b11 D
b11 \
b11 S"
b100010 o
b100010 {
b100010 |
b100010 /"
b110000 X
b1001 Y
b1111000000100000 $
b1111000000100000 +
b1111000000100000 i
b1111000000100000 '"
b1111000000100000 ,"
b1111000000100000 ["
b100000 f
b100000 *"
b100000 R"
b0 2
0'
b10 e
b10 y
b10 M"
b10 &
b10 7
b10 q
b10 s
b10 Z"
b10000 g
b10000 +"
b10000 J"
b10000 Q"
b10000 I"
b10 9"
b1111 .
b1111 :
b1111 ?
b1111 C
b1111 l
b10 c
b10 A"
b10 X"
b1 Z
b100 G"
b10 k
b10 u
b10 7"
b10 K"
b1111000000010000 m
b1111000000010000 ."
b1111000000010000 n
b1111000000010000 )"
b1111000000010000 W"
bx r
bx #"
bx L"
bx #
bx (
bx b
bx &"
bx O"
bx \"
b10 p
b10 t
b10 ~
b10 0"
b10 V"
1!
#21
b100010 j
b100010 3"
b100010 5"
#25
0!
#30
x3
xz
bx o
bx {
bx |
bx /"
b10000 d
b10000 x
b10000 U"
bx 2
x'
bx e
bx y
bx M"
15
b10 4
b10 <
b10 D
b10 \
b10 S"
b10000100000 X
b1010 Y
b100010 c
b100010 A"
b100010 X"
b100010 p
b100010 t
b100010 ~
b100010 0"
b100010 V"
b1111000000100000 n
b1111000000100000 )"
b1111000000100000 W"
b1001 Z
1!
#31
bx j
bx 3"
bx 5"
#35
0!
#40
x3
xz
bx o
bx {
bx |
bx /"
bx d
bx x
bx U"
x`
bx 2
x'
b10 e
b10 y
b10 M"
1)
05
b0 4
b0 <
b0 D
b0 \
b0 S"
b100000000000 X
b0 Y
bx c
bx A"
bx X"
b1010 Z
bx p
bx t
bx ~
bx 0"
bx V"
1!
#45
0!
#50
03
0z
b100 o
b100 {
b100 |
b100 /"
b1 2
1'
b10 d
b10 x
b10 U"
1-
0`
18
10
0)
b1 4
b1 <
b1 D
b1 \
b1 S"
b101000000010000 X
b1 Y
b0 Z
1!
#51
b100 j
b100 3"
b100 5"
#55
0!
#60
b1111111111000000 d
b1111111111000000 x
b1111111111000000 U"
0-
08
00
b11 4
b11 <
b11 D
b11 \
b11 S"
b1111111111000100 o
b1111111111000100 {
b1111111111000100 |
b1111111111000100 /"
b110000 X
b1001 Y
b1111000000110000 $
b1111000000110000 +
b1111000000110000 i
b1111000000110000 '"
b1111000000110000 ,"
b1111000000110000 ["
b1111111111000000 f
b1111111111000000 *"
b1111111111000000 R"
b0 2
0'
b100 e
b100 y
b100 M"
b100 &
b100 7
b100 q
b100 s
b100 Z"
b1111111111100000 g
b1111111111100000 +"
b1111111111100000 J"
b1111111111100000 Q"
b100000 I"
b100 9"
b100 c
b100 A"
b100 X"
b1 Z
b110 G"
b100 k
b100 u
b100 7"
b100 K"
b1111000000100000 m
b1111000000100000 ."
b100 p
b100 t
b100 ~
b100 0"
b100 V"
1!
#61
b1111111111000100 j
b1111111111000100 3"
b1111111111000100 5"
#65
0!
#70
x3
xz
bx o
bx {
bx |
bx /"
b1111111111100000 d
b1111111111100000 x
b1111111111100000 U"
bx 2
x'
bx e
bx y
bx M"
15
b10 4
b10 <
b10 D
b10 \
b10 S"
b10000100000 X
b1010 Y
b1111111111000100 c
b1111111111000100 A"
b1111111111000100 X"
b1111111111000100 p
b1111111111000100 t
b1111111111000100 ~
b1111111111000100 0"
b1111111111000100 V"
b1111000000110000 n
b1111000000110000 )"
b1111000000110000 W"
b1001 Z
1!
#71
bx j
bx 3"
bx 5"
#75
0!
#80
x3
xz
bx o
bx {
bx |
bx /"
bx d
bx x
bx U"
x`
bx 2
x'
b100 e
b100 y
b100 M"
1)
05
b0 4
b0 <
b0 D
b0 \
b0 S"
b100000000000 X
b0 Y
bx c
bx A"
bx X"
b1010 Z
bx p
bx t
bx ~
bx 0"
bx V"
1!
#85
0!
#90
03
0z
b110 o
b110 {
b110 |
b110 /"
b0 2
0'
b10 d
b10 x
b10 U"
1-
0`
18
10
0)
b1 4
b1 <
b1 D
b1 \
b1 S"
b101000000010000 X
b1 Y
b0 Z
1!
#91
b110 j
b110 3"
b110 5"
#95
0!
#100
b1111111111100000 d
b1111111111100000 x
b1111111111100000 U"
0-
08
00
b11 4
b11 <
b11 D
b11 \
b11 S"
b1111111111100110 o
b1111111111100110 {
b1111111111100110 |
b1111111111100110 /"
b110000 X
b1001 Y
b1111000001000000 $
b1111000001000000 +
b1111000001000000 i
b1111000001000000 '"
b1111000001000000 ,"
b1111000001000000 ["
b1111111111100000 f
b1111111111100000 *"
b1111111111100000 R"
b110 e
b110 y
b110 M"
b110 &
b110 7
b110 q
b110 s
b110 Z"
b1111111111110000 g
b1111111111110000 +"
b1111111111110000 J"
b1111111111110000 Q"
b110000 I"
b110 9"
b110 c
b110 A"
b110 X"
b1 Z
b1000 G"
b110 k
b110 u
b110 7"
b110 K"
b1111000000110000 m
b1111000000110000 ."
b110 p
b110 t
b110 ~
b110 0"
b110 V"
1!
#101
b1111111111100110 j
b1111111111100110 3"
b1111111111100110 5"
#105
0!
#110
x3
xz
bx o
bx {
bx |
bx /"
b1111111111110000 d
b1111111111110000 x
b1111111111110000 U"
bx 2
x'
bx e
bx y
bx M"
15
b10 4
b10 <
b10 D
b10 \
b10 S"
b10000100000 X
b1010 Y
b1111111111100110 c
b1111111111100110 A"
b1111111111100110 X"
b1111111111100110 p
b1111111111100110 t
b1111111111100110 ~
b1111111111100110 0"
b1111111111100110 V"
b1111000001000000 n
b1111000001000000 )"
b1111000001000000 W"
b1001 Z
1!
#111
bx j
bx 3"
bx 5"
#115
0!
#120
x3
xz
bx o
bx {
bx |
bx /"
bx d
bx x
bx U"
x`
bx 2
x'
b110 e
b110 y
b110 M"
1)
05
b0 4
b0 <
b0 D
b0 \
b0 S"
b100000000000 X
b0 Y
bx c
bx A"
bx X"
b1010 Z
bx p
bx t
bx ~
bx 0"
bx V"
1!
#125
0!
#130
03
0z
b1000 o
b1000 {
b1000 |
b1000 /"
b0 2
0'
b10 d
b10 x
b10 U"
1-
0`
18
10
0)
b1 4
b1 <
b1 D
b1 \
b1 S"
b101000000010000 X
b1 Y
b0 Z
1!
#131
b1000 j
b1000 3"
b1000 5"
#135
0!
#140
b0 d
b0 x
b0 U"
0-
08
00
b11 4
b11 <
b11 D
b11 \
b11 S"
b1000 o
b1000 {
b1000 |
b1000 /"
b110000 X
b1001 Y
b1111000001010000 $
b1111000001010000 +
b1111000001010000 i
b1111000001010000 '"
b1111000001010000 ,"
b1111000001010000 ["
b0 f
b0 *"
b0 R"
b1 a
b1 :"
b1 @"
b1000 e
b1000 y
b1000 M"
b1000 &
b1000 7
b1000 q
b1000 s
b1000 Z"
b0 g
b0 +"
b0 J"
b0 Q"
b0 I"
b1 ="
b0 9"
b1 8"
b1000 c
b1000 A"
b1000 X"
b1 Z
b1010 G"
b1000 k
b1000 u
b1000 7"
b1000 K"
b1111000001000000 m
b1111000001000000 ."
b1000 p
b1000 t
b1000 ~
b1000 0"
b1000 V"
1!
#145
0!
#150
x3
xz
bx o
bx {
bx |
bx /"
bx 2
x'
bx e
bx y
bx M"
15
b10 4
b10 <
b10 D
b10 \
b10 S"
b10000100000 X
b1010 Y
b1111000001010000 n
b1111000001010000 )"
b1111000001010000 W"
b1001 Z
1!
#151
bx j
bx 3"
bx 5"
#155
0!
#160
x3
xz
bx o
bx {
bx |
bx /"
bx d
bx x
bx U"
x`
bx 2
x'
b1000 e
b1000 y
b1000 M"
1)
05
b0 4
b0 <
b0 D
b0 \
b0 S"
b100000000000 X
b0 Y
bx c
bx A"
bx X"
b1010 Z
bx p
bx t
bx ~
bx 0"
bx V"
1!
#165
0!
#170
03
0z
b1010 o
b1010 {
b1010 |
b1010 /"
b0 2
0'
b10 d
b10 x
b10 U"
1-
0`
18
10
0)
b1 4
b1 <
b1 D
b1 \
b1 S"
b101000000010000 X
b1 Y
b0 Z
1!
#171
b1010 j
b1010 3"
b1010 5"
#175
0!
#180
b100000 d
b100000 x
b100000 U"
0-
08
00
b11 4
b11 <
b11 D
b11 \
b11 S"
b101010 o
b101010 {
b101010 |
b101010 /"
b110000 X
b1001 Y
b101000101010 $
b101000101010 +
b101000101010 i
b101000101010 '"
b101000101010 ,"
b101000101010 ["
b100000 f
b100000 *"
b100000 R"
b1010 e
b1010 y
b1010 M"
b1010 &
b1010 7
b1010 q
b1010 s
b1010 Z"
b10000 g
b10000 +"
b10000 J"
b10000 Q"
b10000 I"
b10 9"
b1010 c
b1010 A"
b1010 X"
b1 Z
b1100 G"
b1010 k
b1010 u
b1010 7"
b1010 K"
b1111000001010000 m
b1111000001010000 ."
b1010 p
b1010 t
b1010 ~
b1010 0"
b1010 V"
1!
#181
b101010 j
b101010 3"
b101010 5"
#185
0!
#190
x3
xz
bx o
bx {
bx |
bx /"
b10000 d
b10000 x
b10000 U"
bx 2
x'
bx e
bx y
bx M"
15
b10 4
b10 <
b10 D
b10 \
b10 S"
b10000100000 X
b1010 Y
b101010 c
b101010 A"
b101010 X"
b101010 p
b101010 t
b101010 ~
b101010 0"
b101010 V"
b101000101010 n
b101000101010 )"
b101000101010 W"
b1001 Z
1!
#191
bx j
bx 3"
bx 5"
#195
0!
#200
x3
xz
bx o
bx {
bx |
bx /"
bx d
bx x
bx U"
x`
bx 2
x'
b1010 e
b1010 y
b1010 M"
1)
05
b0 4
b0 <
b0 D
b0 \
b0 S"
b100000000000 X
b0 Y
bx c
bx A"
bx X"
b1010 Z
bx p
bx t
bx ~
bx 0"
bx V"
1!
#205
0!
#210
03
0z
b1100 o
b1100 {
b1100 |
b1100 /"
b0 2
0'
b10 d
b10 x
b10 U"
1-
0`
18
10
0)
b1 4
b1 <
b1 D
b1 \
b1 S"
b101000000010000 X
b1 Y
b0 Z
1!
#211
b1100 j
b1100 3"
b1100 5"
#215
0!
#220
b1111111111010100 d
b1111111111010100 x
b1111111111010100 U"
0-
08
00
b11 4
b11 <
b11 D
b11 \
b11 S"
b1111111111100000 o
b1111111111100000 {
b1111111111100000 |
b1111111111100000 /"
b110000 X
b110 Y
b101001001101 $
b101001001101 +
b101001001101 i
b101001001101 '"
b101001001101 ,"
b101001001101 ["
b1111111111010100 f
b1111111111010100 *"
b1111111111010100 R"
b0 a
b0 :"
b0 @"
b1100 e
b1100 y
b1100 M"
b1100 &
b1100 7
b1100 q
b1100 s
b1100 Z"
b1111111111101010 g
b1111111111101010 +"
b1111111111101010 J"
b1111111111101010 Q"
b101010 I"
b0 ="
b101 <"
b101 9"
b0 8"
b0 .
b0 :
b0 ?
b0 C
b0 l
b1100 c
b1100 A"
b1100 X"
b1 Z
b1110 G"
b1100 k
b1100 u
b1100 7"
b1100 K"
b101000101010 m
b101000101010 ."
b1100 p
b1100 t
b1100 ~
b1100 0"
b1100 V"
1!
#221
b1111111111100000 j
b1111111111100000 3"
b1111111111100000 5"
#225
0!
#230
x3
xz
bx o
bx {
bx |
bx /"
bx d
bx x
bx U"
bx 2
x'
bx e
bx y
bx M"
15
b0 4
b0 <
b0 D
b0 \
b0 S"
b10 =
b10 @
b10 E
b10000000010 X
b111 Y
b1111111111100000 c
b1111111111100000 A"
b1111111111100000 X"
b1111111111100000 p
b1111111111100000 t
b1111111111100000 ~
b1111111111100000 0"
b1111111111100000 V"
b101001001101 n
b101001001101 )"
b101001001101 W"
b110 Z
1!
#231
bx j
bx 3"
bx 5"
#235
0!
#240
x`
b1100 e
b1100 y
b1100 M"
b101 a
b101 :"
b101 @"
1)
05
1*
b0 =
b0 @
b0 E
b100001000000 X
b0 Y
bx c
bx A"
bx X"
b111 Z
bx p
bx t
bx ~
bx 0"
bx V"
1!
#245
0!
#250
03
0z
b1110 o
b1110 {
b1110 |
b1110 /"
b0 2
0'
b10 d
b10 x
b10 U"
1-
0`
b0 a
b0 :"
b0 @"
18
10
0)
0*
b1 4
b1 <
b1 D
b1 \
b1 S"
b101000000010000 X
b1 Y
b0 Z
1!
#251
b1110 j
b1110 3"
b1110 5"
#255
0!
#260
b11010 d
b11010 x
b11010 U"
0-
08
00
b11 4
b11 <
b11 D
b11 \
b11 S"
b101000 o
b101000 {
b101000 |
b101000 /"
b110000 X
b110 Y
b10101101111100 $
b10101101111100 +
b10101101111100 i
b10101101111100 '"
b10101101111100 ,"
b10101101111100 ["
b11010 f
b11010 *"
b11010 R"
b1 a
b1 :"
b1 @"
b1110 e
b1110 y
b1110 M"
b1110 &
b1110 7
b1110 q
b1110 s
b1110 Z"
b1101 g
b1101 +"
b1101 J"
b1101 Q"
b1101 I"
b1 ="
b1 9"
b1 8"
b1110 c
b1110 A"
b1110 X"
b1 Z
b10000 G"
b1110 k
b1110 u
b1110 7"
b1110 K"
b101001001101 m
b101001001101 ."
b1110 p
b1110 t
b1110 ~
b1110 0"
b1110 V"
1!
#261
b101000 j
b101000 3"
b101000 5"
#265
0!
#270
x3
xz
bx o
bx {
bx |
bx /"
bx d
bx x
bx U"
bx 2
x'
bx e
bx y
bx M"
15
b0 4
b0 <
b0 D
b0 \
b0 S"
b10 =
b10 @
b10 E
b10000000010 X
b111 Y
b101000 c
b101000 A"
b101000 X"
b101000 p
b101000 t
b101000 ~
b101000 0"
b101000 V"
b10101101111100 n
b10101101111100 )"
b10101101111100 W"
b110 Z
1!
#271
bx j
bx 3"
bx 5"
#275
0!
#280
x`
b1110 e
b1110 y
b1110 M"
1)
05
1*
b0 =
b0 @
b0 E
b100001000000 X
b0 Y
bx c
bx A"
bx X"
b111 Z
bx p
bx t
bx ~
bx 0"
bx V"
1!
#285
0!
#290
03
0z
b10000 o
b10000 {
b10000 |
b10000 /"
b0 2
0'
b10 d
b10 x
b10 U"
1-
0`
18
10
0)
0*
b1 4
b1 <
b1 D
b1 \
b1 S"
b101000000010000 X
b1 Y
b0 Z
1!
#291
b10000 j
b10000 3"
b10000 5"
#295
0!
#300
b10 2
13
1z
b1111111111111000 d
b1111111111111000 x
b1111111111111000 U"
0-
08
00
b11 4
b11 <
b11 D
b11 \
b11 S"
b1000 o
b1000 {
b1000 |
b1000 /"
b110000 X
b110 Y
b10010011010100 $
b10010011010100 +
b10010011010100 i
b10010011010100 '"
b10010011010100 ,"
b10010011010100 ["
b1111111111111000 f
b1111111111111000 *"
b1111111111111000 R"
b101 a
b101 :"
b101 @"
b10000 e
b10000 y
b10000 M"
b10000 &
b10000 7
b10000 q
b10000 s
b10000 Z"
b1111111111111100 g
b1111111111111100 +"
b1111111111111100 J"
b1111111111111100 Q"
b111100 I"
b101 ="
b111 9"
b101 8"
b10 .
b10 :
b10 ?
b10 C
b10 l
b10000 c
b10000 A"
b10000 X"
b1 Z
b10010 G"
b10000 k
b10000 u
b10000 7"
b10000 K"
b10101101111100 m
b10101101111100 ."
b10000 p
b10000 t
b10000 ~
b10000 0"
b10000 V"
1!
#301
b1000 j
b1000 3"
b1000 5"
#305
0!
#310
x3
xz
bx o
bx {
bx |
bx /"
bx d
bx x
bx U"
b110 6
b110 >
b110 A
b110 [
b110 w
bx 2
x'
bx e
bx y
bx M"
15
b0 4
b0 <
b0 D
b0 \
b0 S"
b10 =
b10 @
b10 E
b10000000010 X
b111 Y
b1000 c
b1000 A"
b1000 X"
b1000 p
b1000 t
b1000 ~
b1000 0"
b1000 V"
b10010011010100 n
b10010011010100 )"
b10010011010100 W"
b110 Z
1!
#311
bx j
bx 3"
bx 5"
#315
0!
#320
bx o
bx {
bx |
bx /"
b10 6
b10 >
b10 A
b10 [
b10 w
x`
b10000 e
b10000 y
b10000 M"
b111 a
b111 :"
b111 @"
1)
05
1*
b0 =
b0 @
b0 E
b100001000000 X
b0 Y
bx c
bx A"
bx X"
b111 Z
bx p
bx t
bx ~
bx 0"
bx V"
1!
#325
0!
#330
03
0z
b10010 o
b10010 {
b10010 |
b10010 /"
b0 2
0'
b10 d
b10 x
b10 U"
1-
0`
b101 a
b101 :"
b101 @"
18
10
0)
0*
b1 4
b1 <
b1 D
b1 \
b1 S"
b101000000010000 X
b1 Y
b0 Z
1!
#331
b10010 j
b10010 3"
b10010 5"
#335
0!
#340
b101000 d
b101000 x
b101000 U"
0-
08
00
b11 4
b11 <
b11 D
b11 \
b11 S"
b111010 o
b111010 {
b111010 |
b111010 /"
b110000 X
b110 Y
b1010001010100000 $
b1010001010100000 +
b1010001010100000 i
b1010001010100000 '"
b1010001010100000 ,"
b1010001010100000 ["
b101000 f
b101000 *"
b101000 R"
b11 a
b11 :"
b11 @"
b10010 e
b10010 y
b10010 M"
b10010 &
b10010 7
b10010 q
b10010 s
b10010 Z"
b10100 g
b10100 +"
b10100 J"
b10100 Q"
b10100 I"
b11 ="
b10 <"
b10 9"
b11 8"
b10010 c
b10010 A"
b10010 X"
b1 Z
b10100 G"
b10010 k
b10010 u
b10010 7"
b10010 K"
b10010011010100 m
b10010011010100 ."
b10010 p
b10010 t
b10010 ~
b10010 0"
b10010 V"
1!
#341
b111010 j
b111010 3"
b111010 5"
#345
0!
#350
x3
xz
bx o
bx {
bx |
bx /"
bx d
bx x
bx U"
b110 6
b110 >
b110 A
b110 [
b110 w
bx 2
x'
bx e
bx y
bx M"
15
b0 4
b0 <
b0 D
b0 \
b0 S"
b10 =
b10 @
b10 E
b10000000010 X
b111 Y
b111010 c
b111010 A"
b111010 X"
b111010 p
b111010 t
b111010 ~
b111010 0"
b111010 V"
b1010001010100000 n
b1010001010100000 )"
b1010001010100000 W"
b110 Z
1!
#351
bx j
bx 3"
bx 5"
#355
0!
#360
bx o
bx {
bx |
bx /"
b10 6
b10 >
b10 A
b10 [
b10 w
x`
b10010 e
b10010 y
b10010 M"
b10 a
b10 :"
b10 @"
1)
05
1*
b0 =
b0 @
b0 E
b100001000000 X
b0 Y
bx c
bx A"
bx X"
b111 Z
bx p
bx t
bx ~
bx 0"
bx V"
1!
#365
0!
#370
03
0z
b10100 o
b10100 {
b10100 |
b10100 /"
b0 2
0'
b10 d
b10 x
b10 U"
1-
0`
b11 a
b11 :"
b11 @"
18
10
0)
0*
b1 4
b1 <
b1 D
b1 \
b1 S"
b101000000010000 X
b1 Y
b0 Z
1!
#371
b10100 j
b10100 3"
b10100 5"
#375
0!
#380
b1111111111000000 d
b1111111111000000 x
b1111111111000000 U"
0-
08
00
b11 4
b11 <
b11 D
b11 \
b11 S"
b1111111111010100 o
b1111111111010100 {
b1111111111010100 |
b1111111111010100 /"
b110000 X
b10 Y
bx $
bx +
bx i
bx '"
bx ,"
bx ["
b1111111111000000 f
b1111111111000000 *"
b1111111111000000 R"
b10 a
b10 :"
b10 @"
b10100 e
b10100 y
b10100 M"
b10100 &
b10100 7
b10100 q
b10100 s
b10100 Z"
b1111111111100000 g
b1111111111100000 +"
b1111111111100000 J"
b1111111111100000 Q"
b100000 I"
b10 ="
b1 <"
b100 9"
b10 8"
b1010 .
b1010 :
b1010 ?
b1010 C
b1010 l
b10100 c
b10100 A"
b10100 X"
b1 Z
b10110 G"
b10100 k
b10100 u
b10100 7"
b10100 K"
b1010001010100000 m
b1010001010100000 ."
b10100 p
b10100 t
b10100 ~
b10100 0"
b10100 V"
1!
#381
b1111111111010100 j
b1111111111010100 3"
b1111111111010100 5"
#385
0!
#390
x3
xz
bx o
bx {
bx |
bx /"
b1111111111100000 d
b1111111111100000 x
b1111111111100000 U"
bx 2
x'
bx e
bx y
bx M"
15
b10 4
b10 <
b10 D
b10 \
b10 S"
b10000100000 X
b11 Y
b1111111111010100 c
b1111111111010100 A"
b1111111111010100 X"
b1111111111010100 p
b1111111111010100 t
b1111111111010100 ~
b1111111111010100 0"
b1111111111010100 V"
bx n
bx )"
bx W"
b10 Z
1!
#391
bx j
bx 3"
bx 5"
#395
0!
