ASSG1/output.vcd
$date
	Mon Sep  2 00:35:46 2024
$end
$version
	Icarus Verilog
$end
$timescale
	1s
$end
$scope module testbench $end
$scope module tb $end
$var wire 1 ! clk $end
$var wire 1 " reset $end
$var wire 16 # wd [15:0] $end
$var wire 16 $ readdata [15:0] $end
$var wire 1 % memwrite $end
$var wire 16 & addr [15:0] $end
$scope module mc $end
$var wire 1 ! clk $end
$var wire 1 " reset $end
$var wire 1 ' zero $end
$var wire 16 ( writedata [15:0] $end
$var wire 1 ) regwrite $end
$var wire 1 * regdst $end
$var wire 16 + readdata [15:0] $end
$var wire 2 , pcsrc [1:0] $end
$var wire 1 - pcen $end
$var wire 4 . op [3:0] $end
$var wire 1 % memwrite $end
$var wire 1 / memtoreg $end
$var wire 1 0 irwrite $end
$var wire 1 1 iord $end
$var wire 1 2 carry $end
$var wire 2 3 alusrcb [1:0] $end
$var wire 1 4 alusrca $end
$var wire 3 5 alucontrol [2:0] $end
$var wire 16 6 addr [15:0] $end
$scope module c $end
$var wire 1 ! clk $end
$var wire 1 - pcen $end
$var wire 1 " reset $end
$var wire 1 ' zero $end
$var wire 1 ) regwrite $end
$var wire 1 * regdst $end
$var wire 1 7 pcwrite $end
$var wire 2 8 pcsrc [1:0] $end
$var wire 4 9 op [3:0] $end
$var wire 1 % memwrite $end
$var wire 1 / memtoreg $end
$var wire 1 0 irwrite $end
$var wire 1 1 iord $end
$var wire 1 2 carry $end
$var wire 1 : branch $end
$var wire 2 ; alusrcb [1:0] $end
$var wire 1 4 alusrca $end
$var wire 2 < aluop [1:0] $end
$var wire 3 = alucontrol [2:0] $end
$scope module ad $end
$var wire 4 > op [3:0] $end
$var wire 2 ? aluop [1:0] $end
$var reg 3 @ alucontrol [2:0] $end
$upscope $end
$scope module md $end
$var wire 1 ! clk $end
$var wire 1 " reset $end
$var wire 1 ) regwrite $end
$var wire 1 * regdst $end
$var wire 1 7 pcwrite $end
$var wire 2 A pcsrc [1:0] $end
$var wire 4 B op [3:0] $end
$var wire 1 % memwrite $end
$var wire 1 / memtoreg $end
$var wire 1 0 irwrite $end
$var wire 1 1 iord $end
$var wire 1 : branch $end
$var wire 2 C alusrcb [1:0] $end
$var wire 1 4 alusrca $end
$var wire 2 D aluop [1:0] $end
$var parameter 4 E ADD $end
$var parameter 4 F ADDI $end
$var parameter 5 G ADDIEX $end
$var parameter 5 H ADDIWB $end
$var parameter 5 I ALUWB $end
$var parameter 4 J BEQ $end
$var parameter 5 K BRANCH $end
$var parameter 5 L DECODE $end
$var parameter 5 M EXECUTE $end
$var parameter 5 N FETCH $end
$var parameter 4 O JAL $end
$var parameter 4 P LW $end
$var parameter 5 Q MEMADR $end
$var parameter 5 R MEMRD $end
$var parameter 5 S MEMWB $end
$var parameter 5 T MEMWR $end
$var parameter 4 U NAND $end
$var parameter 4 V SW $end
$var reg 15 W control [14:0] $end
$var reg 32 X ns [31:0] $end
$var reg 32 Y s [31:0] $end
$upscope $end
$upscope $end
$scope module dp $end
$var wire 3 Z alucontrol [2:0] $end
$var wire 1 4 alusrca $end
$var wire 2 [ alusrcb [1:0] $end
$var wire 1 ! clk $end
$var wire 1 1 iord $end
$var wire 1 0 irwrite $end
$var wire 1 / memtoreg $end
$var wire 1 - pcen $end
$var wire 2 \ pcsrc [1:0] $end
$var wire 16 ] rd1 [15:0] $end
$var wire 16 ^ rd2 [15:0] $end
$var wire 1 * regdst $end
$var wire 1 _ regen $end
$var wire 1 ) regwrite $end
$var wire 1 " reset $end
$var wire 1 ' zero $end
$var wire 3 ` writereg [2:0] $end
$var wire 16 a writedata [15:0] $end
$var wire 16 b wd [15:0] $end
$var wire 16 c srcb [15:0] $end
$var wire 16 d srca [15:0] $end
$var wire 16 e signimmsh [15:0] $end
$var wire 16 f signimm [15:0] $end
$var wire 3 g returnreg [2:0] $end
$var wire 16 h readdata [15:0] $end
$var wire 16 i pcnext [15:0] $end
$var wire 16 j pc [15:0] $end
$var wire 4 k op [3:0] $end
$var wire 16 l instr [15:0] $end
$var wire 16 m data [15:0] $end
$var wire 1 2 carry $end
$var wire 16 n aluresult [15:0] $end
$var wire 16 o aluout [15:0] $end
$var wire 16 p addr [15:0] $end
$var wire 16 q a [15:0] $end
$scope module addrmux $end
$var wire 1 1 s $end
$var wire 16 r op [15:0] $end
$var wire 16 s b [15:0] $end
$var wire 16 t a [15:0] $end
$var parameter 32 u WIDTH $end
$upscope $end
$scope module alu $end
$var wire 3 v alucontrol [2:0] $end
$var wire 1 2 carry $end
$var wire 1 ' zero $end
$var wire 16 w b [15:0] $end
$var wire 16 x a [15:0] $end
$var reg 1 y c $end
$var reg 16 z op [15:0] $end
$upscope $end
$scope module alureg $end
$var wire 1 ! clk $end
$var wire 16 { d [15:0] $end
$var wire 1 " reset $end
$var parameter 32 | WIDTH $end
$var reg 16 } q [15:0] $end
$upscope $end
$scope module areg $end
$var wire 1 ! clk $end
$var wire 16 ~ d [15:0] $end
$var wire 1 " reset $end
$var parameter 32 !" WIDTH $end
$var reg 16 "" q [15:0] $end
$upscope $end
$scope module breg $end
$var wire 1 ! clk $end
$var wire 16 #" d [15:0] $end
$var wire 1 " reset $end
$var parameter 32 $" WIDTH $end
$var reg 16 %" q [15:0] $end
$upscope $end
$scope module datareg $end
$var wire 1 ! clk $end
$var wire 1 " reset $end
$var wire 16 &" d [15:0] $end
$var parameter 32 '" WIDTH $end
$var reg 16 (" q [15:0] $end
$upscope $end
$scope module immsh $end
$var wire 16 )" b [15:0] $end
$var wire 16 *" a [15:0] $end
$upscope $end
$scope module instrreg $end
$var wire 1 ! clk $end
$var wire 1 0 en $end
$var wire 1 " reset $end
$var wire 16 +" d [15:0] $end
$var parameter 32 ," WIDTH $end
$var reg 16 -" q [15:0] $end
$upscope $end
$scope module pcmux $end
$var wire 16 ." a [15:0] $end
$var wire 16 /" b [15:0] $end
$var wire 16 0" c [15:0] $end
$var wire 2 1" s [1:0] $end
$var wire 16 2" op [15:0] $end
$var parameter 32 3" WIDTH $end
$upscope $end
$scope module pcreg $end
$var wire 1 ! clk $end
$var wire 16 4" d [15:0] $end
$var wire 1 - en $end
$var wire 1 " reset $end
$var parameter 32 5" WIDTH $end
$var reg 16 6" q [15:0] $end
$upscope $end
$scope module regdstmux $end
$var wire 3 7" a [2:0] $end
$var wire 3 8" b [2:0] $end
$var wire 1 * s $end
$var wire 3 9" op [2:0] $end
$var parameter 32 :" WIDTH $end
$upscope $end
$scope module rf $end
$var wire 1 ! clk $end
$var wire 3 ;" ra1 [2:0] $end
$var wire 3 <" ra2 [2:0] $end
$var wire 16 =" rd1 [15:0] $end
$var wire 16 >" rd2 [15:0] $end
$var wire 3 ?" wa [2:0] $end
$var wire 1 _ we $end
$var wire 16 @" wd [15:0] $end
$upscope $end
$scope module rv $end
$var wire 1 ! clk $end
$var wire 3 A" ra1 [2:0] $end
$var wire 3 B" ra2 [2:0] $end
$var wire 16 C" rd1 [15:0] $end
$var wire 16 D" rd2 [15:0] $end
$var wire 3 E" wa [2:0] $end
$var wire 16 F" wd [15:0] $end
$var wire 1 G" we $end
$upscope $end
$scope module se $end
$var wire 6 H" a [5:0] $end
$var wire 16 I" b [15:0] $end
$upscope $end
$scope module srcamux $end
$var wire 16 J" a [15:0] $end
$var wire 16 K" b [15:0] $end
$var wire 1 4 s $end
$var wire 16 L" op [15:0] $end
$var parameter 32 M" WIDTH $end
$upscope $end
$scope module srcbmux $end
$var wire 16 N" a [15:0] $end
$var wire 16 O" b [15:0] $end
$var wire 16 P" c [15:0] $end
$var wire 16 Q" d [15:0] $end
$var wire 2 R" s [1:0] $end
$var parameter 32 S" WIDTH $end
$var reg 16 T" op [15:0] $end
$upscope $end
$scope module wdmux $end
$var wire 16 U" a [15:0] $end
$var wire 16 V" b [15:0] $end
$var wire 1 / s $end
$var wire 16 W" op [15:0] $end
$var parameter 32 X" WIDTH $end
$upscope $end
$upscope $end
$upscope $end
$scope module mem $end
$var wire 16 Y" a [15:0] $end
$var wire 1 ! clk $end
$var wire 16 Z" rd [15:0] $end
$var wire 16 [" wd [15:0] $end
$var wire 1 % we $end
$upscope $end
$upscope $end
$upscope $end
$enddefinitions $end
$comment Show the parameter values. $end
$dumpall
b10000 X"
b10000 S"
b10000 M"
b11 :"
b10000 5"
b10000 3"
b10000 ,"
b10000 '"
b10000 $"
b10000 !"
b10000 |
b10000 u
b1001 V
b10 U
b101 T
b100 S
b11 R
b10 Q
b1010 P
b1101 O
b0 N
b110 M
b1 L
b1000 K
b1011 J
b111 I
b1010 H
b1001 G
b1111 F
b0 E
$end
#0
$dumpvars
b0 ["
b1111000000010000 Z"
b0 Y"
b0 W"
b0 V"
b0 U"
b10 T"
b1 R"
b0 Q"
b0 P"
b10 O"
b0 N"
b0 L"
b0 K"
b0 J"
b0 I"
b0 H"
1G"
b10 F"
bx E"
bx D"
bx C"
bx B"
bx A"
b0 @"
b0 ?"
bx >"
bx ="
b0 <"
b0 ;"
b0 9"
b0 8"
b0 7"
b0 6"
bx 4"
bx 2"
b0 1"
bx 0"
b0 /"
b10 ."
b0 -"
b1111000000010000 +"
b0 *"
b0 )"
b0 ("
b1111000000010000 &"
b0 %"
bx #"
b0 ""
bx ~
b0 }
b10 {
b10 z
0y
b0 x
b10 w
b10 v
b0 t
b0 s
b0 r
b0 q
b0 p
b0 o
b10 n
b0 m
b0 l
b0 k
b0 j
bx i
b1111000000010000 h
bx g
b0 f
b0 e
b0 d
b10 c
b0 b
b0 a
b0 `
0_
bx ^
bx ]
b0 \
b1 [
b10 Z
b0 Y
b1 X
b101000000010000 W
b0 D
b1 C
b0 B
b0 A
b10 @
b0 ?
b0 >
b10 =
b0 <
b1 ;
0:
b0 9
b0 8
17
b0 6
b10 5
04
b1 3
02
01
10
0/
b0 .
1-
b0 ,
b1111000000010000 +
0*
0)
b0 (
0'
b0 &
0%
b1111000000010000 $
b0 #
1"
1!
$end
#1
b10 i
b10 2"
b10 4"
#5
0!
#10
1!
#12
0"
#15
0!
#20
b100000 c
b100000 w
b100000 T"
0-
07
00
b11 3
b11 ;
b11 C
b11 [
b11 R"
b100010 n
b100010 z
b100010 {
b100010 ."
b110000 W
b1001 X
b1111000000100000 $
b1111000000100000 +
b1111000000100000 h
b1111000000100000 &"
b1111000000100000 +"
b1111000000100000 Z"
b100000 e
b100000 )"
b100000 Q"
0'
b10 d
b10 x
b10 L"
b10 &
b10 6
b10 p
b10 r
b10 Y"
b10000 f
b10000 *"
b10000 I"
b10000 P"
b10000 H"
b10 8"
b1111 .
b1111 9
b1111 >
b1111 B
b1111 k
b10 b
b10 @"
b10 W"
b1 Y
b100 F"
b10 j
b10 t
b10 6"
b10 J"
b1111000000010000 l
b1111000000010000 -"
b1111000000010000 m
b1111000000010000 ("
b1111000000010000 V"
bx q
bx ""
bx K"
bx #
bx (
bx a
bx %"
bx N"
bx ["
b10 o
b10 s
b10 }
b10 /"
b10 U"
1!
#21
b100010 i
b100010 2"
b100010 4"
#25
0!
#30
x2
xy
bx n
bx z
bx {
bx ."
b10000 c
b10000 w
b10000 T"
x'
bx d
bx x
bx L"
14
b10 3
b10 ;
b10 C
b10 [
b10 R"
b10000100000 W
b1010 X
b100010 b
b100010 @"
b100010 W"
b100010 o
b100010 s
b100010 }
b100010 /"
b100010 U"
b1111000000100000 m
b1111000000100000 ("
b1111000000100000 V"
b1001 Y
1!
#31
bx i
bx 2"
bx 4"
#35
0!
#40
x2
xy
bx n
bx z
bx {
bx ."
bx c
bx w
bx T"
x_
x'
b10 d
b10 x
b10 L"
1)
04
b0 3
b0 ;
b0 C
b0 [
b0 R"
b100000000000 W
b0 X
bx b
bx @"
bx W"
b1010 Y
bx o
bx s
bx }
bx /"
bx U"
1!
#45
0!
#50
02
0y
b100 n
b100 z
b100 {
b100 ."
1'
b10 c
b10 w
b10 T"
1-
0_
17
10
0)
b1 3
b1 ;
b1 C
b1 [
b1 R"
b101000000010000 W
b1 X
b0 Y
1!
#51
b100 i
b100 2"
b100 4"
#55
0!
#60
b1111111111000000 c
b1111111111000000 w
b1111111111000000 T"
0-
07
00
b11 3
b11 ;
b11 C
b11 [
b11 R"
b1111111111000100 n
b1111111111000100 z
b1111111111000100 {
b1111111111000100 ."
b110000 W
b1001 X
b1111000000110000 $
b1111000000110000 +
b1111000000110000 h
b1111000000110000 &"
b1111000000110000 +"
b1111000000110000 Z"
b1111111111000000 e
b1111111111000000 )"
b1111111111000000 Q"
0'
b100 d
b100 x
b100 L"
b100 &
b100 6
b100 p
b100 r
b100 Y"
b1111111111100000 f
b1111111111100000 *"
b1111111111100000 I"
b1111111111100000 P"
b100000 H"
b100 8"
b100 b
b100 @"
b100 W"
b1 Y
b110 F"
b100 j
b100 t
b100 6"
b100 J"
b1111000000100000 l
b1111000000100000 -"
b100 o
b100 s
b100 }
b100 /"
b100 U"
1!
#61
b1111111111000100 i
b1111111111000100 2"
b1111111111000100 4"
#65
0!
#70
x2
xy
bx n
bx z
bx {
bx ."
b1111111111100000 c
b1111111111100000 w
b1111111111100000 T"
x'
bx d
bx x
bx L"
14
b10 3
b10 ;
b10 C
b10 [
b10 R"
b10000100000 W
b1010 X
b1111111111000100 b
b1111111111000100 @"
b1111111111000100 W"
b1111111111000100 o
b1111111111000100 s
b1111111111000100 }
b1111111111000100 /"
b1111111111000100 U"
b1111000000110000 m
b1111000000110000 ("
b1111000000110000 V"
b1001 Y
1!
#71
bx i
bx 2"
bx 4"
#75
0!
#80
x2
xy
bx n
bx z
bx {
bx ."
bx c
bx w
bx T"
x_
x'
b100 d
b100 x
b100 L"
1)
04
b0 3
b0 ;
b0 C
b0 [
b0 R"
b100000000000 W
b0 X
bx b
bx @"
bx W"
b1010 Y
bx o
bx s
bx }
bx /"
bx U"
1!
#85
0!
#90
02
0y
b110 n
b110 z
b110 {
b110 ."
0'
b10 c
b10 w
b10 T"
1-
0_
17
10
0)
b1 3
b1 ;
b1 C
b1 [
b1 R"
b101000000010000 W
b1 X
b0 Y
1!
#91
b110 i
b110 2"
b110 4"
#95
0!
#100
b1111111111100000 c
b1111111111100000 w
b1111111111100000 T"
0-
07
00
b11 3
b11 ;
b11 C
b11 [
b11 R"
b1111111111100110 n
b1111111111100110 z
b1111111111100110 {
b1111111111100110 ."
b110000 W
b1001 X
b1111000001000000 $
b1111000001000000 +
b1111000001000000 h
b1111000001000000 &"
b1111000001000000 +"
b1111000001000000 Z"
b1111111111100000 e
b1111111111100000 )"
b1111111111100000 Q"
b110 d
b110 x
b110 L"
b110 &
b110 6
b110 p
b110 r
b110 Y"
b1111111111110000 f
b1111111111110000 *"
b1111111111110000 I"
b1111111111110000 P"
b110000 H"
b110 8"
b110 b
b110 @"
b110 W"
b1 Y
b1000 F"
b110 j
b110 t
b110 6"
b110 J"
b1111000000110000 l
b1111000000110000 -"
b110 o
b110 s
b110 }
b110 /"
b110 U"
1!
#101
b1111111111100110 i
b1111111111100110 2"
b1111111111100110 4"
#105
0!
#110
x2
xy
bx n
bx z
bx {
bx ."
b1111111111110000 c
b1111111111110000 w
b1111111111110000 T"
x'
bx d
bx x
bx L"
14
b10 3
b10 ;
b10 C
b10 [
b10 R"
b10000100000 W
b1010 X
b1111111111100110 b
b1111111111100110 @"
b1111111111100110 W"
b1111111111100110 o
b1111111111100110 s
b1111111111100110 }
b1111111111100110 /"
b1111111111100110 U"
b1111000001000000 m
b1111000001000000 ("
b1111000001000000 V"
b1001 Y
1!
#111
bx i
bx 2"
bx 4"
#115
0!
#120
x2
xy
bx n
bx z
bx {
bx ."
bx c
bx w
bx T"
x_
x'
b110 d
b110 x
b110 L"
1)
04
b0 3
b0 ;
b0 C
b0 [
b0 R"
b100000000000 W
b0 X
bx b
bx @"
bx W"
b1010 Y
bx o
bx s
bx }
bx /"
bx U"
1!
#125
0!
#130
02
0y
b1000 n
b1000 z
b1000 {
b1000 ."
0'
b10 c
b10 w
b10 T"
1-
0_
17
10
0)
b1 3
b1 ;
b1 C
b1 [
b1 R"
b101000000010000 W
b1 X
b0 Y
1!
#131
b1000 i
b1000 2"
b1000 4"
#135
0!
#140
b0 c
b0 w
b0 T"
0-
07
00
b11 3
b11 ;
b11 C
b11 [
b11 R"
b1000 n
b1000 z
b1000 {
b1000 ."
b110000 W
b1001 X
b1111000001010000 $
b1111000001010000 +
b1111000001010000 h
b1111000001010000 &"
b1111000001010000 +"
b1111000001010000 Z"
b0 e
b0 )"
b0 Q"
b1 `
b1 9"
b1 ?"
b1000 d
b1000 x
b1000 L"
b1000 &
b1000 6
b1000 p
b1000 r
b1000 Y"
b0 f
b0 *"
b0 I"
b0 P"
b0 H"
b1 <"
b0 8"
b1 7"
b1000 b
b1000 @"
b1000 W"
b1 Y
b1010 F"
b1000 j
b1000 t
b1000 6"
b1000 J"
b1111000001000000 l
b1111000001000000 -"
b1000 o
b1000 s
b1000 }
b1000 /"
b1000 U"
1!
#145
0!
#150
x2
xy
bx n
bx z
bx {
bx ."
x'
bx d
bx x
bx L"
14
b10 3
b10 ;
b10 C
b10 [
b10 R"
b10000100000 W
b1010 X
b1111000001010000 m
b1111000001010000 ("
b1111000001010000 V"
b1001 Y
1!
#151
bx i
bx 2"
bx 4"
#155
0!
#160
x2
xy
bx n
bx z
bx {
bx ."
bx c
bx w
bx T"
x_
x'
b1000 d
b1000 x
b1000 L"
1)
04
b0 3
b0 ;
b0 C
b0 [
b0 R"
b100000000000 W
b0 X
bx b
bx @"
bx W"
b1010 Y
bx o
bx s
bx }
bx /"
bx U"
1!
#165
0!
#170
02
0y
b1010 n
b1010 z
b1010 {
b1010 ."
0'
b10 c
b10 w
b10 T"
1-
0_
17
10
0)
b1 3
b1 ;
b1 C
b1 [
b1 R"
b101000000010000 W
b1 X
b0 Y
1!
#171
b1010 i
b1010 2"
b1010 4"
#175
0!
#180
b100000 c
b100000 w
b100000 T"
0-
07
00
b11 3
b11 ;
b11 C
b11 [
b11 R"
b101010 n
b101010 z
b101010 {
b101010 ."
b110000 W
b1001 X
b101000101010 $
b101000101010 +
b101000101010 h
b101000101010 &"
b101000101010 +"
b101000101010 Z"
b100000 e
b100000 )"
b100000 Q"
b1010 d
b1010 x
b1010 L"
b1010 &
b1010 6
b1010 p
b1010 r
b1010 Y"
b10000 f
b10000 *"
b10000 I"
b10000 P"
b10000 H"
b10 8"
b1010 b
b1010 @"
b1010 W"
b1 Y
b1100 F"
b1010 j
b1010 t
b1010 6"
b1010 J"
b1111000001010000 l
b1111000001010000 -"
b1010 o
b1010 s
b1010 }
b1010 /"
b1010 U"
1!
#181
b101010 i
b101010 2"
b101010 4"
#185
0!
#190
x2
xy
bx n
bx z
bx {
bx ."
b10000 c
b10000 w
b10000 T"
x'
bx d
bx x
bx L"
14
b10 3
b10 ;
b10 C
b10 [
b10 R"
b10000100000 W
b1010 X
b101010 b
b101010 @"
b101010 W"
b101010 o
b101010 s
b101010 }
b101010 /"
b101010 U"
b101000101010 m
b101000101010 ("
b101000101010 V"
b1001 Y
1!
#191
bx i
bx 2"
bx 4"
#195
0!
#200
x2
xy
bx n
bx z
bx {
bx ."
bx c
bx w
bx T"
x_
x'
b1010 d
b1010 x
b1010 L"
1)
04
b0 3
b0 ;
b0 C
b0 [
b0 R"
b100000000000 W
b0 X
bx b
bx @"
bx W"
b1010 Y
bx o
bx s
bx }
bx /"
bx U"
1!
#205
0!
#210
02
0y
b1100 n
b1100 z
b1100 {
b1100 ."
0'
b10 c
b10 w
b10 T"
1-
0_
17
10
0)
b1 3
b1 ;
b1 C
b1 [
b1 R"
b101000000010000 W
b1 X
b0 Y
1!
#211
b1100 i
b1100 2"
b1100 4"
#215
0!
#220
b1111111111010100 c
b1111111111010100 w
b1111111111010100 T"
0-
07
00
b11 3
b11 ;
b11 C
b11 [
b11 R"
b1111111111100000 n
b1111111111100000 z
b1111111111100000 {
b1111111111100000 ."
b110000 W
b110 X
b101001001101 $
b101001001101 +
b101001001101 h
b101001001101 &"
b101001001101 +"
b101001001101 Z"
b1111111111010100 e
b1111111111010100 )"
b1111111111010100 Q"
b0 `
b0 9"
b0 ?"
b1100 d
b1100 x
b1100 L"
b1100 &
b1100 6
b1100 p
b1100 r
b1100 Y"
b1111111111101010 f
b1111111111101010 *"
b1111111111101010 I"
b1111111111101010 P"
b101010 H"
b0 <"
b101 ;"
b101 8"
b0 7"
b0 .
b0 9
b0 >
b0 B
b0 k
b1100 b
b1100 @"
b1100 W"
b1 Y
b1110 F"
b1100 j
b1100 t
b1100 6"
b1100 J"
b101000101010 l
b101000101010 -"
b1100 o
b1100 s
b1100 }
b1100 /"
b1100 U"
1!
#221
b1111111111100000 i
b1111111111100000 2"
b1111111111100000 4"
#225
0!
#230
x2
xy
bx n
bx z
bx {
bx ."
bx c
bx w
bx T"
x'
bx d
bx x
bx L"
14
b0 3
b0 ;
b0 C
b0 [
b0 R"
b10 <
b10 ?
b10 D
b10000000010 W
b111 X
b1111111111100000 b
b1111111111100000 @"
b1111111111100000 W"
b1111111111100000 o
b1111111111100000 s
b1111111111100000 }
b1111111111100000 /"
b1111111111100000 U"
b101001001101 m
b101001001101 ("
b101001001101 V"
b110 Y
1!
#231
bx i
bx 2"
bx 4"
#235
0!
#240
x_
b1100 d
b1100 x
b1100 L"
b101 `
b101 9"
b101 ?"
1)
04
1*
b0 <
b0 ?
b0 D
b100001000000 W
b0 X
bx b
bx @"
bx W"
b111 Y
bx o
bx s
bx }
bx /"
bx U"
1!
#245
0!
#250
02
0y
b1110 n
b1110 z
b1110 {
b1110 ."
0'
b10 c
b10 w
b10 T"
1-
0_
b0 `
b0 9"
b0 ?"
17
10
0)
0*
b1 3
b1 ;
b1 C
b1 [
b1 R"
b101000000010000 W
b1 X
b0 Y
1!
#251
b1110 i
b1110 2"
b1110 4"
#255
0!
#260
b11010 c
b11010 w
b11010 T"
0-
07
00
b11 3
b11 ;
b11 C
b11 [
b11 R"
b101000 n
b101000 z
b101000 {
b101000 ."
b110000 W
b110 X
b10101101111100 $
b10101101111100 +
b10101101111100 h
b10101101111100 &"
b10101101111100 +"
b10101101111100 Z"
b11010 e
b11010 )"
b11010 Q"
b1 `
b1 9"
b1 ?"
b1110 d
b1110 x
b1110 L"
b1110 &
b1110 6
b1110 p
b1110 r
b1110 Y"
b1101 f
b1101 *"
b1101 I"
b1101 P"
b1101 H"
b1 <"
b1 8"
b1 7"
b1110 b
b1110 @"
b1110 W"
b1 Y
b10000 F"
b1110 j
b1110 t
b1110 6"
b1110 J"
b101001001101 l
b101001001101 -"
b1110 o
b1110 s
b1110 }
b1110 /"
b1110 U"
1!
#261
b101000 i
b101000 2"
b101000 4"
#265
0!
#270
x2
xy
bx n
bx z
bx {
bx ."
bx c
bx w
bx T"
x'
bx d
bx x
bx L"
14
b0 3
b0 ;
b0 C
b0 [
b0 R"
b10 <
b10 ?
b10 D
b10000000010 W
b111 X
b101000 b
b101000 @"
b101000 W"
b101000 o
b101000 s
b101000 }
b101000 /"
b101000 U"
b10101101111100 m
b10101101111100 ("
b10101101111100 V"
b110 Y
1!
#271
bx i
bx 2"
bx 4"
#275
0!
#280
x_
b1110 d
b1110 x
b1110 L"
1)
04
1*
b0 <
b0 ?
b0 D
b100001000000 W
b0 X
bx b
bx @"
bx W"
b111 Y
bx o
bx s
bx }
bx /"
bx U"
1!
#285
0!
#290
02
0y
b10000 n
b10000 z
b10000 {
b10000 ."
0'
b10 c
b10 w
b10 T"
1-
0_
17
10
0)
0*
b1 3
b1 ;
b1 C
b1 [
b1 R"
b101000000010000 W
b1 X
b0 Y
1!
#291
b10000 i
b10000 2"
b10000 4"
#295
0!
#300
12
1y
b1111111111111000 c
b1111111111111000 w
b1111111111111000 T"
0-
07
00
b11 3
b11 ;
b11 C
b11 [
b11 R"
b1000 n
b1000 z
b1000 {
b1000 ."
b110000 W
b110 X
b10010011010100 $
b10010011010100 +
b10010011010100 h
b10010011010100 &"
b10010011010100 +"
b10010011010100 Z"
b1111111111111000 e
b1111111111111000 )"
b1111111111111000 Q"
b101 `
b101 9"
b101 ?"
b10000 d
b10000 x
b10000 L"
b10000 &
b10000 6
b10000 p
b10000 r
b10000 Y"
b1111111111111100 f
b1111111111111100 *"
b1111111111111100 I"
b1111111111111100 P"
b111100 H"
b101 <"
b111 8"
b101 7"
b10 .
b10 9
b10 >
b10 B
b10 k
b10000 b
b10000 @"
b10000 W"
b1 Y
b10010 F"
b10000 j
b10000 t
b10000 6"
b10000 J"
b10101101111100 l
b10101101111100 -"
b10000 o
b10000 s
b10000 }
b10000 /"
b10000 U"
1!
#301
b1000 i
b1000 2"
b1000 4"
#305
0!
#310
x2
xy
bx n
bx z
bx {
bx ."
bx c
bx w
bx T"
b110 5
b110 =
b110 @
b110 Z
b110 v
x'
bx d
bx x
bx L"
14
b0 3
b0 ;
b0 C
b0 [
b0 R"
b10 <
b10 ?
b10 D
b10000000010 W
b111 X
b1000 b
b1000 @"
b1000 W"
b1000 o
b1000 s
b1000 }
b1000 /"
b1000 U"
b10010011010100 m
b10010011010100 ("
b10010011010100 V"
b110 Y
1!
#311
bx i
bx 2"
bx 4"
#315
0!
#320
bx n
bx z
bx {
bx ."
b10 5
b10 =
b10 @
b10 Z
b10 v
x_
b10000 d
b10000 x
b10000 L"
b111 `
b111 9"
b111 ?"
1)
04
1*
b0 <
b0 ?
b0 D
b100001000000 W
b0 X
bx b
bx @"
bx W"
b111 Y
bx o
bx s
bx }
bx /"
bx U"
1!
#325
0!
#330
02
0y
b10010 n
b10010 z
b10010 {
b10010 ."
0'
b10 c
b10 w
b10 T"
1-
0_
b101 `
b101 9"
b101 ?"
17
10
0)
0*
b1 3
b1 ;
b1 C
b1 [
b1 R"
b101000000010000 W
b1 X
b0 Y
1!
#331
b10010 i
b10010 2"
b10010 4"
#335
0!
#340
b101000 c
b101000 w
b101000 T"
0-
07
00
b11 3
b11 ;
b11 C
b11 [
b11 R"
b111010 n
b111010 z
b111010 {
b111010 ."
b110000 W
b110 X
b1010001010100000 $
b1010001010100000 +
b1010001010100000 h
b1010001010100000 &"
b1010001010100000 +"
b1010001010100000 Z"
b101000 e
b101000 )"
b101000 Q"
b11 `
b11 9"
b11 ?"
b10010 d
b10010 x
b10010 L"
b10010 &
b10010 6
b10010 p
b10010 r
b10010 Y"
b10100 f
b10100 *"
b10100 I"
b10100 P"
b10100 H"
b11 <"
b10 ;"
b10 8"
b11 7"
b10010 b
b10010 @"
b10010 W"
b1 Y
b10100 F"
b10010 j
b10010 t
b10010 6"
b10010 J"
b10010011010100 l
b10010011010100 -"
b10010 o
b10010 s
b10010 }
b10010 /"
b10010 U"
1!
#341
b111010 i
b111010 2"
b111010 4"
#345
0!
#350
x2
xy
bx n
bx z
bx {
bx ."
bx c
bx w
bx T"
b110 5
b110 =
b110 @
b110 Z
b110 v
x'
bx d
bx x
bx L"
14
b0 3
b0 ;
b0 C
b0 [
b0 R"
b10 <
b10 ?
b10 D
b10000000010 W
b111 X
b111010 b
b111010 @"
b111010 W"
b111010 o
b111010 s
b111010 }
b111010 /"
b111010 U"
b1010001010100000 m
b1010001010100000 ("
b1010001010100000 V"
b110 Y
1!
#351
bx i
bx 2"
bx 4"
#355
0!
#360
bx n
bx z
bx {
bx ."
b10 5
b10 =
b10 @
b10 Z
b10 v
x_
b10010 d
b10010 x
b10010 L"
b10 `
b10 9"
b10 ?"
1)
04
1*
b0 <
b0 ?
b0 D
b100001000000 W
b0 X
bx b
bx @"
bx W"
b111 Y
bx o
bx s
bx }
bx /"
bx U"
1!
#365
0!
#370
02
0y
b10100 n
b10100 z
b10100 {
b10100 ."
0'
b10 c
b10 w
b10 T"
1-
0_
b11 `
b11 9"
b11 ?"
17
10
0)
0*
b1 3
b1 ;
b1 C
b1 [
b1 R"
b101000000010000 W
b1 X
b0 Y
1!
#371
b10100 i
b10100 2"
b10100 4"
#375
0!
#380
b1111111111000000 c
b1111111111000000 w
b1111111111000000 T"
0-
07
00
b11 3
b11 ;
b11 C
b11 [
b11 R"
b1111111111010100 n
b1111111111010100 z
b1111111111010100 {
b1111111111010100 ."
b110000 W
b10 X
bx $
bx +
bx h
bx &"
bx +"
bx Z"
b1111111111000000 e
b1111111111000000 )"
b1111111111000000 Q"
b10 `
b10 9"
b10 ?"
b10100 d
b10100 x
b10100 L"
b10100 &
b10100 6
b10100 p
b10100 r
b10100 Y"
b1111111111100000 f
b1111111111100000 *"
b1111111111100000 I"
b1111111111100000 P"
b100000 H"
b10 <"
b1 ;"
b100 8"
b10 7"
b1010 .
b1010 9
b1010 >
b1010 B
b1010 k
b10100 b
b10100 @"
b10100 W"
b1 Y
b10110 F"
b10100 j
b10100 t
b10100 6"
b10100 J"
b1010001010100000 l
b1010001010100000 -"
b10100 o
b10100 s
b10100 }
b10100 /"
b10100 U"
1!
#381
b1111111111010100 i
b1111111111010100 2"
b1111111111010100 4"
#385
0!
#390
x2
xy
bx n
bx z
bx {
bx ."
b1111111111100000 c
b1111111111100000 w
b1111111111100000 T"
x'
bx d
bx x
bx L"
14
b10 3
b10 ;
b10 C
b10 [
b10 R"
b10000100000 W
b11 X
b1111111111010100 b
b1111111111010100 @"
b1111111111010100 W"
b1111111111010100 o
b1111111111010100 s
b1111111111010100 }
b1111111111010100 /"
b1111111111010100 U"
bx m
bx ("
bx V"
b10 Y
1!
#391
bx i
bx 2"
bx 4"
#395
0!
#400
x2
xy
bx n
bx z
bx {
bx ."
bx c
bx w
bx T"
x'
b10100 d
b10100 x
b10100 L"
bx &
bx 6
bx p
bx r
bx Y"
04
11
b0 3
b0 ;
b0 C
b0 [
b0 R"
b100000000 W
b100 X
bx b
bx @"
bx W"
b11 Y
bx o
bx s
bx }
bx /"
bx U"
1!
#405
0!
