ASSG1/output.vcd
$date
	Sun Sep  1 19:06:06 2024
$end
$version
	Icarus Verilog
$end
$timescale
	1s
$end
$scope module testbench $end
$scope module tb $end
$var wire 1 ! clk $end
$var wire 1 " reset $end
$var wire 16 # writedata [15:0] $end
$var wire 16 $ readdata [15:0] $end
$var wire 1 % memwrite $end
$var wire 16 & addr [15:0] $end
$scope module mc $end
$var wire 1 ! clk $end
$var wire 1 " reset $end
$var wire 1 ' zero $end
$var wire 16 ( writedata [15:0] $end
$var wire 1 ) regwrite $end
$var wire 1 * regdst $end
$var wire 16 + readdata [15:0] $end
$var wire 2 , pcsrc [1:0] $end
$var wire 1 - pcen $end
$var wire 4 . op [3:0] $end
$var wire 1 % memwrite $end
$var wire 1 / memtoreg $end
$var wire 1 0 irwrite $end
$var wire 1 1 iord $end
$var wire 1 2 carry $end
$var wire 2 3 alusrcb [1:0] $end
$var wire 1 4 alusrca $end
$var wire 3 5 alucontrol [2:0] $end
$var wire 16 6 addr [15:0] $end
$scope module c $end
$var wire 1 ! clk $end
$var wire 1 - pcen $end
$var wire 1 " reset $end
$var wire 1 ' zero $end
$var wire 1 ) regwrite $end
$var wire 1 * regdst $end
$var wire 1 7 pcwrite $end
$var wire 2 8 pcsrc [1:0] $end
$var wire 4 9 op [3:0] $end
$var wire 1 % memwrite $end
$var wire 1 / memtoreg $end
$var wire 1 0 irwrite $end
$var wire 1 1 iord $end
$var wire 1 2 carry $end
$var wire 1 : branch $end
$var wire 2 ; alusrcb [1:0] $end
$var wire 1 4 alusrca $end
$var wire 2 < aluop [1:0] $end
$var wire 3 = alucontrol [2:0] $end
$scope module ad $end
$var wire 4 > op [3:0] $end
$var wire 2 ? aluop [1:0] $end
$var reg 3 @ alucontrol [2:0] $end
$upscope $end
$scope module md $end
$var wire 1 ! clk $end
$var wire 1 " reset $end
$var wire 1 ) regwrite $end
$var wire 1 * regdst $end
$var wire 1 7 pcwrite $end
$var wire 2 A pcsrc [1:0] $end
$var wire 4 B op [3:0] $end
$var wire 1 % memwrite $end
$var wire 1 / memtoreg $end
$var wire 1 0 irwrite $end
$var wire 1 1 iord $end
$var wire 1 : branch $end
$var wire 2 C alusrcb [1:0] $end
$var wire 1 4 alusrca $end
$var wire 2 D aluop [1:0] $end
$var parameter 4 E ADD $end
$var parameter 32 F ALUWB $end
$var parameter 4 G BEQ $end
$var parameter 32 H BRANCH $end
$var parameter 32 I DECODE $end
$var parameter 32 J EXECUTE $end
$var parameter 32 K FETCH $end
$var parameter 4 L JAL $end
$var parameter 4 M LW $end
$var parameter 32 N MEMADR $end
$var parameter 32 O MEMRD $end
$var parameter 32 P MEMWB $end
$var parameter 32 Q MEMWR $end
$var parameter 4 R NAND $end
$var parameter 4 S SW $end
$var reg 15 T control [14:0] $end
$var reg 32 U ns [31:0] $end
$var reg 32 V s [31:0] $end
$upscope $end
$upscope $end
$scope module dp $end
$var wire 3 W alucontrol [2:0] $end
$var wire 1 4 alusrca $end
$var wire 2 X alusrcb [1:0] $end
$var wire 1 ! clk $end
$var wire 1 1 iord $end
$var wire 1 0 irwrite $end
$var wire 1 / memtoreg $end
$var wire 1 - pcen $end
$var wire 2 Y pcsrc [1:0] $end
$var wire 16 Z rd1 [15:0] $end
$var wire 16 [ rd2 [15:0] $end
$var wire 1 * regdst $end
$var wire 1 \ regen $end
$var wire 1 ) regwrite $end
$var wire 1 " reset $end
$var wire 1 ' zero $end
$var wire 3 ] writereg [2:0] $end
$var wire 16 ^ writedata [15:0] $end
$var wire 16 _ wd [15:0] $end
$var wire 16 ` srcb [15:0] $end
$var wire 16 a srca [15:0] $end
$var wire 16 b signimmsh [15:0] $end
$var wire 16 c signimm [15:0] $end
$var wire 3 d returnreg [2:0] $end
$var wire 16 e readdata [15:0] $end
$var wire 16 f pcnext [15:0] $end
$var wire 16 g pc [15:0] $end
$var wire 4 h op [3:0] $end
$var wire 16 i instr [15:0] $end
$var wire 16 j data [15:0] $end
$var wire 1 2 carry $end
$var wire 16 k aluresult [15:0] $end
$var wire 16 l aluout [15:0] $end
$var wire 16 m addr [15:0] $end
$var wire 16 n a [15:0] $end
$scope module addrmux $end
$var wire 1 1 s $end
$var wire 16 o op [15:0] $end
$var wire 16 p b [15:0] $end
$var wire 16 q a [15:0] $end
$var parameter 32 r WIDTH $end
$upscope $end
$scope module alu $end
$var wire 3 s alucontrol [2:0] $end
$var wire 1 2 carry $end
$var wire 1 ' zero $end
$var wire 16 t b [15:0] $end
$var wire 16 u a [15:0] $end
$var reg 1 v c $end
$var reg 16 w op [15:0] $end
$upscope $end
$scope module alureg $end
$var wire 1 ! clk $end
$var wire 16 x d [15:0] $end
$var wire 1 " reset $end
$var parameter 32 y WIDTH $end
$var reg 16 z q [15:0] $end
$upscope $end
$scope module areg $end
$var wire 1 ! clk $end
$var wire 16 { d [15:0] $end
$var wire 1 " reset $end
$var parameter 32 | WIDTH $end
$var reg 16 } q [15:0] $end
$upscope $end
$scope module breg $end
$var wire 1 ! clk $end
$var wire 16 ~ d [15:0] $end
$var wire 1 " reset $end
$var parameter 32 !" WIDTH $end
$var reg 16 "" q [15:0] $end
$upscope $end
$scope module datareg $end
$var wire 1 ! clk $end
$var wire 1 " reset $end
$var wire 16 #" d [15:0] $end
$var parameter 32 $" WIDTH $end
$var reg 16 %" q [15:0] $end
$upscope $end
$scope module immsh $end
$var wire 16 &" b [15:0] $end
$var wire 16 '" a [15:0] $end
$upscope $end
$scope module instrreg $end
$var wire 1 ! clk $end
$var wire 1 0 en $end
$var wire 1 " reset $end
$var wire 16 (" d [15:0] $end
$var parameter 32 )" WIDTH $end
$var reg 16 *" q [15:0] $end
$upscope $end
$scope module pcmux $end
$var wire 16 +" a [15:0] $end
$var wire 16 ," b [15:0] $end
$var wire 16 -" c [15:0] $end
$var wire 2 ." s [1:0] $end
$var wire 16 /" op [15:0] $end
$var parameter 32 0" WIDTH $end
$upscope $end
$scope module pcreg $end
$var wire 1 ! clk $end
$var wire 16 1" d [15:0] $end
$var wire 1 - en $end
$var wire 1 " reset $end
$var parameter 32 2" WIDTH $end
$var reg 16 3" q [15:0] $end
$upscope $end
$scope module regdstmux $end
$var wire 3 4" a [2:0] $end
$var wire 3 5" b [2:0] $end
$var wire 1 * s $end
$var wire 3 6" op [2:0] $end
$var parameter 32 7" WIDTH $end
$upscope $end
$scope module rf $end
$var wire 1 ! clk $end
$var wire 3 8" ra1 [2:0] $end
$var wire 3 9" ra2 [2:0] $end
$var wire 16 :" rd1 [15:0] $end
$var wire 16 ;" rd2 [15:0] $end
$var wire 3 <" wa [2:0] $end
$var wire 1 \ we $end
$var wire 16 =" wd [15:0] $end
$upscope $end
$scope module rv $end
$var wire 1 ! clk $end
$var wire 3 >" ra1 [2:0] $end
$var wire 3 ?" ra2 [2:0] $end
$var wire 16 @" rd1 [15:0] $end
$var wire 16 A" rd2 [15:0] $end
$var wire 3 B" wa [2:0] $end
$var wire 16 C" wd [15:0] $end
$var wire 1 D" we $end
$upscope $end
$scope module se $end
$var wire 6 E" a [5:0] $end
$var wire 16 F" b [15:0] $end
$upscope $end
$scope module srcamux $end
$var wire 16 G" a [15:0] $end
$var wire 16 H" b [15:0] $end
$var wire 1 4 s $end
$var wire 16 I" op [15:0] $end
$var parameter 32 J" WIDTH $end
$upscope $end
$scope module srcbmux $end
$var wire 16 K" a [15:0] $end
$var wire 16 L" b [15:0] $end
$var wire 16 M" c [15:0] $end
$var wire 16 N" d [15:0] $end
$var wire 2 O" s [1:0] $end
$var parameter 32 P" WIDTH $end
$var reg 16 Q" op [15:0] $end
$upscope $end
$scope module wdmux $end
$var wire 16 R" a [15:0] $end
$var wire 16 S" b [15:0] $end
$var wire 1 / s $end
$var wire 16 T" op [15:0] $end
$var parameter 32 U" WIDTH $end
$upscope $end
$upscope $end
$upscope $end
$scope module mem $end
$var wire 16 V" a [15:0] $end
$var wire 1 ! clk $end
$var wire 16 W" rd [15:0] $end
$var wire 16 X" wd [15:0] $end
$var wire 1 % we $end
$upscope $end
$upscope $end
$upscope $end
$enddefinitions $end
$comment Show the parameter values. $end
$dumpall
b10000 U"
b10000 P"
b10000 J"
b11 7"
b10000 2"
b10000 0"
b10000 )"
b10000 $"
b10000 !"
b10000 |
b10000 y
b10000 r
b1001 S
b10 R
b101 Q
b100 P
b11 O
b10 N
b1010 M
b1101 L
b0 K
b110 J
b1 I
b1000 H
b1011 G
b111 F
b0 E
$end
#0
$dumpvars
b0 X"
b101000111100 W"
b0 V"
b0 T"
b0 S"
b0 R"
b10 Q"
b1 O"
b0 N"
b0 M"
b10 L"
b0 K"
b0 I"
b0 H"
b0 G"
b0 F"
b0 E"
1D"
b10 C"
bx B"
bx A"
bx @"
bx ?"
bx >"
b0 ="
b0 <"
bx ;"
bx :"
b0 9"
b0 8"
b0 6"
b0 5"
b0 4"
b0 3"
bx 1"
bx /"
b0 ."
bx -"
b0 ,"
b10 +"
b0 *"
b101000111100 ("
b0 '"
b0 &"
b0 %"
b101000111100 #"
b0 ""
bx ~
b0 }
bx {
b0 z
b10 x
b10 w
0v
b0 u
b10 t
b10 s
b0 q
b0 p
b0 o
b0 n
b0 m
b0 l
b10 k
b0 j
b0 i
b0 h
b0 g
bx f
b101000111100 e
bx d
b0 c
b0 b
b0 a
b10 `
b0 _
b0 ^
b0 ]
0\
bx [
bx Z
b0 Y
b1 X
b10 W
b0 V
b1 U
b101000000010000 T
b0 D
b1 C
b0 B
b0 A
b10 @
b0 ?
b0 >
b10 =
b0 <
b1 ;
0:
b0 9
b0 8
17
b0 6
b10 5
04
b1 3
02
01
10
0/
b0 .
1-
b0 ,
b101000111100 +
0*
0)
b0 (
0'
b0 &
0%
b101000111100 $
b0 #
1"
1!
$end
#1
b10 f
b10 /"
b10 1"
#5
0!
#10
1!
#12
0"
#15
0!
#20
b1111111111111000 `
b1111111111111000 t
b1111111111111000 Q"
0-
07
00
b11 3
b11 ;
b11 C
b11 X
b11 O"
b1111111111111010 k
b1111111111111010 w
b1111111111111010 x
b1111111111111010 +"
b110000 T
b110 U
b101001001101 $
b101001001101 +
b101001001101 e
b101001001101 #"
b101001001101 ("
b101001001101 W"
b1111111111111000 b
b1111111111111000 &"
b1111111111111000 N"
0'
b10 a
b10 u
b10 I"
b10 &
b10 6
b10 m
b10 o
b10 V"
b1111111111111100 c
b1111111111111100 '"
b1111111111111100 F"
b1111111111111100 M"
b111100 E"
b101 8"
b111 5"
b10 _
b10 ="
b10 T"
b1 V
b100 C"
b10 g
b10 q
b10 3"
b10 G"
b101000111100 i
b101000111100 *"
b101000111100 j
b101000111100 %"
b101000111100 S"
bx n
bx }
bx H"
bx #
bx (
bx ^
bx ""
bx K"
bx X"
b10 l
b10 p
b10 z
b10 ,"
b10 R"
1!
#21
b1111111111111010 f
b1111111111111010 /"
b1111111111111010 1"
#25
0!
#30
x2
xv
bx k
bx w
bx x
bx +"
bx `
bx t
bx Q"
x'
bx a
bx u
bx I"
14
b0 3
b0 ;
b0 C
b0 X
b0 O"
b10 <
b10 ?
b10 D
b10000000010 T
b111 U
b1111111111111010 _
b1111111111111010 ="
b1111111111111010 T"
b1111111111111010 l
b1111111111111010 p
b1111111111111010 z
b1111111111111010 ,"
b1111111111111010 R"
b101001001101 j
b101001001101 %"
b101001001101 S"
b110 V
1!
#31
bx f
bx /"
bx 1"
#35
0!
#40
x\
b10 a
b10 u
b10 I"
b111 ]
b111 6"
b111 <"
1)
04
1*
b0 <
b0 ?
b0 D
b100001000000 T
b0 U
bx _
bx ="
bx T"
b111 V
bx l
bx p
bx z
bx ,"
bx R"
1!
#45
0!
#50
02
0v
b100 k
b100 w
b100 x
b100 +"
1'
b10 `
b10 t
b10 Q"
1-
0\
b0 ]
b0 6"
b0 <"
17
10
0)
0*
b1 3
b1 ;
b1 C
b1 X
b1 O"
b101000000010000 T
b1 U
b0 V
1!
#51
b100 f
b100 /"
b100 1"
#55
0!
#60
b11010 `
b11010 t
b11010 Q"
0-
07
00
b11 3
b11 ;
b11 C
b11 X
b11 O"
b11110 k
b11110 w
b11110 x
b11110 +"
b110000 T
b110 U
b10101101111100 $
b10101101111100 +
b10101101111100 e
b10101101111100 #"
b10101101111100 ("
b10101101111100 W"
b11010 b
b11010 &"
b11010 N"
b1 ]
b1 6"
b1 <"
0'
b100 a
b100 u
b100 I"
b100 &
b100 6
b100 m
b100 o
b100 V"
b1101 c
b1101 '"
b1101 F"
b1101 M"
b1101 E"
b1 9"
b1 5"
b1 4"
b100 _
b100 ="
b100 T"
b1 V
b110 C"
b100 g
b100 q
b100 3"
b100 G"
b101001001101 i
b101001001101 *"
b100 l
b100 p
b100 z
b100 ,"
b100 R"
1!
#61
b11110 f
b11110 /"
b11110 1"
#65
0!
#70
x2
xv
bx k
bx w
bx x
bx +"
bx `
bx t
bx Q"
x'
bx a
bx u
bx I"
14
b0 3
b0 ;
b0 C
b0 X
b0 O"
b10 <
b10 ?
b10 D
b10000000010 T
b111 U
b11110 _
b11110 ="
b11110 T"
b11110 l
b11110 p
b11110 z
b11110 ,"
b11110 R"
b10101101111100 j
b10101101111100 %"
b10101101111100 S"
b110 V
1!
#71
bx f
bx /"
bx 1"
#75
0!
#80
x\
b100 a
b100 u
b100 I"
1)
04
1*
b0 <
b0 ?
b0 D
b100001000000 T
b0 U
bx _
bx ="
bx T"
b111 V
bx l
bx p
bx z
bx ,"
bx R"
1!
#85
0!
#90
02
0v
b110 k
b110 w
b110 x
b110 +"
0'
b10 `
b10 t
b10 Q"
1-
0\
17
10
0)
0*
b1 3
b1 ;
b1 C
b1 X
b1 O"
b101000000010000 T
b1 U
b0 V
1!
#91
b110 f
b110 /"
b110 1"
#95
0!
#100
b1111111111111000 `
b1111111111111000 t
b1111111111111000 Q"
0-
07
00
b11 3
b11 ;
b11 C
b11 X
b11 O"
b1111111111111110 k
b1111111111111110 w
b1111111111111110 x
b1111111111111110 +"
b110000 T
b110 U
b10010011010100 $
b10010011010100 +
b10010011010100 e
b10010011010100 #"
b10010011010100 ("
b10010011010100 W"
b1111111111111000 b
b1111111111111000 &"
b1111111111111000 N"
b101 ]
b101 6"
b101 <"
b110 a
b110 u
b110 I"
b110 &
b110 6
b110 m
b110 o
b110 V"
b1111111111111100 c
b1111111111111100 '"
b1111111111111100 F"
b1111111111111100 M"
b111100 E"
b101 9"
b111 5"
b101 4"
b10 .
b10 9
b10 >
b10 B
b10 h
b110 _
b110 ="
b110 T"
b1 V
b1000 C"
b110 g
b110 q
b110 3"
b110 G"
b10101101111100 i
b10101101111100 *"
b110 l
b110 p
b110 z
b110 ,"
b110 R"
1!
#101
b1111111111111110 f
b1111111111111110 /"
b1111111111111110 1"
#105
0!
#110
x2
xv
bx k
bx w
bx x
bx +"
bx `
bx t
bx Q"
b110 5
b110 =
b110 @
b110 W
b110 s
x'
bx a
bx u
bx I"
14
b0 3
b0 ;
b0 C
b0 X
b0 O"
b10 <
b10 ?
b10 D
b10000000010 T
b111 U
b1111111111111110 _
b1111111111111110 ="
b1111111111111110 T"
b1111111111111110 l
b1111111111111110 p
b1111111111111110 z
b1111111111111110 ,"
b1111111111111110 R"
b10010011010100 j
b10010011010100 %"
b10010011010100 S"
b110 V
1!
#111
bx f
bx /"
bx 1"
#115
0!
#120
bx k
bx w
bx x
bx +"
b10 5
b10 =
b10 @
b10 W
b10 s
x\
b110 a
b110 u
b110 I"
b111 ]
b111 6"
b111 <"
1)
04
1*
b0 <
b0 ?
b0 D
b100001000000 T
b0 U
bx _
bx ="
bx T"
b111 V
bx l
bx p
bx z
bx ,"
bx R"
1!
#125
0!
#130
02
0v
b1000 k
b1000 w
b1000 x
b1000 +"
0'
b10 `
b10 t
b10 Q"
1-
0\
b101 ]
b101 6"
b101 <"
17
10
0)
0*
b1 3
b1 ;
b1 C
b1 X
b1 O"
b101000000010000 T
b1 U
b0 V
1!
#131
b1000 f
b1000 /"
b1000 1"
#135
0!
#140
b101000 `
b101000 t
b101000 Q"
0-
07
00
b11 3
b11 ;
b11 C
b11 X
b11 O"
b110000 k
b110000 w
b110000 x
b110000 +"
b110000 T
b110 U
b1010001010100000 $
b1010001010100000 +
b1010001010100000 e
b1010001010100000 #"
b1010001010100000 ("
b1010001010100000 W"
b101000 b
b101000 &"
b101000 N"
b11 ]
b11 6"
b11 <"
b1000 a
b1000 u
b1000 I"
b1000 &
b1000 6
b1000 m
b1000 o
b1000 V"
b10100 c
b10100 '"
b10100 F"
b10100 M"
b10100 E"
b11 9"
b10 8"
b10 5"
b11 4"
b1000 _
b1000 ="
b1000 T"
b1 V
b1010 C"
b1000 g
b1000 q
b1000 3"
b1000 G"
b10010011010100 i
b10010011010100 *"
b1000 l
b1000 p
b1000 z
b1000 ,"
b1000 R"
1!
#141
b110000 f
b110000 /"
b110000 1"
#145
0!
#150
x2
xv
bx k
bx w
bx x
bx +"
bx `
bx t
bx Q"
b110 5
b110 =
b110 @
b110 W
b110 s
x'
bx a
bx u
bx I"
14
b0 3
b0 ;
b0 C
b0 X
b0 O"
b10 <
b10 ?
b10 D
b10000000010 T
b111 U
b110000 _
b110000 ="
b110000 T"
b110000 l
b110000 p
b110000 z
b110000 ,"
b110000 R"
b1010001010100000 j
b1010001010100000 %"
b1010001010100000 S"
b110 V
1!
#151
bx f
bx /"
bx 1"
#155
0!
#160
bx k
bx w
bx x
bx +"
b10 5
b10 =
b10 @
b10 W
b10 s
x\
b1000 a
b1000 u
b1000 I"
b10 ]
b10 6"
b10 <"
1)
04
1*
b0 <
b0 ?
b0 D
b100001000000 T
b0 U
bx _
bx ="
bx T"
b111 V
bx l
bx p
bx z
bx ,"
bx R"
1!
#165
0!
#170
02
0v
b1010 k
b1010 w
b1010 x
b1010 +"
0'
b10 `
b10 t
b10 Q"
1-
0\
b11 ]
b11 6"
b11 <"
17
10
0)
0*
b1 3
b1 ;
b1 C
b1 X
b1 O"
b101000000010000 T
b1 U
b0 V
1!
#171
b1010 f
b1010 /"
b1010 1"
#175
0!
#180
b1111111111000000 `
b1111111111000000 t
b1111111111000000 Q"
0-
07
00
b11 3
b11 ;
b11 C
b11 X
b11 O"
b1111111111001010 k
b1111111111001010 w
b1111111111001010 x
b1111111111001010 +"
b110000 T
b10 U
b1010010111000000 $
b1010010111000000 +
b1010010111000000 e
b1010010111000000 #"
b1010010111000000 ("
b1010010111000000 W"
b1111111111000000 b
b1111111111000000 &"
b1111111111000000 N"
b10 ]
b10 6"
b10 <"
b1010 a
b1010 u
b1010 I"
b1010 &
b1010 6
b1010 m
b1010 o
b1010 V"
b1111111111100000 c
b1111111111100000 '"
b1111111111100000 F"
b1111111111100000 M"
b100000 E"
b10 9"
b1 8"
b100 5"
b10 4"
b1010 .
b1010 9
b1010 >
b1010 B
b1010 h
b1010 _
b1010 ="
b1010 T"
b1 V
b1100 C"
b1010 g
b1010 q
b1010 3"
b1010 G"
b1010001010100000 i
b1010001010100000 *"
b1010 l
b1010 p
b1010 z
b1010 ,"
b1010 R"
1!
#181
b1111111111001010 f
b1111111111001010 /"
b1111111111001010 1"
#185
0!
#190
x2
xv
bx k
bx w
bx x
bx +"
b1111111111100000 `
b1111111111100000 t
b1111111111100000 Q"
x'
bx a
bx u
bx I"
14
b10 3
b10 ;
b10 C
b10 X
b10 O"
b10000100000 T
b11 U
b1111111111001010 _
b1111111111001010 ="
b1111111111001010 T"
b1111111111001010 l
b1111111111001010 p
b1111111111001010 z
b1111111111001010 ,"
b1111111111001010 R"
b1010010111000000 j
b1010010111000000 %"
b1010010111000000 S"
b10 V
1!
#191
bx f
bx /"
bx 1"
#195
0!
#200
x2
xv
bx k
bx w
bx x
bx +"
bx `
bx t
bx Q"
bx $
bx +
bx e
bx #"
bx ("
bx W"
x'
b1010 a
b1010 u
b1010 I"
bx &
bx 6
bx m
bx o
bx V"
04
11
b0 3
b0 ;
b0 C
b0 X
b0 O"
b100000000 T
b100 U
bx _
bx ="
bx T"
b11 V
bx l
bx p
bx z
bx ,"
bx R"
1!
#205
0!
#210
b1010010111000000 $
b1010010111000000 +
b1010010111000000 e
b1010010111000000 #"
b1010010111000000 ("
b1010010111000000 W"
x\
b1010 &
b1010 6
b1010 m
b1010 o
b1010 V"
1)
01
1/
b100010000000 T
b0 U
bx j
bx %"
bx S"
b100 V
1!
#215
0!
#220
02
0v
b1100 k
b1100 w
b1100 x
b1100 +"
0'
b10 `
b10 t
b10 Q"
1-
0\
17
10
0)
0/
b1 3
b1 ;
b1 C
b1 X
b1 O"
b101000000010000 T
b1 U
bx _
bx ="
bx T"
b0 V
b1010010111000000 j
b1010010111000000 %"
b1010010111000000 S"
1!
#221
b1100 f
b1100 /"
b1100 1"
#225
0!
#230
b0 `
b0 t
b0 Q"
0-
07
00
b11 3
b11 ;
b11 C
b11 X
b11 O"
b1100 k
b1100 w
b1100 x
b1100 +"
b110000 T
b10 U
b0 b
b0 &"
b0 N"
b111 ]
b111 6"
b111 <"
b1001001010100000 $
b1001001010100000 +
b1001001010100000 e
b1001001010100000 #"
b1001001010100000 ("
b1001001010100000 W"
b1100 _
b1100 ="
b1100 T"
b0 c
b0 '"
b0 F"
b0 M"
b0 E"
b111 9"
b10 8"
b0 5"
b111 4"
b1100 a
b1100 u
b1100 I"
b1100 &
b1100 6
b1100 m
b1100 o
b1100 V"
b1100 l
b1100 p
b1100 z
b1100 ,"
b1100 R"
b1010010111000000 i
b1010010111000000 *"
b1110 C"
b1100 g
b1100 q
b1100 3"
b1100 G"
b1 V
1!
#235
0!
#240
x2
xv
bx k
bx w
bx x
bx +"
x'
bx a
bx u
bx I"
14
b10 3
b10 ;
b10 C
b10 X
b10 O"
b10000100000 T
b11 U
b10 V
b1001001010100000 j
b1001001010100000 %"
b1001001010100000 S"
1!
#241
bx f
bx /"
bx 1"
#245
0!
#250
x2
xv
bx k
bx w
bx x
bx +"
bx `
bx t
bx Q"
bx $
bx +
bx e
bx #"
bx ("
bx W"
x'
b1100 a
b1100 u
b1100 I"
bx &
bx 6
bx m
bx o
bx V"
04
11
b0 3
b0 ;
b0 C
b0 X
b0 O"
b100000000 T
b100 U
bx _
bx ="
bx T"
bx l
bx p
bx z
bx ,"
bx R"
b11 V
1!
#255
0!
#260
b1001001010100000 $
b1001001010100000 +
b1001001010100000 e
b1001001010100000 #"
b1001001010100000 ("
b1001001010100000 W"
x\
b1100 &
b1100 6
b1100 m
b1100 o
b1100 V"
1)
01
1/
b100010000000 T
b0 U
b100 V
bx j
bx %"
bx S"
1!
#265
0!
#270
02
0v
b1110 k
b1110 w
b1110 x
b1110 +"
0'
b10 `
b10 t
b10 Q"
1-
0\
17
10
0)
0/
b1 3
b1 ;
b1 C
b1 X
b1 O"
b101000000010000 T
b1 U
bx _
bx ="
bx T"
b1001001010100000 j
b1001001010100000 %"
b1001001010100000 S"
b0 V
1!
#271
b1110 f
b1110 /"
b1110 1"
#275
0!
#280
b1111111111000000 `
b1111111111000000 t
b1111111111000000 Q"
0-
07
00
b11 3
b11 ;
b11 C
b11 X
b11 O"
b1111111111001110 k
b1111111111001110 w
b1111111111001110 x
b1111111111001110 +"
b110000 T
b10 U
b1001110000110100 $
b1001110000110100 +
b1001110000110100 e
b1001110000110100 #"
b1001110000110100 ("
b1001110000110100 W"
b1111111111000000 b
b1111111111000000 &"
b1111111111000000 N"
b10 ]
b10 6"
b10 <"
b1110 a
b1110 u
b1110 I"
b1110 &
b1110 6
b1110 m
b1110 o
b1110 V"
b1111111111100000 c
b1111111111100000 '"
b1111111111100000 F"
b1111111111100000 M"
b100000 E"
b10 9"
b1 8"
b100 5"
b10 4"
b1001 .
b1001 9
b1001 >
b1001 B
b1001 h
b1110 _
b1110 ="
b1110 T"
b1 V
b10000 C"
b1110 g
b1110 q
b1110 3"
b1110 G"
b1001001010100000 i
b1001001010100000 *"
b1110 l
b1110 p
b1110 z
b1110 ,"
b1110 R"
1!
#281
b1111111111001110 f
b1111111111001110 /"
b1111111111001110 1"
#285
0!
#290
x2
xv
bx k
bx w
bx x
bx +"
b1111111111100000 `
b1111111111100000 t
b1111111111100000 Q"
x'
bx a
bx u
bx I"
14
b10 3
b10 ;
b10 C
b10 X
b10 O"
b10000100000 T
b101 U
b1111111111001110 _
b1111111111001110 ="
b1111111111001110 T"
b1111111111001110 l
b1111111111001110 p
b1111111111001110 z
b1111111111001110 ,"
b1111111111001110 R"
b1001110000110100 j
b1001110000110100 %"
b1001110000110100 S"
b10 V
1!
#291
bx f
bx /"
bx 1"
#295
0!
#300
x2
xv
bx k
bx w
bx x
bx +"
bx `
bx t
bx Q"
bx $
bx +
bx e
bx #"
bx ("
bx W"
x'
b1110 a
b1110 u
b1110 I"
bx &
bx 6
bx m
bx o
bx V"
1%
04
11
b0 3
b0 ;
b0 C
b0 X
b0 O"
b10000100000000 T
b0 U
bx _
bx ="
bx T"
b101 V
bx l
bx p
bx z
bx ,"
bx R"
1!
#305
0!
#310
02
0v
b10000 k
b10000 w
b10000 x
b10000 +"
0'
b10 `
b10 t
b10 Q"
b1001110000110100 $
b1001110000110100 +
b1001110000110100 e
b1001110000110100 #"
b1001110000110100 ("
b1001110000110100 W"
1-
b1110 &
b1110 6
b1110 m
b1110 o
b1110 V"
17
0%
10
01
b1 3
b1 ;
b1 C
b1 X
b1 O"
b101000000010000 T
b1 U
bx j
bx %"
bx S"
b0 V
1!
#311
b10000 f
b10000 /"
b10000 1"
#315
0!
#320
b1111111111101000 `
b1111111111101000 t
b1111111111101000 Q"
0-
07
00
b11 3
b11 ;
b11 C
b11 X
b11 O"
b1111111111111000 k
b1111111111111000 w
b1111111111111000 x
b1111111111111000 +"
b110000 T
b10 U
b1011001010100100 $
b1011001010100100 +
b1011001010100100 e
b1011001010100100 #"
b1011001010100100 ("
b1011001010100100 W"
b1111111111101000 b
b1111111111101000 &"
b1111111111101000 N"
b0 ]
b0 6"
b0 <"
b10000 a
b10000 u
b10000 I"
b10000 &
b10000 6
b10000 m
b10000 o
b10000 V"
b1111111111110100 c
b1111111111110100 '"
b1111111111110100 F"
b1111111111110100 M"
b110100 E"
b0 9"
b110 8"
b110 5"
b0 4"
b10000 _
b10000 ="
b10000 T"
b1 V
b10010 C"
b10000 g
b10000 q
b10000 3"
b10000 G"
b1001110000110100 i
b1001110000110100 *"
b1001110000110100 j
b1001110000110100 %"
b1001110000110100 S"
b10000 l
b10000 p
b10000 z
b10000 ,"
b10000 R"
1!
#321
b1111111111111000 f
b1111111111111000 /"
b1111111111111000 1"
#325
0!
#330
x2
xv
bx k
bx w
bx x
bx +"
b1111111111110100 `
b1111111111110100 t
b1111111111110100 Q"
x'
bx a
bx u
bx I"
14
b10 3
b10 ;
b10 C
b10 X
b10 O"
b10000100000 T
b101 U
b1111111111111000 _
b1111111111111000 ="
b1111111111111000 T"
b1111111111111000 l
b1111111111111000 p
b1111111111111000 z
b1111111111111000 ,"
b1111111111111000 R"
b1011001010100100 j
b1011001010100100 %"
b1011001010100100 S"
b10 V
1!
#331
bx f
bx /"
bx 1"
#335
0!
#340
x2
xv
bx k
bx w
bx x
bx +"
bx `
bx t
bx Q"
bx $
bx +
bx e
bx #"
bx ("
bx W"
x'
b10000 a
b10000 u
b10000 I"
bx &
bx 6
bx m
bx o
bx V"
1%
04
11
b0 3
b0 ;
b0 C
b0 X
b0 O"
b10000100000000 T
b0 U
bx _
bx ="
bx T"
b101 V
bx l
bx p
bx z
bx ,"
bx R"
1!
#345
0!
#350
02
0v
b10010 k
b10010 w
b10010 x
b10010 +"
0'
b10 `
b10 t
b10 Q"
b1011001010100100 $
b1011001010100100 +
b1011001010100100 e
b1011001010100100 #"
b1011001010100100 ("
b1011001010100100 W"
1-
b10000 &
b10000 6
b10000 m
b10000 o
b10000 V"
17
0%
10
01
b1 3
b1 ;
b1 C
b1 X
b1 O"
b101000000010000 T
b1 U
bx j
bx %"
bx S"
b0 V
1!
#351
b10010 f
b10010 /"
b10010 1"
#355
0!
#360
b1111111111001000 `
b1111111111001000 t
b1111111111001000 Q"
0-
07
00
b11 3
b11 ;
b11 C
b11 X
b11 O"
b1111111111011010 k
b1111111111011010 w
b1111111111011010 x
b1111111111011010 +"
b110000 T
b1000 U
b1011011011111000 $
b1011011011111000 +
b1011011011111000 e
b1011011011111000 #"
b1011011011111000 ("
b1011011011111000 W"
b1111111111001000 b
b1111111111001000 &"
b1111111111001000 N"
b10 ]
b10 6"
b10 <"
b10010 a
b10010 u
b10010 I"
b10010 &
b10010 6
b10010 m
b10010 o
b10010 V"
b1111111111100100 c
b1111111111100100 '"
b1111111111100100 F"
b1111111111100100 M"
b100100 E"
b10 9"
b1 8"
b100 5"
b10 4"
b1011 .
b1011 9
b1011 >
b1011 B
b1011 h
b10010 _
b10010 ="
b10010 T"
b1 V
b10100 C"
b10010 g
b10010 q
b10010 3"
b10010 G"
b1011001010100100 i
b1011001010100100 *"
b1011001010100100 j
b1011001010100100 %"
b1011001010100100 S"
b10010 l
b10010 p
b10010 z
b10010 ,"
b10010 R"
1!
#361
b1111111111011010 f
b1111111111011010 /"
b1111111111011010 1"
#365
0!
#370
x2
xv
bx k
bx w
bx x
bx +"
bx `
bx t
bx Q"
bx 5
bx =
bx @
bx W
bx s
x'
bx a
bx u
bx I"
14
b0 3
b0 ;
b0 C
b0 X
b0 O"
b1 ,
b1 8
b1 A
b1 Y
b1 ."
b1 <
b1 ?
b1 D
b10000000101 T
b0 U
b1111111111011010 _
b1111111111011010 ="
b1111111111011010 T"
b1111111111011010 l
b1111111111011010 p
b1111111111011010 z
b1111111111011010 ,"
b1111111111011010 R"
b1011011011111000 j
b1011011011111000 %"
b1011011011111000 S"
b1000 V
1!
#375
0!
